sample_code/lab3_cpu.vcd
$date
	Mon May 25 19:38:42 2020
$end
$version
	Icarus Verilog
$end
$timescale
	1s
$end
$scope module TestBench $end
$scope module cpu $end
$var wire 1 ! clk_i $end
$var wire 1 " rst_i $end
$var wire 1 # zero_alu $end
$var wire 32 $ write_data2 [31:0] $end
$var wire 5 % tmp_number_WriteReg_fromMux [4:0] $end
$var wire 32 & tmp_jump_address [31:0] $end
$var wire 32 ' tmp [31:0] $end
$var wire 32 ( result_mux_mem_alu [31:0] $end
$var wire 32 ) result_mem [31:0] $end
$var wire 32 * pc_plus_4 [31:0] $end
$var wire 32 + pc_out [31:0] $end
$var wire 32 , pc_in [31:0] $end
$var wire 5 - number_WriteReg_fromMux [4:0] $end
$var wire 1 . mem_write $end
$var wire 1 / mem_reg $end
$var wire 1 0 mem_read $end
$var wire 32 1 jump_address_2 [31:0] $end
$var wire 32 2 jump_address [31:0] $end
$var wire 1 3 jump $end
$var wire 1 4 jr $end
$var wire 1 5 jal $end
$var wire 32 6 instruction [31:0] $end
$var wire 32 7 data_into_ALU_after_mux [31:0] $end
$var wire 32 8 data_after_se [31:0] $end
$var wire 32 9 data_after_left2 [31:0] $end
$var wire 1 : branch_type_or_not $end
$var wire 2 ; branch_type [1:0] $end
$var wire 32 < branch_target_addr [31:0] $end
$var wire 32 = branch_address [31:0] $end
$var wire 1 > branch $end
$var wire 1 ? RegWrite $end
$var wire 1 @ RegDst $end
$var wire 32 A RT_data [31:0] $end
$var wire 32 B RS_data [31:0] $end
$var wire 32 C RD_data [31:0] $end
$var wire 4 D AlU_control [3:0] $end
$var wire 1 E ALUSrc $end
$var wire 3 F ALUOp [2:0] $end
$scope module AC $end
$var wire 6 G funct_i [5:0] $end
$var wire 3 H ALUOp_i [2:0] $end
$var reg 4 I ALUCtrl_o [3:0] $end
$var reg 1 4 jr_o $end
$upscope $end
$scope module ALU $end
$var wire 4 J ctrl_i [3:0] $end
$var wire 5 K shamt_i [4:0] $end
$var wire 5 L tmp_shamt [4:0] $end
$var wire 32 M tmp_src1 [31:0] $end
$var wire 32 N tmp_src2 [31:0] $end
$var wire 32 O src2_i [31:0] $end
$var wire 32 P src1_i [31:0] $end
$var reg 32 Q result_o [31:0] $end
$var reg 1 # zero_o $end
$upscope $end
$scope module Adder1 $end
$var wire 32 R src2_i [31:0] $end
$var wire 32 S sum_o [31:0] $end
$var wire 32 T src1_i [31:0] $end
$upscope $end
$scope module Adder2 $end
$var wire 32 U src1_i [31:0] $end
$var wire 32 V sum_o [31:0] $end
$var wire 32 W src2_i [31:0] $end
$upscope $end
$scope module Data_Memory $end
$var wire 32 X addr_i [31:0] $end
$var wire 1 ! clk_i $end
$var wire 32 Y data_i [31:0] $end
$var wire 1 . MemWrite_i $end
$var wire 1 0 MemRead_i $end
$var reg 32 Z data_o [31:0] $end
$var integer 32 [ i [31:0] $end
$upscope $end
$scope module Decoder $end
$var wire 6 \ instr_op_i [5:0] $end
$var reg 1 E ALUSrc_o $end
$var reg 3 ] ALU_op_o [2:0] $end
$var reg 1 > Branch_o $end
$var reg 1 @ RegDst_o $end
$var reg 1 ? RegWrite_o $end
$var reg 2 ^ branch_type_o [1:0] $end
$var reg 1 5 jal_o $end
$var reg 1 3 jump_o $end
$var reg 1 0 mem_read_o $end
$var reg 1 / mem_to_reg $end
$var reg 1 . mem_write_o $end
$upscope $end
$scope module IM $end
$var wire 32 _ pc_addr_i [31:0] $end
$var reg 32 ` instr_o [31:0] $end
$var integer 32 a i [31:0] $end
$upscope $end
$scope module Jrr $end
$var wire 1 4 select_i $end
$var wire 32 b data1_i [31:0] $end
$var wire 32 c data0_i [31:0] $end
$var reg 32 d data_o [31:0] $end
$upscope $end
$scope module Jump_address $end
$var wire 32 e data_i [31:0] $end
$var wire 32 f data_o [31:0] $end
$upscope $end
$scope module Mux_ALUSrc $end
$var wire 1 E select_i $end
$var wire 32 g data1_i [31:0] $end
$var wire 32 h data0_i [31:0] $end
$var reg 32 i data_o [31:0] $end
$upscope $end
$scope module Mux_PC_Source $end
$var wire 32 j data0_i [31:0] $end
$var wire 32 k data1_i [31:0] $end
$var wire 1 l select_i $end
$var reg 32 m data_o [31:0] $end
$upscope $end
$scope module Mux_Write_Reg $end
$var wire 5 n data0_i [4:0] $end
$var wire 5 o data1_i [4:0] $end
$var wire 1 @ select_i $end
$var reg 5 p data_o [4:0] $end
$upscope $end
$scope module Mux_Write_Reg_or_jal $end
$var wire 5 q data0_i [4:0] $end
$var wire 5 r data1_i [4:0] $end
$var wire 1 5 select_i $end
$var reg 5 s data_o [4:0] $end
$upscope $end
$scope module Mux_jump $end
$var wire 32 t data0_i [31:0] $end
$var wire 32 u data1_i [31:0] $end
$var wire 1 3 select_i $end
$var reg 32 v data_o [31:0] $end
$upscope $end
$scope module Mux_mem_or_alu $end
$var wire 32 w data0_i [31:0] $end
$var wire 32 x data1_i [31:0] $end
$var wire 1 / select_i $end
$var reg 32 y data_o [31:0] $end
$upscope $end
$scope module PC $end
$var wire 1 ! clk_i $end
$var wire 32 z pc_in_i [31:0] $end
$var wire 1 " rst_i $end
$var reg 32 { pc_out_o [31:0] $end
$upscope $end
$scope module RF $end
$var wire 5 | RDaddr_i [4:0] $end
$var wire 5 } RSaddr_i [4:0] $end
$var wire 32 ~ RSdata_o [31:0] $end
$var wire 5 !" RTaddr_i [4:0] $end
$var wire 32 "" RTdata_o [31:0] $end
$var wire 1 ? RegWrite_i $end
$var wire 1 ! clk_i $end
$var wire 1 " rst_i $end
$var wire 32 #" RDdata_i [31:0] $end
$upscope $end
$scope module SE $end
$var wire 4 $" ctrl_i [3:0] $end
$var wire 16 %" data_i [15:0] $end
$var reg 32 &" data_o [31:0] $end
$upscope $end
$scope module Shifter $end
$var wire 32 '" data_i [31:0] $end
$var wire 32 (" data_o [31:0] $end
$upscope $end
$scope module branchtype $end
$var wire 1 )" ALU_result_i $end
$var wire 2 *" Branch_type_i [1:0] $end
$var wire 1 # Zero_i $end
$var reg 1 : branch_type_result_o $end
$upscope $end
$scope module write_data $end
$var wire 32 +" data0_i [31:0] $end
$var wire 32 ," data1_i [31:0] $end
$var wire 1 5 select_i $end
$var reg 32 -" data_o [31:0] $end
$upscope $end
$upscope $end
$upscope $end
$enddefinitions $end
#0
$dumpvars
bx -"
bx ,"
bx +"
bx *"
x)"
bx00 ("
bx '"
bx &"
bx %"
bx $"
bx #"
bx ""
bx !"
bx ~
bx }
bx |
bx {
bx z
bx y
bx x
bx w
bx v
bx00 u
bx t
bx s
b11111 r
bx q
bx p
bx o
bx n
bx m
xl
bx k
bx j
bx i
bx h
bx g
b0xxxxxxxxxxxxxxxxxxxxxxxxxx00 f
b0xxxxxxxxxxxxxxxxxxxxxxxxxx e
bx d
bx c
bx b
b100000 a
bx `
bx _
bx ^
bx ]
bx \
b10000000 [
bx Z
bx Y
bx X
bx00 W
bx V
bx U
bx T
bx S
b100 R
bx Q
bx P
bx O
bx N
bx M
bx L
bx K
bx J
bx I
bx H
bx G
bx F
xE
bx D
bx C
bx B
bx A
x@
x?
x>
bx =
bx <
bx ;
x:
bx00 9
bx 8
bx 7
bx 6
x5
x4
x3
bx00 2
bx 1
x0
x/
x.
bx -
bx ,
bx +
bx *
bx )
bx (
b0xxxxxxxxxxxxxxxxxxxxxxxxxx '
b0xxxxxxxxxxxxxxxxxxxxxxxxxx00 &
bx %
bx $
x#
0"
0!
$end
#5
b101100 $
b101100 #"
b101100 -"
b100 ,
b100 d
b100 z
b101100 (
b101100 y
b101100 +"
0)"
b100 1
b100 c
b100 v
b101100 C
b101100 Q
b101100 X
b101100 w
b100 =
b100 m
b100 t
b101100 N
b101100 7
b101100 O
b101100 i
b10 D
b10 I
b10 J
b10 $"
0:
b11101 -
b11101 s
b11101 |
b10110100 <
b10110100 V
b10110100 k
b10110000 9
b10110000 W
b10110000 ("
0l
b101100 8
b101100 g
b101100 &"
b101100 '"
04
05
b0 ;
b0 ^
b0 *"
03
0/
00
0.
0>
0@
1E
b1 F
b1 H
b1 ]
1?
0#
b11101 %
b11101 p
b11101 q
b11101000000000010110000 &
b11101000000000010110000 f
b111010000000000101100 '
b111010000000000101100 e
b0 L
b0 K
b101100 %"
b101100 G
b1000 \
b10000000 A
b10000000 Y
b10000000 h
b10000000 ""
b11101 !"
b0 M
b0 B
b0 P
b0 b
b0 ~
b0 }
b0 o
b11101 n
b11101000000000010110000 2
b11101000000000010110000 u
b100000000111010000000000101100 6
b100000000111010000000000101100 `
b100 *
b100 S
b100 U
b100 j
b100 ,"
b0 +
b0 T
b0 _
b0 {
1!
#10
b101100 A
b101100 Y
b101100 h
b101100 ""
0!
1"
#15
b11 $
b11 #"
b11 -"
b11 (
b11 y
b11 +"
b11 C
b11 Q
b11 X
b11 w
b1000 ,
b1000 d
b1000 z
b11 N
b11 7
b11 O
b11 i
b100 -
b100 s
b100 |
b1000 1
b1000 c
b1000 v
b1100 9
b1100 W
b1100 ("
b11 8
b11 g
b11 &"
b11 '"
b100 %
b100 p
b100 q
b1000 =
b1000 m
b1000 t
b100000000000000001100 2
b100000000000000001100 u
b100000000000000001100 &
b100000000000000001100 f
b1000000000000000011 '
b1000000000000000011 e
b11 %"
b11 G
b100 A
b100 Y
b100 h
b100 ""
b100 !"
b100 n
b100000000001000000000000000011 6
b100000000001000000000000000011 `
b10100 <
b10100 V
b10100 k
b1000 *
b1000 S
b1000 U
b1000 j
b1000 ,"
b100 +
b100 T
b100 _
b100 {
1!
#20
0!
#25
b1000 $
b1000 #"
b1000 -"
b1000 (
b1000 y
b1000 +"
b1000 C
b1000 Q
b1000 X
b1000 w
b1100 ,
b1100 d
b1100 z
b1000 N
b1000 7
b1000 O
b1000 i
b101 -
b101 s
b101 |
b1100 1
b1100 c
b1100 v
b100000 9
b100000 W
b100000 ("
b1000 8
b1000 g
b1000 &"
b1000 '"
b101 %
b101 p
b101 q
b1100 =
b1100 m
b1100 t
b101000000000000100000 2
b101000000000000100000 u
b101000000000000100000 &
b101000000000000100000 f
b1010000000000001000 '
b1010000000000001000 e
b1000 %"
b1000 G
b101 !"
b101 n
b100000000001010000000000001000 6
b100000000001010000000000001000 `
b101100 <
b101100 V
b101100 k
b1100 *
b1100 S
b1100 U
b1100 j
b1100 ,"
b1000 +
b1000 T
b1000 _
b1000 {
b101 A
b101 Y
b101 h
b101 ""
1!
#30
0!
#35
1:
1#
b0 (
b0 y
b0 +"
b0 C
b0 Q
b0 X
b0 w
b10100 ,
b10100 d
b10100 z
b10000 $
b10000 #"
b10000 -"
b0 N
b0 7
b0 O
b0 i
b11111 -
b11111 s
b11111 |
b10100 1
b10100 c
b10100 v
b10100 9
b10100 W
b10100 ("
b101 8
b101 g
b101 &"
b101 '"
15
13
0E
b0 F
b0 H
b0 ]
b0 %
b0 p
b0 q
b10000 =
b10000 m
b10000 t
b10100 2
b10100 u
b10100 &
b10100 f
b101 '
b101 e
b101 %"
b101 G
b11 \
b0 !"
b0 n
b1100000000000000000000000101 6
b1100000000000000000000000101 `
b100100 <
b100100 V
b100100 k
b10000 *
b10000 S
b10000 U
b10000 j
b10000 ,"
b1100 +
b1100 T
b1100 _
b1100 {
b0 A
b0 Y
b0 h
b0 ""
1!
#40
0!
#45
0:
b11000 ,
b11000 d
b11000 z
0#
b10100 (
b10100 y
b10100 +"
b11101 -
b11101 s
b11101 |
b11111111111111111111111110100000 9
b11111111111111111111111110100000 W
b11111111111111111111111110100000 ("
b11000 1
b11000 c
b11000 v
b11111111111111111111111111101000 8
b11111111111111111111111111101000 g
b11111111111111111111111111101000 &"
b11111111111111111111111111101000 '"
05
03
1E
b1 F
b1 H
b1 ]
b11111111111111111111111111101000 N
b11111111111111111111111111101000 7
b11111111111111111111111111101000 O
b11111111111111111111111111101000 i
b10100 C
b10100 Q
b10100 X
b10100 w
b11101 %
b11101 p
b11101 q
b11000 =
b11000 m
b11000 t
b10100 $
b10100 #"
b10100 -"
b1110111101111111111110100000 2
b1110111101111111111110100000 u
b1110111101111111111110100000 &
b1110111101111111111110100000 f
b11101111011111111111101000 '
b11101111011111111111101000 e
b11111 L
b11111 K
b1111111111101000 %"
b101000 G
b1000 \
b101100 A
b101100 Y
b101100 h
b101100 ""
b11101 !"
b101100 M
b101100 B
b101100 P
b101100 b
b101100 ~
b11101 }
b11111 o
b11101 n
b100011101111011111111111101000 6
b100011101111011111111111101000 `
b11111111111111111111111110111000 <
b11111111111111111111111110111000 V
b11111111111111111111111110111000 k
b11000 *
b11000 S
b11000 U
b11000 j
b11000 ,"
b10100 +
b10100 T
b10100 _
b10100 {
1!
#50
0!
#55
b11100 ,
b11100 d
b11100 z
b10100 $
b10100 #"
b10100 -"
b0 N
b0 7
b0 O
b0 i
b1000 D
b1000 I
b1000 J
b1000 $"
b100 -
b100 s
b100 |
b11100 1
b11100 c
b11100 v
b10100 (
b10100 y
b10100 +"
b0 9
b0 W
b0 ("
0)"
b0 8
b0 g
b0 &"
b0 '"
1.
b101 F
b101 H
b101 ]
0?
b100 %
b100 p
b100 q
b11100 =
b11100 m
b11100 t
b10100 C
b10100 Q
b10100 X
b10100 w
b1110100100000000000000000000 2
b1110100100000000000000000000 u
b1110100100000000000000000000 &
b1110100100000000000000000000 f
b11101001000000000000000000 '
b11101001000000000000000000 e
b0 L
b0 K
b0 %"
b0 G
b101011 \
b100 !"
b0 o
b100 n
b10101111101001000000000000000000 6
b10101111101001000000000000000000 `
b11100 <
b11100 V
b11100 k
b11100 *
b11100 S
b11100 U
b11100 j
b11100 ,"
b11000 +
b11000 T
b11000 _
b11000 {
b10100 M
b10100 B
b10100 P
b10100 b
b10100 ~
b11 A
b11 Y
b11 h
b11 ""
1!
#60
0!
#65
b11000 $
b11000 #"
b11000 -"
b11000 (
b11000 y
b11000 +"
b11000 C
b11000 Q
b11000 X
b11000 w
b100000 ,
b100000 d
b100000 z
b100 N
b100 7
b100 O
b100 i
b101 -
b101 s
b101 |
b100000 1
b100000 c
b100000 v
b10000 9
b10000 W
b10000 ("
b100 8
b100 g
b100 &"
b100 '"
b101 %
b101 p
b101 q
b100000 =
b100000 m
b100000 t
b1110100101000000000000010000 2
b1110100101000000000000010000 u
b1110100101000000000000010000 &
b1110100101000000000000010000 f
b11101001010000000000000100 '
b11101001010000000000000100 e
b100 %"
b100 G
b1000 A
b1000 Y
b1000 h
b1000 ""
b101 !"
b101 n
b10101111101001010000000000000100 6
b10101111101001010000000000000100 `
b110000 <
b110000 V
b110000 k
b100000 *
b100000 S
b100000 U
b100000 j
b100000 ,"
b11100 +
b11100 T
b11100 _
b11100 {
1!
#70
0!
#75
b11100 $
b11100 #"
b11100 -"
b11100 (
b11100 y
b11100 +"
b11100 C
b11100 Q
b11100 X
b11100 w
b100100 ,
b100100 d
b100100 z
b1000 N
b1000 7
b1000 O
b1000 i
b10000 -
b10000 s
b10000 |
b100100 1
b100100 c
b100100 v
b100000 9
b100000 W
b100000 ("
b1000 8
b1000 g
b1000 &"
b1000 '"
b10000 %
b10000 p
b10000 q
b100100 =
b100100 m
b100100 t
b1110110000000000000000100000 2
b1110110000000000000000100000 u
b1110110000000000000000100000 &
b1110110000000000000000100000 f
b11101100000000000000001000 '
b11101100000000000000001000 e
b1000 %"
b1000 G
b0 A
b0 Y
b0 h
b0 ""
b10000 !"
b10000 n
b10101111101100000000000000001000 6
b10101111101100000000000000001000 `
b1000100 <
b1000100 V
b1000100 k
b100100 *
b100100 S
b100100 U
b100100 j
b100100 ,"
b100000 +
b100000 T
b100000 _
b100000 {
1!
#80
0!
#85
b100000 $
b100000 #"
b100000 -"
b100000 (
b100000 y
b100000 +"
b100000 C
b100000 Q
b100000 X
b100000 w
b101000 ,
b101000 d
b101000 z
b1100 N
b1100 7
b1100 O
b1100 i
b10001 -
b10001 s
b10001 |
b101000 1
b101000 c
b101000 v
b110000 9
b110000 W
b110000 ("
b1100 8
b1100 g
b1100 &"
b1100 '"
b10001 %
b10001 p
b10001 q
b101000 =
b101000 m
b101000 t
b1110110001000000000000110000 2
b1110110001000000000000110000 u
b1110110001000000000000110000 &
b1110110001000000000000110000 f
b11101100010000000000001100 '
b11101100010000000000001100 e
b1100 %"
b1100 G
b10001 !"
b10001 n
b10101111101100010000000000001100 6
b10101111101100010000000000001100 `
b1011000 <
b1011000 V
b1011000 k
b101000 *
b101000 S
b101000 U
b101000 j
b101000 ,"
b100100 +
b100100 T
b100100 _
b100100 {
1!
#90
0!
#95
b100100 $
b100100 #"
b100100 -"
b100100 (
b100100 y
b100100 +"
b100100 C
b100100 Q
b100100 X
b100100 w
b101100 ,
b101100 d
b101100 z
b10000 N
b10000 7
b10000 O
b10000 i
b11111 -
b11111 s
b11111 |
b101100 1
b101100 c
b101100 v
b1000000 9
b1000000 W
b1000000 ("
b10000 8
b10000 g
b10000 &"
b10000 '"
b11111 %
b11111 p
b11111 q
b101100 =
b101100 m
b101100 t
b1110111111000000000001000000 2
b1110111111000000000001000000 u
b1110111111000000000001000000 &
b1110111111000000000001000000 f
b11101111110000000000010000 '
b11101111110000000000010000 e
b10000 %"
b10000 G
b10000 A
b10000 Y
b10000 h
b10000 ""
b11111 !"
b11111 n
b10101111101111110000000000010000 6
b10101111101111110000000000010000 `
b1101100 <
b1101100 V
b1101100 k
b101100 *
b101100 S
b101100 U
b101100 j
b101100 ,"
b101000 +
b101000 T
b101000 _
b101000 {
1!
#100
0!
#105
b1011 $
b1011 #"
b1011 -"
b110000 ,
b110000 d
b110000 z
b1000 N
b1000 7
b1000 O
b1000 i
b10 D
b10 I
b10 J
b10 $"
b1011 (
b1011 y
b1011 +"
b1000 -
b1000 s
b1000 |
b110000 1
b110000 c
b110000 v
b10000000010000100 9
b10000000010000100 W
b10000000010000100 ("
b100000000100001 8
b100000000100001 g
b100000000100001 &"
b100000000100001 '"
0.
1@
0E
b0 F
b0 H
b0 ]
1?
b1011 C
b1011 Q
b1011 X
b1011 w
b1000 %
b1000 p
b1000 q
b110000 =
b110000 m
b110000 t
b10000101010000000010000100 2
b10000101010000000010000100 u
b10000101010000000010000100 &
b10000101010000000010000100 f
b100001010100000000100001 '
b100001010100000000100001 e
b100000000100001 %"
b100001 G
b0 \
b1000 A
b1000 Y
b1000 h
b1000 ""
b101 !"
b11 M
b11 B
b11 P
b11 b
b11 ~
b100 }
b1000 o
b101 n
b100001010100000000100001 6
b100001010100000000100001 `
b10000000010110100 <
b10000000010110100 V
b10000000010110100 k
b110000 *
b110000 S
b110000 U
b110000 j
b110000 ,"
b101100 +
b101100 T
b101100 _
b101100 {
1!
#110
0!
#115
b1011 $
b1011 #"
b1011 -"
b110100 ,
b110100 d
b110100 z
b1011 (
b1011 y
b1011 +"
b10 -
b10 s
b10 |
b110100 1
b110100 c
b110100 v
b100000010000100 9
b100000010000100 W
b100000010000100 ("
b1000000100001 8
b1000000100001 g
b1000000100001 &"
b1000000100001 '"
b1011 N
b1011 7
b1011 O
b1011 i
b1011 C
b1011 Q
b1011 X
b1011 w
b10 %
b10 p
b10 q
b110100 =
b110100 m
b110100 t
b1000000100000010000100 2
b1000000100000010000100 u
b1000000100000010000100 &
b1000000100000010000100 f
b10000001000000100001 '
b10000001000000100001 e
b1000000100001 %"
b1011 A
b1011 Y
b1011 h
b1011 ""
b1000 !"
b0 M
b0 B
b0 P
b0 b
b0 ~
b0 }
b10 o
b1000 n
b10000001000000100001 6
b10000001000000100001 `
b100000010111000 <
b100000010111000 V
b100000010111000 k
b110100 *
b110100 S
b110100 U
b110100 j
b110100 ,"
b110000 +
b110000 T
b110000 _
b110000 {
1!
#120
0!
#125
b11 $
b11 #"
b11 -"
b111000 ,
b111000 d
b111000 z
b11 (
b11 y
b11 +"
b100 -
b100 s
b100 |
b111000 1
b111000 c
b111000 v
b0 9
b0 W
b0 ("
b11 )
b11 Z
b11 x
b0 8
b0 g
b0 &"
b0 '"
b1000 D
b1000 I
b1000 J
b1000 $"
1/
10
0@
1E
b101 F
b101 H
b101 ]
b0 N
b0 7
b0 O
b0 i
b10100 C
b10100 Q
b10100 X
b10100 w
b100 %
b100 p
b100 q
b111000 =
b111000 m
b111000 t
b1110100100000000000000000000 2
b1110100100000000000000000000 u
b1110100100000000000000000000 &
b1110100100000000000000000000 f
b11101001000000000000000000 '
b11101001000000000000000000 e
b0 %"
b0 G
b100011 \
b11 A
b11 Y
b11 h
b11 ""
b100 !"
b10100 M
b10100 B
b10100 P
b10100 b
b10100 ~
b11101 }
b0 o
b100 n
b10001111101001000000000000000000 6
b10001111101001000000000000000000 `
b111000 <
b111000 V
b111000 k
b111000 *
b111000 S
b111000 U
b111000 j
b111000 ,"
b110100 +
b110100 T
b110100 _
b110100 {
1!
#130
0!
#135
b1000 $
b1000 #"
b1000 -"
b1000 (
b1000 y
b1000 +"
b1000 )
b1000 Z
b1000 x
b11000 C
b11000 Q
b11000 X
b11000 w
b111100 ,
b111100 d
b111100 z
b100 N
b100 7
b100 O
b100 i
b101 -
b101 s
b101 |
b111100 1
b111100 c
b111100 v
b10000 9
b10000 W
b10000 ("
b100 8
b100 g
b100 &"
b100 '"
b101 %
b101 p
b101 q
b111100 =
b111100 m
b111100 t
b1110100101000000000000010000 2
b1110100101000000000000010000 u
b1110100101000000000000010000 &
b1110100101000000000000010000 f
b11101001010000000000000100 '
b11101001010000000000000100 e
b100 %"
b100 G
b1000 A
b1000 Y
b1000 h
b1000 ""
b101 !"
b101 n
b10001111101001010000000000000100 6
b10001111101001010000000000000100 `
b1001100 <
b1001100 V
b1001100 k
b111100 *
b111100 S
b111100 U
b111100 j
b111100 ,"
b111000 +
b111000 T
b111000 _
b111000 {
1!
#140
0!
#145
b0 $
b0 #"
b0 -"
b0 (
b0 y
b0 +"
b0 )
b0 Z
b0 x
b11100 C
b11100 Q
b11100 X
b11100 w
b1000000 ,
b1000000 d
b1000000 z
b1000 N
b1000 7
b1000 O
b1000 i
b10000 -
b10000 s
b10000 |
b1000000 1
b1000000 c
b1000000 v
b100000 9
b100000 W
b100000 ("
b1000 8
b1000 g
b1000 &"
b1000 '"
b10000 %
b10000 p
b10000 q
b1000000 =
b1000000 m
b1000000 t
b1110110000000000000000100000 2
b1110110000000000000000100000 u
b1110110000000000000000100000 &
b1110110000000000000000100000 f
b11101100000000000000001000 '
b11101100000000000000001000 e
b1000 %"
b1000 G
b0 A
b0 Y
b0 h
b0 ""
b10000 !"
b10000 n
b10001111101100000000000000001000 6
b10001111101100000000000000001000 `
b1100000 <
b1100000 V
b1100000 k
b1000000 *
b1000000 S
b1000000 U
b1000000 j
b1000000 ,"
b111100 +
b111100 T
b111100 _
b111100 {
1!
#150
0!
#155
b100000 C
b100000 Q
b100000 X
b100000 w
b1000100 ,
b1000100 d
b1000100 z
b1100 N
b1100 7
b1100 O
b1100 i
b10001 -
b10001 s
b10001 |
b1000100 1
b1000100 c
b1000100 v
b110000 9
b110000 W
b110000 ("
b1100 8
b1100 g
b1100 &"
b1100 '"
b10001 %
b10001 p
b10001 q
b1000100 =
b1000100 m
b1000100 t
b1110110001000000000000110000 2
b1110110001000000000000110000 u
b1110110001000000000000110000 &
b1110110001000000000000110000 f
b11101100010000000000001100 '
b11101100010000000000001100 e
b1100 %"
b1100 G
b10001 !"
b10001 n
b10001111101100010000000000001100 6
b10001111101100010000000000001100 `
b1110100 <
b1110100 V
b1110100 k
b1000100 *
b1000100 S
b1000100 U
b1000100 j
b1000100 ,"
b1000000 +
b1000000 T
b1000000 _
b1000000 {
1!
#160
0!
#165
b10000 $
b10000 #"
b10000 -"
b10000 (
b10000 y
b10000 +"
b10000 )
b10000 Z
b10000 x
b100100 C
b100100 Q
b100100 X
b100100 w
b1001000 ,
b1001000 d
b1001000 z
b10000 N
b10000 7
b10000 O
b10000 i
b11111 -
b11111 s
b11111 |
b1001000 1
b1001000 c
b1001000 v
b1000000 9
b1000000 W
b1000000 ("
b10000 8
b10000 g
b10000 &"
b10000 '"
b11111 %
b11111 p
b11111 q
b1001000 =
b1001000 m
b1001000 t
b1110111111000000000001000000 2
b1110111111000000000001000000 u
b1110111111000000000001000000 &
b1110111111000000000001000000 f
b11101111110000000000010000 '
b11101111110000000000010000 e
b10000 %"
b10000 G
b10000 A
b10000 Y
b10000 h
b10000 ""
b11111 !"
b11111 n
b10001111101111110000000000010000 6
b10001111101111110000000000010000 `
b10001000 <
b10001000 V
b10001000 k
b1001000 *
b1001000 S
b1001000 U
b1001000 j
b1001000 ,"
b1000100 +
b1000100 T
b1000100 _
b1000100 {
1!
#170
0!
#175
b101100 $
b101100 #"
b101100 -"
b101100 C
b101100 Q
b101100 X
b101100 w
b1001100 ,
b1001100 d
b1001100 z
b11000 N
b11000 7
b11000 O
b11000 i
b101100 (
b101100 y
b101100 +"
b10 D
b10 I
b10 J
b10 $"
b11101 -
b11101 s
b11101 |
b1001100 1
b1001100 c
b1001100 v
b1100000 9
b1100000 W
b1100000 ("
b11000 8
b11000 g
b11000 &"
b11000 '"
0/
00
b1 F
b1 H
b1 ]
b11101 %
b11101 p
b11101 q
b1001100 =
b1001100 m
b1001100 t
b1110111101000000000001100000 2
b1110111101000000000001100000 u
b1110111101000000000001100000 &
b1110111101000000000001100000 f
b11101111010000000000011000 '
b11101111010000000000011000 e
b11000 %"
b11000 G
b1000 \
b10100 A
b10100 Y
b10100 h
b10100 ""
b11101 !"
b11101 n
b100011101111010000000000011000 6
b100011101111010000000000011000 `
b10101100 <
b10101100 V
b10101100 k
b1001100 *
b1001100 S
b1001100 U
b1001100 j
b1001100 ,"
b1001000 +
b1001000 T
b1001000 _
b1001000 {
1!
#180
0!
#185
1:
1#
b10000 ,
b10000 d
b10000 z
b0 $
b0 #"
b0 -"
b0 N
b0 7
b0 O
b0 i
14
b0 D
b0 I
b0 J
b0 $"
b0 -
b0 s
b0 |
b1010000 1
b1010000 c
b1010000 v
b0 (
b0 y
b0 +"
b100000 9
b100000 W
b100000 ("
b1000 8
b1000 g
b1000 &"
b1000 '"
1@
0E
b0 F
b0 H
b0 ]
b0 %
b0 p
b0 q
b1010000 =
b1010000 m
b1010000 t
b0 C
b0 Q
b0 X
b0 w
b1111100000000000000000100000 2
b1111100000000000000000100000 u
b1111100000000000000000100000 &
b1111100000000000000000100000 f
b11111000000000000000001000 '
b11111000000000000000001000 e
b1000 %"
b1000 G
b0 \
b0 !"
b11111 }
b0 n
b11111000000000000000001000 6
b11111000000000000000001000 `
b1110000 <
b1110000 V
b1110000 k
b1010000 *
b1010000 S
b1010000 U
b1010000 j
b1010000 ,"
b1001100 +
b1001100 T
b1001100 _
b1001100 {
b10000 M
b10000 B
b10000 P
b10000 b
b10000 ~
b0 A
b0 Y
b0 h
b0 ""
1!
#190
0!
#195
b1010000 9
b1010000 W
b1010000 ("
b10100 8
b10100 g
b10100 &"
b10100 '"
04
13
0@
0?
b1010000 ,
b1010000 d
b1010000 z
b10100 =
b10100 m
b10100 t
b1010000 2
b1010000 u
b1010000 &
b1010000 f
b10100 '
b10100 e
b10100 %"
b10100 G
b10 \
b0 M
b0 B
b0 P
b0 b
b0 ~
b0 }
b1000000000000000000000010100 6
b1000000000000000000000010100 `
b1100100 <
b1100100 V
b1100100 k
b10100 *
b10100 S
b10100 U
b10100 j
b10100 ,"
b10000 +
b10000 T
b10000 _
b10000 {
1!
#200
0!
#205
b1010100 ,
b1010100 d
b1010100 z
b0 9
b0 W
b0 ("
b1010100 1
b1010100 c
b1010100 v
b0 8
b0 g
b0 &"
b0 '"
b1101 D
b1101 I
b1101 J
b1101 $"
03
1@
1?
b1010100 =
b1010100 m
b1010100 t
b0 2
b0 u
b0 &
b0 f
b0 '
b0 e
b0 %"
b0 G
b0 \
b0 6
b0 `
b1010100 <
b1010100 V
b1010100 k
b1010100 *
b1010100 S
b1010100 U
b1010100 j
b1010100 ,"
b1010000 +
b1010000 T
b1010000 _
b1010000 {
1!
#210
0!
#215
b1011000 ,
b1011000 d
b1011000 z
b1011000 1
b1011000 c
b1011000 v
b1011000 =
b1011000 m
b1011000 t
b1011000 <
b1011000 V
b1011000 k
b1011000 *
b1011000 S
b1011000 U
b1011000 j
b1011000 ,"
b1010100 +
b1010100 T
b1010100 _
b1010100 {
1!
#220
0!
#225
b1011100 ,
b1011100 d
b1011100 z
b1011100 1
b1011100 c
b1011100 v
b1011100 =
b1011100 m
b1011100 t
b1011100 <
b1011100 V
b1011100 k
b1011100 *
b1011100 S
b1011100 U
b1011100 j
b1011100 ,"
b1011000 +
b1011000 T
b1011000 _
b1011000 {
1!
#230
0!
#235
b1100000 ,
b1100000 d
b1100000 z
b1100000 1
b1100000 c
b1100000 v
b1100000 =
b1100000 m
b1100000 t
b1100000 <
b1100000 V
b1100000 k
b1100000 *
b1100000 S
b1100000 U
b1100000 j
b1100000 ,"
b1011100 +
b1011100 T
b1011100 _
b1011100 {
1!
#240
0!
#245
b1100100 ,
b1100100 d
b1100100 z
b1100100 1
b1100100 c
b1100100 v
b1100100 =
b1100100 m
b1100100 t
b1100100 <
b1100100 V
b1100100 k
b1100100 *
b1100100 S
b1100100 U
b1100100 j
b1100100 ,"
b1100000 +
b1100000 T
b1100000 _
b1100000 {
1!
#250
0!
#255
b1101000 ,
b1101000 d
b1101000 z
b1101000 1
b1101000 c
b1101000 v
b1101000 =
b1101000 m
b1101000 t
b1101000 <
b1101000 V
b1101000 k
b1101000 *
b1101000 S
b1101000 U
b1101000 j
b1101000 ,"
b1100100 +
b1100100 T
b1100100 _
b1100100 {
1!
#260
0!
