sample_code/lab3_cpu.vcd
$date
	Fri May 22 00:03:51 2020
$end
$version
	Icarus Verilog
$end
$timescale
	1s
$end
$scope module TestBench $end
$scope module cpu $end
$var wire 1 ! clk_i $end
$var wire 32 " result_from_mux_mem_alu [31:0] $end
$var wire 1 # rst_i $end
$var wire 1 $ zero_alu $end
$var wire 32 % pc_plus_4 [31:0] $end
$var wire 32 & pc_out [31:0] $end
$var wire 32 ' pc_in [31:0] $end
$var wire 5 ( number_WriteReg_fromMux [4:0] $end
$var wire 1 ) mem_write $end
$var wire 1 * mem_reg $end
$var wire 1 + mem_read $end
$var wire 1 , jump $end
$var wire 1 - jr $end
$var wire 32 . instruction [31:0] $end
$var wire 32 / data_into_ALU_after_mux [31:0] $end
$var wire 32 0 data_after_se [31:0] $end
$var wire 32 1 data_after_left2 [31:0] $end
$var wire 32 2 branch_target_addr [31:0] $end
$var wire 1 3 branch $end
$var wire 1 4 RegWrite $end
$var wire 1 5 RegDst $end
$var wire 32 6 RT_data [31:0] $end
$var wire 32 7 RS_data [31:0] $end
$var wire 32 8 RD_data [31:0] $end
$var wire 4 9 AlU_control [3:0] $end
$var wire 1 : ALUSrc $end
$var wire 3 ; ALUOp [2:0] $end
$scope module AC $end
$var wire 6 < funct_i [5:0] $end
$var wire 3 = ALUOp_i [2:0] $end
$var reg 4 > ALUCtrl_o [3:0] $end
$var reg 1 - jr_o $end
$upscope $end
$scope module ALU $end
$var wire 4 ? ctrl_i [3:0] $end
$var wire 5 @ shamt_i [4:0] $end
$var wire 5 A tmp_shamt [4:0] $end
$var wire 32 B tmp_src1 [31:0] $end
$var wire 32 C tmp_src2 [31:0] $end
$var wire 32 D src2_i [31:0] $end
$var wire 32 E src1_i [31:0] $end
$var reg 32 F result_o [31:0] $end
$var reg 1 $ zero_o $end
$upscope $end
$scope module Adder1 $end
$var wire 32 G src2_i [31:0] $end
$var wire 32 H sum_o [31:0] $end
$var wire 32 I src1_i [31:0] $end
$upscope $end
$scope module Adder2 $end
$var wire 32 J src1_i [31:0] $end
$var wire 32 K sum_o [31:0] $end
$var wire 32 L src2_i [31:0] $end
$upscope $end
$scope module Decoder $end
$var wire 6 M instr_op_i [5:0] $end
$var reg 1 : ALUSrc_o $end
$var reg 3 N ALU_op_o [2:0] $end
$var reg 1 3 Branch_o $end
$var reg 1 5 RegDst_o $end
$var reg 1 4 RegWrite_o $end
$var reg 1 , jump_o $end
$var reg 1 + mem_read_o $end
$var reg 1 * mem_to_reg $end
$var reg 1 ) mem_write_o $end
$upscope $end
$scope module IM $end
$var wire 32 O pc_addr_i [31:0] $end
$var reg 32 P instr_o [31:0] $end
$var integer 32 Q i [31:0] $end
$upscope $end
$scope module Mux_ALUSrc $end
$var wire 1 : select_i $end
$var wire 32 R data1_i [31:0] $end
$var wire 32 S data0_i [31:0] $end
$var reg 32 T data_o [31:0] $end
$upscope $end
$scope module Mux_PC_Source $end
$var wire 32 U data0_i [31:0] $end
$var wire 32 V data1_i [31:0] $end
$var wire 1 W select_i $end
$var reg 32 X data_o [31:0] $end
$upscope $end
$scope module Mux_Write_Reg $end
$var wire 5 Y data0_i [4:0] $end
$var wire 5 Z data1_i [4:0] $end
$var wire 1 5 select_i $end
$var reg 5 [ data_o [4:0] $end
$upscope $end
$scope module PC $end
$var wire 1 ! clk_i $end
$var wire 32 \ pc_in_i [31:0] $end
$var wire 1 # rst_i $end
$var reg 32 ] pc_out_o [31:0] $end
$upscope $end
$scope module RF $end
$var wire 5 ^ RDaddr_i [4:0] $end
$var wire 32 _ RDdata_i [31:0] $end
$var wire 5 ` RSaddr_i [4:0] $end
$var wire 32 a RSdata_o [31:0] $end
$var wire 5 b RTaddr_i [4:0] $end
$var wire 32 c RTdata_o [31:0] $end
$var wire 1 4 RegWrite_i $end
$var wire 1 ! clk_i $end
$var wire 1 # rst_i $end
$upscope $end
$scope module SE $end
$var wire 4 d ctrl_i [3:0] $end
$var wire 16 e data_i [15:0] $end
$var reg 32 f data_o [31:0] $end
$upscope $end
$scope module Shifter $end
$var wire 32 g data_i [31:0] $end
$var wire 32 h data_o [31:0] $end
$upscope $end
$upscope $end
$upscope $end
$enddefinitions $end
#0
$dumpvars
bx00 h
bx g
bx f
bx e
bx d
bx c
bx b
bx a
bx `
bz _
bx ^
bx ]
bx \
bx [
bx Z
bx Y
bx X
xW
bx V
bx U
bx T
bx S
bx R
b100000 Q
bx P
bx O
bx N
bx M
bx00 L
bx K
bx J
bx I
bx H
b100 G
bx F
bx E
bx D
bx C
bx B
bx A
bx @
bx ?
bx >
bx =
bx <
bx ;
x:
bx 9
bx 8
bx 7
bx 6
x5
x4
x3
bx 2
bx00 1
bx 0
bx /
bx .
x-
x,
x+
x*
x)
bx (
bx '
bx &
bx %
x$
0#
bz "
0!
$end
#5
0$
b100 8
b100 F
b100 '
b100 X
b100 \
b100 C
b100 /
b100 D
b100 T
b10 9
b10 >
b10 ?
b10 d
b10100 2
b10100 K
b10100 V
b10000 1
b10000 L
b10000 h
0W
b100 0
b100 R
b100 f
b100 g
0-
0,
0*
0+
0)
03
05
1:
b1 ;
b1 =
b1 N
14
b1 (
b1 [
b1 ^
b0 A
b0 @
b100 e
b100 <
b1000 M
b1 6
b1 S
b1 c
b1 b
b0 B
b0 7
b0 E
b0 a
b0 `
b0 Z
b1 Y
b100000000000010000000000000100 .
b100000000000010000000000000100 P
b100 %
b100 H
b100 J
b100 U
b0 &
b0 I
b0 O
b0 ]
1!
#10
bz 6
bz S
bz c
0!
1#
#15
b10000 8
b10000 F
b10000 C
b10000 /
b10000 D
b10000 T
b1000000 1
b1000000 L
b1000000 h
b10000 0
b10000 R
b10000 f
b10000 g
b10 (
b10 [
b10 ^
b1000 '
b1000 X
b1000 \
b10000 e
b10000 <
b10 6
b10 S
b10 c
b10 b
b10 Y
b100000000000100000000000010000 .
b100000000000100000000000010000 P
b1001000 2
b1001000 K
b1001000 V
b1000 %
b1000 H
b1000 J
b1000 U
b100 &
b100 I
b100 O
b100 ]
1!
#20
0!
#25
b0 C
b0 /
b0 D
b0 T
x$
b0 1
b0 L
b0 h
b0 0
b0 R
b0 f
b0 g
1+
b101 ;
b101 =
b101 N
bx 8
bx F
b11 (
b11 [
b11 ^
b1100 '
b1100 X
b1100 \
b0 e
b0 <
b100011 M
b11 b
bz B
bz 7
bz E
bz a
b1 `
b11 Y
b10001100001000110000000000000000 .
b10001100001000110000000000000000 P
b1100 2
b1100 K
b1100 V
b1100 %
b1100 H
b1100 J
b1100 U
b1000 &
b1000 I
b1000 O
b1000 ]
b11 6
b11 S
b11 c
1!
#30
0!
#35
b1000 C
b1000 /
b1000 D
b1000 T
b100000 1
b100000 L
b100000 h
b1000 0
b1000 R
b1000 f
b1000 g
b100 (
b100 [
b100 ^
b10000 '
b10000 X
b10000 \
b1000 e
b1000 <
b100 b
b100 Y
b10001100001001000000000000001000 .
b10001100001001000000000000001000 P
b110000 2
b110000 K
b110000 V
b10000 %
b10000 H
b10000 J
b10000 U
b1100 &
b1100 I
b1100 O
b1100 ]
b100 6
b100 S
b100 c
1!
#40
0!
#45
b11111111111111111111111111111000 C
b11111111111111111111111111111000 /
b11111111111111111111111111111000 D
b11111111111111111111111111111000 T
b11111111111111111111111111100000 1
b11111111111111111111111111100000 L
b11111111111111111111111111100000 h
b11111111111111111111111111111000 0
b11111111111111111111111111111000 R
b11111111111111111111111111111000 f
b11111111111111111111111111111000 g
b101 (
b101 [
b101 ^
b10100 '
b10100 X
b10100 \
b11111 A
b11111 @
b1111111111111000 e
b111000 <
b101 b
b10 `
b11111 Z
b101 Y
b10001100010001011111111111111000 .
b10001100010001011111111111111000 P
b11111111111111111111111111110100 2
b11111111111111111111111111110100 K
b11111111111111111111111111110100 V
b10100 %
b10100 H
b10100 J
b10100 U
b10000 &
b10000 I
b10000 O
b10000 ]
b101 6
b101 S
b101 c
1!
#50
0!
#55
b0 C
b0 /
b0 D
b0 T
b1101 9
b1101 >
b1101 ?
b1101 d
1$
b0 1
b0 L
b0 h
b0 0
b0 R
b0 f
b0 g
0+
15
0:
b0 ;
b0 =
b0 N
b0 8
b0 F
b0 (
b0 [
b0 ^
b11000 '
b11000 X
b11000 \
b0 A
b0 @
b0 e
b0 <
b0 M
b0 b
b0 B
b0 7
b0 E
b0 a
b0 `
b0 Z
b0 Y
b0 .
b0 P
b11000 2
b11000 K
b11000 V
b11000 %
b11000 H
b11000 J
b11000 U
b10100 &
b10100 I
b10100 O
b10100 ]
b0 6
b0 S
b0 c
1!
#60
0!
#65
x$
bz 8
bz F
b11100 '
b11100 X
b11100 \
bz C
bz /
bz D
bz T
b11100 2
b11100 K
b11100 V
b11100 %
b11100 H
b11100 J
b11100 U
b11000 &
b11000 I
b11000 O
b11000 ]
bz B
bz 7
bz E
bz a
bz 6
bz S
bz c
1!
#70
0!
#75
b100000 '
b100000 X
b100000 \
b100000 2
b100000 K
b100000 V
b100000 %
b100000 H
b100000 J
b100000 U
b11100 &
b11100 I
b11100 O
b11100 ]
1!
#80
0!
#85
b100100 '
b100100 X
b100100 \
b100100 2
b100100 K
b100100 V
b100100 %
b100100 H
b100100 J
b100100 U
b100000 &
b100000 I
b100000 O
b100000 ]
1!
#90
0!
#95
b101000 '
b101000 X
b101000 \
b101000 2
b101000 K
b101000 V
b101000 %
b101000 H
b101000 J
b101000 U
b100100 &
b100100 I
b100100 O
b100100 ]
1!
#100
0!
#105
b101100 '
b101100 X
b101100 \
b101100 2
b101100 K
b101100 V
b101100 %
b101100 H
b101100 J
b101100 U
b101000 &
b101000 I
b101000 O
b101000 ]
1!
#110
0!
#115
b110000 '
b110000 X
b110000 \
b110000 2
b110000 K
b110000 V
b110000 %
b110000 H
b110000 J
b110000 U
b101100 &
b101100 I
b101100 O
b101100 ]
1!
#120
0!
#125
b110100 '
b110100 X
b110100 \
b110100 2
b110100 K
b110100 V
b110100 %
b110100 H
b110100 J
b110100 U
b110000 &
b110000 I
b110000 O
b110000 ]
1!
#130
0!
#135
b111000 '
b111000 X
b111000 \
b111000 2
b111000 K
b111000 V
b111000 %
b111000 H
b111000 J
b111000 U
b110100 &
b110100 I
b110100 O
b110100 ]
1!
#140
0!
#145
b111100 '
b111100 X
b111100 \
b111100 2
b111100 K
b111100 V
b111100 %
b111100 H
b111100 J
b111100 U
b111000 &
b111000 I
b111000 O
b111000 ]
1!
#150
0!
#155
b1000000 '
b1000000 X
b1000000 \
b1000000 2
b1000000 K
b1000000 V
b1000000 %
b1000000 H
b1000000 J
b1000000 U
b111100 &
b111100 I
b111100 O
b111100 ]
1!
#160
0!
#165
b1000100 '
b1000100 X
b1000100 \
b1000100 2
b1000100 K
b1000100 V
b1000100 %
b1000100 H
b1000100 J
b1000100 U
b1000000 &
b1000000 I
b1000000 O
b1000000 ]
1!
#170
0!
#175
b1001000 '
b1001000 X
b1001000 \
b1001000 2
b1001000 K
b1001000 V
b1001000 %
b1001000 H
b1001000 J
b1001000 U
b1000100 &
b1000100 I
b1000100 O
b1000100 ]
1!
#180
0!
#185
b1001100 '
b1001100 X
b1001100 \
b1001100 2
b1001100 K
b1001100 V
b1001100 %
b1001100 H
b1001100 J
b1001100 U
b1001000 &
b1001000 I
b1001000 O
b1001000 ]
1!
#190
0!
#195
b1010000 '
b1010000 X
b1010000 \
b1010000 2
b1010000 K
b1010000 V
b1010000 %
b1010000 H
b1010000 J
b1010000 U
b1001100 &
b1001100 I
b1001100 O
b1001100 ]
1!
#200
0!
#205
b1010100 '
b1010100 X
b1010100 \
b1010100 2
b1010100 K
b1010100 V
b1010100 %
b1010100 H
b1010100 J
b1010100 U
b1010000 &
b1010000 I
b1010000 O
b1010000 ]
1!
#210
0!
#215
b1011000 '
b1011000 X
b1011000 \
b1011000 2
b1011000 K
b1011000 V
b1011000 %
b1011000 H
b1011000 J
b1011000 U
b1010100 &
b1010100 I
b1010100 O
b1010100 ]
1!
#220
0!
#225
b1011100 '
b1011100 X
b1011100 \
b1011100 2
b1011100 K
b1011100 V
b1011100 %
b1011100 H
b1011100 J
b1011100 U
b1011000 &
b1011000 I
b1011000 O
b1011000 ]
1!
#230
0!
#235
b1100000 '
b1100000 X
b1100000 \
b1100000 2
b1100000 K
b1100000 V
b1100000 %
b1100000 H
b1100000 J
b1100000 U
b1011100 &
b1011100 I
b1011100 O
b1011100 ]
1!
#240
0!
#245
b1100100 '
b1100100 X
b1100100 \
b1100100 2
b1100100 K
b1100100 V
b1100100 %
b1100100 H
b1100100 J
b1100100 U
b1100000 &
b1100000 I
b1100000 O
b1100000 ]
1!
#250
0!
#255
b1101000 '
b1101000 X
b1101000 \
b1101000 2
b1101000 K
b1101000 V
b1101000 %
b1101000 H
b1101000 J
b1101000 U
b1100100 &
b1100100 I
b1100100 O
b1100100 ]
1!
#260
0!
#265
b1101100 '
b1101100 X
b1101100 \
b1101100 2
b1101100 K
b1101100 V
b1101100 %
b1101100 H
b1101100 J
b1101100 U
b1101000 &
b1101000 I
b1101000 O
b1101000 ]
1!
#270
0!
#275
b1110000 '
b1110000 X
b1110000 \
b1110000 2
b1110000 K
b1110000 V
b1110000 %
b1110000 H
b1110000 J
b1110000 U
b1101100 &
b1101100 I
b1101100 O
b1101100 ]
1!
#280
0!
#285
b1110100 '
b1110100 X
b1110100 \
b1110100 2
b1110100 K
b1110100 V
b1110100 %
b1110100 H
b1110100 J
b1110100 U
b1110000 &
b1110000 I
b1110000 O
b1110000 ]
1!
#290
0!
#295
b1111000 '
b1111000 X
b1111000 \
b1111000 2
b1111000 K
b1111000 V
b1111000 %
b1111000 H
b1111000 J
b1111000 U
b1110100 &
b1110100 I
b1110100 O
b1110100 ]
1!
#300
0!
#305
b1111100 '
b1111100 X
b1111100 \
b1111100 2
b1111100 K
b1111100 V
b1111100 %
b1111100 H
b1111100 J
b1111100 U
b1111000 &
b1111000 I
b1111000 O
b1111000 ]
1!
#310
0!
#315
b10000000 '
b10000000 X
b10000000 \
b10000000 2
b10000000 K
b10000000 V
b10000000 %
b10000000 H
b10000000 J
b10000000 U
b1111100 &
b1111100 I
b1111100 O
b1111100 ]
1!
#320
0!
#325
bx00 1
bx00 L
bx00 h
bx 0
bx R
bx f
bx g
bx C
bx /
bx D
bx T
bx 8
bx F
bx (
bx [
bx ^
b10000100 '
b10000100 X
b10000100 \
bx A
bx @
bx e
bx <
bx M
bx 6
bx S
bx c
bx b
bx B
bx 7
bx E
bx a
bx `
bx Z
bx Y
bx .
bx P
bx 2
bx K
bx V
b10000100 %
b10000100 H
b10000100 J
b10000100 U
b10000000 &
b10000000 I
b10000000 O
b10000000 ]
1!
#330
0!
#335
b10001000 '
b10001000 X
b10001000 \
b10001000 %
b10001000 H
b10001000 J
b10001000 U
b10000100 &
b10000100 I
b10000100 O
b10000100 ]
1!
#340
0!
#345
b10001100 '
b10001100 X
b10001100 \
b10001100 %
b10001100 H
b10001100 J
b10001100 U
b10001000 &
b10001000 I
b10001000 O
b10001000 ]
1!
#350
0!
#355
b10010000 '
b10010000 X
b10010000 \
b10010000 %
b10010000 H
b10010000 J
b10010000 U
b10001100 &
b10001100 I
b10001100 O
b10001100 ]
1!
#360
0!
#365
b10010100 '
b10010100 X
b10010100 \
b10010100 %
b10010100 H
b10010100 J
b10010100 U
b10010000 &
b10010000 I
b10010000 O
b10010000 ]
1!
#370
0!
#375
b10011000 '
b10011000 X
b10011000 \
b10011000 %
b10011000 H
b10011000 J
b10011000 U
b10010100 &
b10010100 I
b10010100 O
b10010100 ]
1!
#380
0!
#385
b10011100 '
b10011100 X
b10011100 \
b10011100 %
b10011100 H
b10011100 J
b10011100 U
b10011000 &
b10011000 I
b10011000 O
b10011000 ]
1!
#390
0!
#395
b10100000 '
b10100000 X
b10100000 \
b10100000 %
b10100000 H
b10100000 J
b10100000 U
b10011100 &
b10011100 I
b10011100 O
b10011100 ]
1!
#400
0!
#405
b10100100 '
b10100100 X
b10100100 \
b10100100 %
b10100100 H
b10100100 J
b10100100 U
b10100000 &
b10100000 I
b10100000 O
b10100000 ]
1!
#410
0!
#415
b10101000 '
b10101000 X
b10101000 \
b10101000 %
b10101000 H
b10101000 J
b10101000 U
b10100100 &
b10100100 I
b10100100 O
b10100100 ]
1!
#420
0!
#425
b10101100 '
b10101100 X
b10101100 \
b10101100 %
b10101100 H
b10101100 J
b10101100 U
b10101000 &
b10101000 I
b10101000 O
b10101000 ]
1!
#430
0!
#435
b10110000 '
b10110000 X
b10110000 \
b10110000 %
b10110000 H
b10110000 J
b10110000 U
b10101100 &
b10101100 I
b10101100 O
b10101100 ]
1!
#440
0!
#445
b10110100 '
b10110100 X
b10110100 \
b10110100 %
b10110100 H
b10110100 J
b10110100 U
b10110000 &
b10110000 I
b10110000 O
b10110000 ]
1!
#450
0!
#455
b10111000 '
b10111000 X
b10111000 \
b10111000 %
b10111000 H
b10111000 J
b10111000 U
b10110100 &
b10110100 I
b10110100 O
b10110100 ]
1!
#460
0!
#465
b10111100 '
b10111100 X
b10111100 \
b10111100 %
b10111100 H
b10111100 J
b10111100 U
b10111000 &
b10111000 I
b10111000 O
b10111000 ]
1!
#470
0!
#475
b11000000 '
b11000000 X
b11000000 \
b11000000 %
b11000000 H
b11000000 J
b11000000 U
b10111100 &
b10111100 I
b10111100 O
b10111100 ]
1!
#480
0!
#485
b11000100 '
b11000100 X
b11000100 \
b11000100 %
b11000100 H
b11000100 J
b11000100 U
b11000000 &
b11000000 I
b11000000 O
b11000000 ]
1!
#490
0!
#495
b11001000 '
b11001000 X
b11001000 \
b11001000 %
b11001000 H
b11001000 J
b11001000 U
b11000100 &
b11000100 I
b11000100 O
b11000100 ]
1!
#500
0!
#505
b11001100 '
b11001100 X
b11001100 \
b11001100 %
b11001100 H
b11001100 J
b11001100 U
b11001000 &
b11001000 I
b11001000 O
b11001000 ]
1!
#510
0!
#515
b11010000 '
b11010000 X
b11010000 \
b11010000 %
b11010000 H
b11010000 J
b11010000 U
b11001100 &
b11001100 I
b11001100 O
b11001100 ]
1!
#520
0!
#525
b11010100 '
b11010100 X
b11010100 \
b11010100 %
b11010100 H
b11010100 J
b11010100 U
b11010000 &
b11010000 I
b11010000 O
b11010000 ]
1!
#530
0!
#535
b11011000 '
b11011000 X
b11011000 \
b11011000 %
b11011000 H
b11011000 J
b11011000 U
b11010100 &
b11010100 I
b11010100 O
b11010100 ]
1!
#540
0!
#545
b11011100 '
b11011100 X
b11011100 \
b11011100 %
b11011100 H
b11011100 J
b11011100 U
b11011000 &
b11011000 I
b11011000 O
b11011000 ]
1!
#550
0!
#555
b11100000 '
b11100000 X
b11100000 \
b11100000 %
b11100000 H
b11100000 J
b11100000 U
b11011100 &
b11011100 I
b11011100 O
b11011100 ]
1!
#560
0!
#565
b11100100 '
b11100100 X
b11100100 \
b11100100 %
b11100100 H
b11100100 J
b11100100 U
b11100000 &
b11100000 I
b11100000 O
b11100000 ]
1!
#570
0!
#575
b11101000 '
b11101000 X
b11101000 \
b11101000 %
b11101000 H
b11101000 J
b11101000 U
b11100100 &
b11100100 I
b11100100 O
b11100100 ]
1!
#580
0!
#585
b11101100 '
b11101100 X
b11101100 \
b11101100 %
b11101100 H
b11101100 J
b11101100 U
b11101000 &
b11101000 I
b11101000 O
b11101000 ]
1!
#590
0!
#595
b11110000 '
b11110000 X
b11110000 \
b11110000 %
b11110000 H
b11110000 J
b11110000 U
b11101100 &
b11101100 I
b11101100 O
b11101100 ]
1!
#600
0!
#605
b11110100 '
b11110100 X
b11110100 \
b11110100 %
b11110100 H
b11110100 J
b11110100 U
b11110000 &
b11110000 I
b11110000 O
b11110000 ]
1!
#610
0!
#615
b11111000 '
b11111000 X
b11111000 \
b11111000 %
b11111000 H
b11111000 J
b11111000 U
b11110100 &
b11110100 I
b11110100 O
b11110100 ]
1!
#620
0!
#625
b11111100 '
b11111100 X
b11111100 \
b11111100 %
b11111100 H
b11111100 J
b11111100 U
b11111000 &
b11111000 I
b11111000 O
b11111000 ]
1!
#630
0!
#635
b100000000 '
b100000000 X
b100000000 \
b100000000 %
b100000000 H
b100000000 J
b100000000 U
b11111100 &
b11111100 I
b11111100 O
b11111100 ]
1!
#640
0!
#645
b100000100 '
b100000100 X
b100000100 \
b100000100 %
b100000100 H
b100000100 J
b100000100 U
b100000000 &
b100000000 I
b100000000 O
b100000000 ]
1!
#650
0!
#655
b100001000 '
b100001000 X
b100001000 \
b100001000 %
b100001000 H
b100001000 J
b100001000 U
b100000100 &
b100000100 I
b100000100 O
b100000100 ]
1!
#660
0!
#665
b100001100 '
b100001100 X
b100001100 \
b100001100 %
b100001100 H
b100001100 J
b100001100 U
b100001000 &
b100001000 I
b100001000 O
b100001000 ]
1!
#670
0!
#675
b100010000 '
b100010000 X
b100010000 \
b100010000 %
b100010000 H
b100010000 J
b100010000 U
b100001100 &
b100001100 I
b100001100 O
b100001100 ]
1!
#680
0!
#685
b100010100 '
b100010100 X
b100010100 \
b100010100 %
b100010100 H
b100010100 J
b100010100 U
b100010000 &
b100010000 I
b100010000 O
b100010000 ]
1!
#690
0!
#695
b100011000 '
b100011000 X
b100011000 \
b100011000 %
b100011000 H
b100011000 J
b100011000 U
b100010100 &
b100010100 I
b100010100 O
b100010100 ]
1!
#700
0!
#705
b100011100 '
b100011100 X
b100011100 \
b100011100 %
b100011100 H
b100011100 J
b100011100 U
b100011000 &
b100011000 I
b100011000 O
b100011000 ]
1!
#710
0!
#715
b100100000 '
b100100000 X
b100100000 \
b100100000 %
b100100000 H
b100100000 J
b100100000 U
b100011100 &
b100011100 I
b100011100 O
b100011100 ]
1!
#720
0!
#725
b100100100 '
b100100100 X
b100100100 \
b100100100 %
b100100100 H
b100100100 J
b100100100 U
b100100000 &
b100100000 I
b100100000 O
b100100000 ]
1!
#730
0!
#735
b100101000 '
b100101000 X
b100101000 \
b100101000 %
b100101000 H
b100101000 J
b100101000 U
b100100100 &
b100100100 I
b100100100 O
b100100100 ]
1!
#740
0!
#745
b100101100 '
b100101100 X
b100101100 \
b100101100 %
b100101100 H
b100101100 J
b100101100 U
b100101000 &
b100101000 I
b100101000 O
b100101000 ]
1!
#750
0!
#755
b100110000 '
b100110000 X
b100110000 \
b100110000 %
b100110000 H
b100110000 J
b100110000 U
b100101100 &
b100101100 I
b100101100 O
b100101100 ]
1!
#760
0!
#765
b100110100 '
b100110100 X
b100110100 \
b100110100 %
b100110100 H
b100110100 J
b100110100 U
b100110000 &
b100110000 I
b100110000 O
b100110000 ]
1!
#770
0!
#775
b100111000 '
b100111000 X
b100111000 \
b100111000 %
b100111000 H
b100111000 J
b100111000 U
b100110100 &
b100110100 I
b100110100 O
b100110100 ]
1!
#780
0!
#785
b100111100 '
b100111100 X
b100111100 \
b100111100 %
b100111100 H
b100111100 J
b100111100 U
b100111000 &
b100111000 I
b100111000 O
b100111000 ]
1!
#790
0!
#795
b101000000 '
b101000000 X
b101000000 \
b101000000 %
b101000000 H
b101000000 J
b101000000 U
b100111100 &
b100111100 I
b100111100 O
b100111100 ]
1!
#800
0!
#805
b101000100 '
b101000100 X
b101000100 \
b101000100 %
b101000100 H
b101000100 J
b101000100 U
b101000000 &
b101000000 I
b101000000 O
b101000000 ]
1!
#810
0!
#815
b101001000 '
b101001000 X
b101001000 \
b101001000 %
b101001000 H
b101001000 J
b101001000 U
b101000100 &
b101000100 I
b101000100 O
b101000100 ]
1!
#820
0!
#825
b101001100 '
b101001100 X
b101001100 \
b101001100 %
b101001100 H
b101001100 J
b101001100 U
b101001000 &
b101001000 I
b101001000 O
b101001000 ]
1!
#830
0!
#835
b101010000 '
b101010000 X
b101010000 \
b101010000 %
b101010000 H
b101010000 J
b101010000 U
b101001100 &
b101001100 I
b101001100 O
b101001100 ]
1!
#840
0!
#845
b101010100 '
b101010100 X
b101010100 \
b101010100 %
b101010100 H
b101010100 J
b101010100 U
b101010000 &
b101010000 I
b101010000 O
b101010000 ]
1!
#850
0!
#855
b101011000 '
b101011000 X
b101011000 \
b101011000 %
b101011000 H
b101011000 J
b101011000 U
b101010100 &
b101010100 I
b101010100 O
b101010100 ]
1!
#860
0!
#865
b101011100 '
b101011100 X
b101011100 \
b101011100 %
b101011100 H
b101011100 J
b101011100 U
b101011000 &
b101011000 I
b101011000 O
b101011000 ]
1!
#870
0!
#875
b101100000 '
b101100000 X
b101100000 \
b101100000 %
b101100000 H
b101100000 J
b101100000 U
b101011100 &
b101011100 I
b101011100 O
b101011100 ]
1!
#880
0!
#885
b101100100 '
b101100100 X
b101100100 \
b101100100 %
b101100100 H
b101100100 J
b101100100 U
b101100000 &
b101100000 I
b101100000 O
b101100000 ]
1!
#890
0!
#895
b101101000 '
b101101000 X
b101101000 \
b101101000 %
b101101000 H
b101101000 J
b101101000 U
b101100100 &
b101100100 I
b101100100 O
b101100100 ]
1!
#900
0!
#905
b101101100 '
b101101100 X
b101101100 \
b101101100 %
b101101100 H
b101101100 J
b101101100 U
b101101000 &
b101101000 I
b101101000 O
b101101000 ]
1!
#910
0!
#915
b101110000 '
b101110000 X
b101110000 \
b101110000 %
b101110000 H
b101110000 J
b101110000 U
b101101100 &
b101101100 I
b101101100 O
b101101100 ]
1!
#920
0!
#925
b101110100 '
b101110100 X
b101110100 \
b101110100 %
b101110100 H
b101110100 J
b101110100 U
b101110000 &
b101110000 I
b101110000 O
b101110000 ]
1!
#930
0!
#935
b101111000 '
b101111000 X
b101111000 \
b101111000 %
b101111000 H
b101111000 J
b101111000 U
b101110100 &
b101110100 I
b101110100 O
b101110100 ]
1!
#940
0!
#945
b101111100 '
b101111100 X
b101111100 \
b101111100 %
b101111100 H
b101111100 J
b101111100 U
b101111000 &
b101111000 I
b101111000 O
b101111000 ]
1!
#950
0!
#955
b110000000 '
b110000000 X
b110000000 \
b110000000 %
b110000000 H
b110000000 J
b110000000 U
b101111100 &
b101111100 I
b101111100 O
b101111100 ]
1!
#960
0!
#965
b110000100 '
b110000100 X
b110000100 \
b110000100 %
b110000100 H
b110000100 J
b110000100 U
b110000000 &
b110000000 I
b110000000 O
b110000000 ]
1!
#970
0!
#975
b110001000 '
b110001000 X
b110001000 \
b110001000 %
b110001000 H
b110001000 J
b110001000 U
b110000100 &
b110000100 I
b110000100 O
b110000100 ]
1!
#980
0!
#985
b110001100 '
b110001100 X
b110001100 \
b110001100 %
b110001100 H
b110001100 J
b110001100 U
b110001000 &
b110001000 I
b110001000 O
b110001000 ]
1!
#990
0!
#995
b110010000 '
b110010000 X
b110010000 \
b110010000 %
b110010000 H
b110010000 J
b110010000 U
b110001100 &
b110001100 I
b110001100 O
b110001100 ]
1!
#1000
0!
#1005
b110010100 '
b110010100 X
b110010100 \
b110010100 %
b110010100 H
b110010100 J
b110010100 U
b110010000 &
b110010000 I
b110010000 O
b110010000 ]
1!
#1010
0!
#1015
b110011000 '
b110011000 X
b110011000 \
b110011000 %
b110011000 H
b110011000 J
b110011000 U
b110010100 &
b110010100 I
b110010100 O
b110010100 ]
1!
#1020
0!
#1025
b110011100 '
b110011100 X
b110011100 \
b110011100 %
b110011100 H
b110011100 J
b110011100 U
b110011000 &
b110011000 I
b110011000 O
b110011000 ]
1!
#1030
0!
#1035
b110100000 '
b110100000 X
b110100000 \
b110100000 %
b110100000 H
b110100000 J
b110100000 U
b110011100 &
b110011100 I
b110011100 O
b110011100 ]
1!
#1040
0!
#1045
b110100100 '
b110100100 X
b110100100 \
b110100100 %
b110100100 H
b110100100 J
b110100100 U
b110100000 &
b110100000 I
b110100000 O
b110100000 ]
1!
#1050
0!
#1055
b110101000 '
b110101000 X
b110101000 \
b110101000 %
b110101000 H
b110101000 J
b110101000 U
b110100100 &
b110100100 I
b110100100 O
b110100100 ]
1!
#1060
0!
#1065
b110101100 '
b110101100 X
b110101100 \
b110101100 %
b110101100 H
b110101100 J
b110101100 U
b110101000 &
b110101000 I
b110101000 O
b110101000 ]
1!
#1070
0!
#1075
b110110000 '
b110110000 X
b110110000 \
b110110000 %
b110110000 H
b110110000 J
b110110000 U
b110101100 &
b110101100 I
b110101100 O
b110101100 ]
1!
#1080
0!
#1085
b110110100 '
b110110100 X
b110110100 \
b110110100 %
b110110100 H
b110110100 J
b110110100 U
b110110000 &
b110110000 I
b110110000 O
b110110000 ]
1!
#1090
0!
#1095
b110111000 '
b110111000 X
b110111000 \
b110111000 %
b110111000 H
b110111000 J
b110111000 U
b110110100 &
b110110100 I
b110110100 O
b110110100 ]
1!
#1100
0!
#1105
b110111100 '
b110111100 X
b110111100 \
b110111100 %
b110111100 H
b110111100 J
b110111100 U
b110111000 &
b110111000 I
b110111000 O
b110111000 ]
1!
#1110
0!
#1115
b111000000 '
b111000000 X
b111000000 \
b111000000 %
b111000000 H
b111000000 J
b111000000 U
b110111100 &
b110111100 I
b110111100 O
b110111100 ]
1!
#1120
0!
#1125
b111000100 '
b111000100 X
b111000100 \
b111000100 %
b111000100 H
b111000100 J
b111000100 U
b111000000 &
b111000000 I
b111000000 O
b111000000 ]
1!
#1130
0!
#1135
b111001000 '
b111001000 X
b111001000 \
b111001000 %
b111001000 H
b111001000 J
b111001000 U
b111000100 &
b111000100 I
b111000100 O
b111000100 ]
1!
#1140
0!
#1145
b111001100 '
b111001100 X
b111001100 \
b111001100 %
b111001100 H
b111001100 J
b111001100 U
b111001000 &
b111001000 I
b111001000 O
b111001000 ]
1!
#1150
0!
#1155
b111010000 '
b111010000 X
b111010000 \
b111010000 %
b111010000 H
b111010000 J
b111010000 U
b111001100 &
b111001100 I
b111001100 O
b111001100 ]
1!
#1160
0!
#1165
b111010100 '
b111010100 X
b111010100 \
b111010100 %
b111010100 H
b111010100 J
b111010100 U
b111010000 &
b111010000 I
b111010000 O
b111010000 ]
1!
#1170
0!
