sample_code/lab3_cpu.vcd
$date
	Thu May 21 22:07:26 2020
$end
$version
	Icarus Verilog
$end
$timescale
	1s
$end
$scope module TestBench $end
$scope module cpu $end
$var wire 1 ! clk_i $end
$var wire 1 " rst_i $end
$var wire 1 # zero_alu $end
$var wire 32 $ result_branch_target_addr_or_pc_plus_4 [31:0] $end
$var wire 32 % pc_plus_4 [31:0] $end
$var wire 32 & pc_out [31:0] $end
$var wire 32 ' pc_in [31:0] $end
$var wire 5 ( number_WriteReg_fromMux [4:0] $end
$var wire 1 ) jr $end
$var wire 32 * instruction [31:0] $end
$var wire 32 + data_into_ALU_after_mux [31:0] $end
$var wire 32 , data_after_se [31:0] $end
$var wire 32 - data_after_left2 [31:0] $end
$var wire 32 . branch_target_addr [31:0] $end
$var wire 1 / branch $end
$var wire 1 0 RegWrite $end
$var wire 1 1 RegDst $end
$var wire 32 2 RT_data [31:0] $end
$var wire 32 3 RS_data [31:0] $end
$var wire 32 4 RD_data [31:0] $end
$var wire 4 5 AlU_control [3:0] $end
$var wire 1 6 ALUSrc $end
$var wire 3 7 ALUOp [2:0] $end
$scope module AC $end
$var wire 6 8 funct_i [5:0] $end
$var wire 3 9 ALUOp_i [2:0] $end
$var reg 4 : ALUCtrl_o [3:0] $end
$var reg 1 ) jr_o $end
$upscope $end
$scope module ALU $end
$var wire 4 ; ctrl_i [3:0] $end
$var wire 5 < shamt_i [4:0] $end
$var wire 5 = tmp_shamt [4:0] $end
$var wire 32 > tmp_src1 [31:0] $end
$var wire 32 ? tmp_src2 [31:0] $end
$var wire 32 @ src2_i [31:0] $end
$var wire 32 A src1_i [31:0] $end
$var reg 32 B result_o [31:0] $end
$var reg 1 # zero_o $end
$upscope $end
$scope module Adder1 $end
$var wire 32 C src2_i [31:0] $end
$var wire 32 D sum_o [31:0] $end
$var wire 32 E src1_i [31:0] $end
$upscope $end
$scope module Adder2 $end
$var wire 32 F src1_i [31:0] $end
$var wire 32 G sum_o [31:0] $end
$var wire 32 H src2_i [31:0] $end
$upscope $end
$scope module Decoder $end
$var wire 6 I instr_op_i [5:0] $end
$var reg 1 6 ALUSrc_o $end
$var reg 3 J ALU_op_o [2:0] $end
$var reg 1 / Branch_o $end
$var reg 1 1 RegDst_o $end
$var reg 1 0 RegWrite_o $end
$upscope $end
$scope module IM $end
$var wire 32 K pc_addr_i [31:0] $end
$var reg 32 L instr_o [31:0] $end
$var integer 32 M i [31:0] $end
$upscope $end
$scope module Jr $end
$var wire 1 ) select_i $end
$var wire 32 N data1_i [31:0] $end
$var wire 32 O data0_i [31:0] $end
$var reg 32 P data_o [31:0] $end
$upscope $end
$scope module Mux_ALUSrc $end
$var wire 1 6 select_i $end
$var wire 32 Q data1_i [31:0] $end
$var wire 32 R data0_i [31:0] $end
$var reg 32 S data_o [31:0] $end
$upscope $end
$scope module Mux_PC_Source $end
$var wire 32 T data0_i [31:0] $end
$var wire 32 U data1_i [31:0] $end
$var wire 1 V select_i $end
$var reg 32 W data_o [31:0] $end
$upscope $end
$scope module Mux_Write_Reg $end
$var wire 5 X data0_i [4:0] $end
$var wire 5 Y data1_i [4:0] $end
$var wire 1 1 select_i $end
$var reg 5 Z data_o [4:0] $end
$upscope $end
$scope module PC $end
$var wire 1 ! clk_i $end
$var wire 32 [ pc_in_i [31:0] $end
$var wire 1 " rst_i $end
$var reg 32 \ pc_out_o [31:0] $end
$upscope $end
$scope module RF $end
$var wire 5 ] RDaddr_i [4:0] $end
$var wire 32 ^ RDdata_i [31:0] $end
$var wire 5 _ RSaddr_i [4:0] $end
$var wire 32 ` RSdata_o [31:0] $end
$var wire 5 a RTaddr_i [4:0] $end
$var wire 32 b RTdata_o [31:0] $end
$var wire 1 0 RegWrite_i $end
$var wire 1 ! clk_i $end
$var wire 1 " rst_i $end
$upscope $end
$scope module SE $end
$var wire 4 c ctrl_i [3:0] $end
$var wire 16 d data_i [15:0] $end
$var reg 32 e data_o [31:0] $end
$upscope $end
$scope module Shifter $end
$var wire 32 f data_i [31:0] $end
$var wire 32 g data_o [31:0] $end
$upscope $end
$upscope $end
$upscope $end
$enddefinitions $end
#0
$dumpvars
bx00 g
bx f
bx e
bx d
bx c
bx b
bx a
bx `
bx _
bx ^
bx ]
bx \
bx [
bx Z
bx Y
bx X
bx W
xV
bx U
bx T
bx S
bx R
bx Q
bx P
bx O
bx N
b100000 M
bx L
bx K
bx J
bx I
bx00 H
bx G
bx F
bx E
bx D
b100 C
bx B
bx A
bx @
bx ?
bx >
bx =
bx <
bx ;
bx :
bx 9
bx 8
bx 7
x6
bx 5
bx 4
bx 3
bx 2
x1
x0
x/
bx .
bx00 -
bx ,
bx +
bx *
x)
bx (
bx '
bx &
bx %
bx $
x#
0"
0!
$end
#5
0#
b100 '
b100 P
b100 [
b11100 4
b11100 B
b11100 ^
b100 $
b100 O
b100 W
b11100 ?
b11100 +
b11100 @
b11100 S
b10 5
b10 :
b10 ;
b10 c
b1110100 .
b1110100 G
b1110100 U
b1110000 -
b1110000 H
b1110000 g
0V
b11100 ,
b11100 Q
b11100 e
b11100 f
0)
0/
01
16
b1 7
b1 9
b1 J
10
b1 (
b1 Z
b1 ]
b0 =
b0 <
b11100 d
b11100 8
b1000 I
b1 2
b1 R
b1 b
b1 a
b0 >
b0 3
b0 A
b0 N
b0 `
b0 _
b0 Y
b1 X
b100000000000010000000000011100 *
b100000000000010000000000011100 L
b100 %
b100 D
b100 F
b100 T
b0 &
b0 E
b0 K
b0 \
1!
#10
b11100 2
b11100 R
b11100 b
0!
1"
#15
1#
b0 4
b0 B
b0 ^
b0 ?
b0 +
b0 @
b0 S
b1000 '
b1000 P
b1000 [
b0 -
b0 H
b0 g
b0 ,
b0 Q
b0 e
b0 f
b10 (
b10 Z
b10 ]
b1000 $
b1000 O
b1000 W
b0 d
b0 8
b10 2
b10 R
b10 b
b10 a
b10 X
b100000000000100000000000000000 *
b100000000000100000000000000000 L
b1000 .
b1000 G
b1000 U
b1000 %
b1000 D
b1000 F
b1000 T
b100 &
b100 E
b100 K
b100 \
1!
#20
0!
#25
b1100 '
b1100 P
b1100 [
b11 (
b11 Z
b11 ]
b1100 $
b1100 O
b1100 W
b11 a
b11 X
b100000000000110000000000000000 *
b100000000000110000000000000000 L
b1100 .
b1100 G
b1100 U
b1100 %
b1100 D
b1100 F
b1100 T
b1000 &
b1000 E
b1000 K
b1000 \
b11 2
b11 R
b11 b
1!
#30
0!
#35
b10000 '
b10000 P
b10000 [
b100 (
b100 Z
b100 ]
b10000 $
b10000 O
b10000 W
b100 a
b100 X
b100000000001000000000000000000 *
b100000000001000000000000000000 L
b10000 .
b10000 G
b10000 U
b10000 %
b10000 D
b10000 F
b10000 T
b1100 &
b1100 E
b1100 K
b1100 \
b100 2
b100 R
b100 b
1!
#40
0!
#45
b10100 '
b10100 P
b10100 [
b101 (
b101 Z
b101 ]
b10100 $
b10100 O
b10100 W
b101 a
b101 X
b100000000001010000000000000000 *
b100000000001010000000000000000 L
b10100 .
b10100 G
b10100 U
b10100 %
b10100 D
b10100 F
b10100 T
b10000 &
b10000 E
b10000 K
b10000 \
b101 2
b101 R
b101 b
1!
#50
0!
#55
1)
0#
b11100 '
b11100 P
b11100 [
b100000 -
b100000 H
b100000 g
b1000 ,
b1000 Q
b1000 e
b1000 f
11
06
b0 7
b0 9
b0 J
b11100 4
b11100 B
b11100 ^
b0 (
b0 Z
b0 ]
b11000 $
b11000 O
b11000 W
b1000 d
b1000 8
b0 I
b0 a
b11100 >
b11100 3
b11100 A
b11100 N
b11100 `
b1 _
b0 X
b1000000000000000001000 *
b1000000000000000001000 L
b111000 .
b111000 G
b111000 U
b11000 %
b11000 D
b11000 F
b11000 T
b10100 &
b10100 E
b10100 K
b10100 \
b0 2
b0 R
b0 b
1!
#60
0!
#65
0#
b11 (
b11 Z
b11 ]
b100000 '
b100000 P
b100000 [
b11111 4
b11111 B
b11111 ^
b1100 -
b1100 H
b1100 g
b11 ,
b11 Q
b11 e
b11 f
b10 5
b10 :
b10 ;
b10 c
0)
01
16
b1 7
b1 9
b1 J
b100000 $
b100000 O
b100000 W
b11 ?
b11 +
b11 @
b11 S
b11 d
b11 8
b1000 I
b11 a
b0 _
b11 X
b100000000000110000000000000011 *
b100000000000110000000000000011 L
b101100 .
b101100 G
b101100 U
b100000 %
b100000 D
b100000 F
b100000 T
b11100 &
b11100 E
b11100 K
b11100 \
b0 2
b0 R
b0 b
1!
#70
0!
#75
b100000 4
b100000 B
b100000 ^
b100 ?
b100 +
b100 @
b100 S
b100100 '
b100100 P
b100100 [
b10000 -
b10000 H
b10000 g
b100 ,
b100 Q
b100 e
b100 f
b100 (
b100 Z
b100 ]
b100100 $
b100100 O
b100100 W
b100 d
b100 8
b100 a
b100 X
b100000000001000000000000000100 *
b100000000001000000000000000100 L
b110100 .
b110100 G
b110100 U
b100100 %
b100100 D
b100100 F
b100100 T
b100000 &
b100000 E
b100000 K
b100000 \
b0 2
b0 R
b0 b
1!
#80
0!
#85
b100001 4
b100001 B
b100001 ^
b101 ?
b101 +
b101 @
b101 S
b101000 '
b101000 P
b101000 [
b10100 -
b10100 H
b10100 g
b101 ,
b101 Q
b101 e
b101 f
b101 (
b101 Z
b101 ]
b101000 $
b101000 O
b101000 W
b101 d
b101 8
b101 a
b101 X
b100000000001010000000000000101 *
b100000000001010000000000000101 L
b111100 .
b111100 G
b111100 U
b101000 %
b101000 D
b101000 F
b101000 T
b100100 &
b100100 E
b100100 K
b100100 \
b0 2
b0 R
b0 b
1!
#90
0!
#95
b11100 4
b11100 B
b11100 ^
b11100 ?
b11100 +
b11100 @
b11100 S
b1101 5
b1101 :
b1101 ;
b1101 c
b101100 '
b101100 P
b101100 [
b0 -
b0 H
b0 g
b0 ,
b0 Q
b0 e
b0 f
11
06
b0 7
b0 9
b0 J
b0 (
b0 Z
b0 ]
b101100 $
b101100 O
b101100 W
b0 d
b0 8
b0 I
b0 a
b0 X
b0 *
b0 L
b101100 .
b101100 G
b101100 U
b101100 %
b101100 D
b101100 F
b101100 T
b101000 &
b101000 E
b101000 K
b101000 \
b11100 2
b11100 R
b11100 b
1!
#100
0!
#105
b110000 '
b110000 P
b110000 [
b110000 $
b110000 O
b110000 W
b110000 .
b110000 G
b110000 U
b110000 %
b110000 D
b110000 F
b110000 T
b101100 &
b101100 E
b101100 K
b101100 \
1!
#110
0!
#115
b110100 '
b110100 P
b110100 [
b110100 $
b110100 O
b110100 W
b110100 .
b110100 G
b110100 U
b110100 %
b110100 D
b110100 F
b110100 T
b110000 &
b110000 E
b110000 K
b110000 \
1!
#120
0!
#125
b111000 '
b111000 P
b111000 [
b111000 $
b111000 O
b111000 W
b111000 .
b111000 G
b111000 U
b111000 %
b111000 D
b111000 F
b111000 T
b110100 &
b110100 E
b110100 K
b110100 \
1!
#130
0!
#135
b111100 '
b111100 P
b111100 [
b111100 $
b111100 O
b111100 W
b111100 .
b111100 G
b111100 U
b111100 %
b111100 D
b111100 F
b111100 T
b111000 &
b111000 E
b111000 K
b111000 \
1!
#140
0!
#145
b1000000 '
b1000000 P
b1000000 [
b1000000 $
b1000000 O
b1000000 W
b1000000 .
b1000000 G
b1000000 U
b1000000 %
b1000000 D
b1000000 F
b1000000 T
b111100 &
b111100 E
b111100 K
b111100 \
1!
#150
0!
#155
b1000100 '
b1000100 P
b1000100 [
b1000100 $
b1000100 O
b1000100 W
b1000100 .
b1000100 G
b1000100 U
b1000100 %
b1000100 D
b1000100 F
b1000100 T
b1000000 &
b1000000 E
b1000000 K
b1000000 \
1!
#160
0!
#165
b1001000 '
b1001000 P
b1001000 [
b1001000 $
b1001000 O
b1001000 W
b1001000 .
b1001000 G
b1001000 U
b1001000 %
b1001000 D
b1001000 F
b1001000 T
b1000100 &
b1000100 E
b1000100 K
b1000100 \
1!
#170
0!
#175
b1001100 '
b1001100 P
b1001100 [
b1001100 $
b1001100 O
b1001100 W
b1001100 .
b1001100 G
b1001100 U
b1001100 %
b1001100 D
b1001100 F
b1001100 T
b1001000 &
b1001000 E
b1001000 K
b1001000 \
1!
#180
0!
#185
b1010000 '
b1010000 P
b1010000 [
b1010000 $
b1010000 O
b1010000 W
b1010000 .
b1010000 G
b1010000 U
b1010000 %
b1010000 D
b1010000 F
b1010000 T
b1001100 &
b1001100 E
b1001100 K
b1001100 \
1!
#190
0!
#195
b1010100 '
b1010100 P
b1010100 [
b1010100 $
b1010100 O
b1010100 W
b1010100 .
b1010100 G
b1010100 U
b1010100 %
b1010100 D
b1010100 F
b1010100 T
b1010000 &
b1010000 E
b1010000 K
b1010000 \
1!
#200
0!
#205
b1011000 '
b1011000 P
b1011000 [
b1011000 $
b1011000 O
b1011000 W
b1011000 .
b1011000 G
b1011000 U
b1011000 %
b1011000 D
b1011000 F
b1011000 T
b1010100 &
b1010100 E
b1010100 K
b1010100 \
1!
#210
0!
#215
b1011100 '
b1011100 P
b1011100 [
b1011100 $
b1011100 O
b1011100 W
b1011100 .
b1011100 G
b1011100 U
b1011100 %
b1011100 D
b1011100 F
b1011100 T
b1011000 &
b1011000 E
b1011000 K
b1011000 \
1!
#220
0!
#225
b1100000 '
b1100000 P
b1100000 [
b1100000 $
b1100000 O
b1100000 W
b1100000 .
b1100000 G
b1100000 U
b1100000 %
b1100000 D
b1100000 F
b1100000 T
b1011100 &
b1011100 E
b1011100 K
b1011100 \
1!
#230
0!
#235
b1100100 '
b1100100 P
b1100100 [
b1100100 $
b1100100 O
b1100100 W
b1100100 .
b1100100 G
b1100100 U
b1100100 %
b1100100 D
b1100100 F
b1100100 T
b1100000 &
b1100000 E
b1100000 K
b1100000 \
1!
#240
0!
#245
b1101000 '
b1101000 P
b1101000 [
b1101000 $
b1101000 O
b1101000 W
b1101000 .
b1101000 G
b1101000 U
b1101000 %
b1101000 D
b1101000 F
b1101000 T
b1100100 &
b1100100 E
b1100100 K
b1100100 \
1!
#250
0!
#255
b1101100 '
b1101100 P
b1101100 [
b1101100 $
b1101100 O
b1101100 W
b1101100 .
b1101100 G
b1101100 U
b1101100 %
b1101100 D
b1101100 F
b1101100 T
b1101000 &
b1101000 E
b1101000 K
b1101000 \
1!
#260
0!
#265
b1110000 '
b1110000 P
b1110000 [
b1110000 $
b1110000 O
b1110000 W
b1110000 .
b1110000 G
b1110000 U
b1110000 %
b1110000 D
b1110000 F
b1110000 T
b1101100 &
b1101100 E
b1101100 K
b1101100 \
1!
#270
0!
#275
b1110100 '
b1110100 P
b1110100 [
b1110100 $
b1110100 O
b1110100 W
b1110100 .
b1110100 G
b1110100 U
b1110100 %
b1110100 D
b1110100 F
b1110100 T
b1110000 &
b1110000 E
b1110000 K
b1110000 \
1!
#280
0!
#285
b1111000 '
b1111000 P
b1111000 [
b1111000 $
b1111000 O
b1111000 W
b1111000 .
b1111000 G
b1111000 U
b1111000 %
b1111000 D
b1111000 F
b1111000 T
b1110100 &
b1110100 E
b1110100 K
b1110100 \
1!
#290
0!
#295
b1111100 '
b1111100 P
b1111100 [
b1111100 $
b1111100 O
b1111100 W
b1111100 .
b1111100 G
b1111100 U
b1111100 %
b1111100 D
b1111100 F
b1111100 T
b1111000 &
b1111000 E
b1111000 K
b1111000 \
1!
#300
0!
#305
b10000000 '
b10000000 P
b10000000 [
b10000000 $
b10000000 O
b10000000 W
b10000000 .
b10000000 G
b10000000 U
b10000000 %
b10000000 D
b10000000 F
b10000000 T
b1111100 &
b1111100 E
b1111100 K
b1111100 \
1!
#310
0!
#315
x#
b10000100 '
b10000100 P
b10000100 [
bx00 -
bx00 H
bx00 g
bx ,
bx Q
bx e
bx f
bx ?
bx +
bx @
bx S
bx 4
bx B
bx ^
bx (
bx Z
bx ]
b10000100 $
b10000100 O
b10000100 W
bx =
bx <
bx d
bx 8
bx I
bx 2
bx R
bx b
bx a
bx >
bx 3
bx A
bx N
bx `
bx _
bx Y
bx X
bx *
bx L
bx .
bx G
bx U
b10000100 %
b10000100 D
b10000100 F
b10000100 T
b10000000 &
b10000000 E
b10000000 K
b10000000 \
1!
#320
0!
#325
b10001000 '
b10001000 P
b10001000 [
b10001000 $
b10001000 O
b10001000 W
b10001000 %
b10001000 D
b10001000 F
b10001000 T
b10000100 &
b10000100 E
b10000100 K
b10000100 \
1!
#330
0!
#335
b10001100 '
b10001100 P
b10001100 [
b10001100 $
b10001100 O
b10001100 W
b10001100 %
b10001100 D
b10001100 F
b10001100 T
b10001000 &
b10001000 E
b10001000 K
b10001000 \
1!
#340
0!
#345
b10010000 '
b10010000 P
b10010000 [
b10010000 $
b10010000 O
b10010000 W
b10010000 %
b10010000 D
b10010000 F
b10010000 T
b10001100 &
b10001100 E
b10001100 K
b10001100 \
1!
#350
0!
#355
b10010100 '
b10010100 P
b10010100 [
b10010100 $
b10010100 O
b10010100 W
b10010100 %
b10010100 D
b10010100 F
b10010100 T
b10010000 &
b10010000 E
b10010000 K
b10010000 \
1!
#360
0!
#365
b10011000 '
b10011000 P
b10011000 [
b10011000 $
b10011000 O
b10011000 W
b10011000 %
b10011000 D
b10011000 F
b10011000 T
b10010100 &
b10010100 E
b10010100 K
b10010100 \
1!
#370
0!
#375
b10011100 '
b10011100 P
b10011100 [
b10011100 $
b10011100 O
b10011100 W
b10011100 %
b10011100 D
b10011100 F
b10011100 T
b10011000 &
b10011000 E
b10011000 K
b10011000 \
1!
#380
0!
#385
b10100000 '
b10100000 P
b10100000 [
b10100000 $
b10100000 O
b10100000 W
b10100000 %
b10100000 D
b10100000 F
b10100000 T
b10011100 &
b10011100 E
b10011100 K
b10011100 \
1!
#390
0!
#395
b10100100 '
b10100100 P
b10100100 [
b10100100 $
b10100100 O
b10100100 W
b10100100 %
b10100100 D
b10100100 F
b10100100 T
b10100000 &
b10100000 E
b10100000 K
b10100000 \
1!
#400
0!
#405
b10101000 '
b10101000 P
b10101000 [
b10101000 $
b10101000 O
b10101000 W
b10101000 %
b10101000 D
b10101000 F
b10101000 T
b10100100 &
b10100100 E
b10100100 K
b10100100 \
1!
#410
0!
#415
b10101100 '
b10101100 P
b10101100 [
b10101100 $
b10101100 O
b10101100 W
b10101100 %
b10101100 D
b10101100 F
b10101100 T
b10101000 &
b10101000 E
b10101000 K
b10101000 \
1!
#420
0!
#425
b10110000 '
b10110000 P
b10110000 [
b10110000 $
b10110000 O
b10110000 W
b10110000 %
b10110000 D
b10110000 F
b10110000 T
b10101100 &
b10101100 E
b10101100 K
b10101100 \
1!
#430
0!
#435
b10110100 '
b10110100 P
b10110100 [
b10110100 $
b10110100 O
b10110100 W
b10110100 %
b10110100 D
b10110100 F
b10110100 T
b10110000 &
b10110000 E
b10110000 K
b10110000 \
1!
#440
0!
#445
b10111000 '
b10111000 P
b10111000 [
b10111000 $
b10111000 O
b10111000 W
b10111000 %
b10111000 D
b10111000 F
b10111000 T
b10110100 &
b10110100 E
b10110100 K
b10110100 \
1!
#450
0!
#455
b10111100 '
b10111100 P
b10111100 [
b10111100 $
b10111100 O
b10111100 W
b10111100 %
b10111100 D
b10111100 F
b10111100 T
b10111000 &
b10111000 E
b10111000 K
b10111000 \
1!
#460
0!
#465
b11000000 '
b11000000 P
b11000000 [
b11000000 $
b11000000 O
b11000000 W
b11000000 %
b11000000 D
b11000000 F
b11000000 T
b10111100 &
b10111100 E
b10111100 K
b10111100 \
1!
#470
0!
#475
b11000100 '
b11000100 P
b11000100 [
b11000100 $
b11000100 O
b11000100 W
b11000100 %
b11000100 D
b11000100 F
b11000100 T
b11000000 &
b11000000 E
b11000000 K
b11000000 \
1!
#480
0!
#485
b11001000 '
b11001000 P
b11001000 [
b11001000 $
b11001000 O
b11001000 W
b11001000 %
b11001000 D
b11001000 F
b11001000 T
b11000100 &
b11000100 E
b11000100 K
b11000100 \
1!
#490
0!
#495
b11001100 '
b11001100 P
b11001100 [
b11001100 $
b11001100 O
b11001100 W
b11001100 %
b11001100 D
b11001100 F
b11001100 T
b11001000 &
b11001000 E
b11001000 K
b11001000 \
1!
#500
0!
#505
b11010000 '
b11010000 P
b11010000 [
b11010000 $
b11010000 O
b11010000 W
b11010000 %
b11010000 D
b11010000 F
b11010000 T
b11001100 &
b11001100 E
b11001100 K
b11001100 \
1!
#510
0!
#515
b11010100 '
b11010100 P
b11010100 [
b11010100 $
b11010100 O
b11010100 W
b11010100 %
b11010100 D
b11010100 F
b11010100 T
b11010000 &
b11010000 E
b11010000 K
b11010000 \
1!
#520
0!
#525
b11011000 '
b11011000 P
b11011000 [
b11011000 $
b11011000 O
b11011000 W
b11011000 %
b11011000 D
b11011000 F
b11011000 T
b11010100 &
b11010100 E
b11010100 K
b11010100 \
1!
#530
0!
#535
b11011100 '
b11011100 P
b11011100 [
b11011100 $
b11011100 O
b11011100 W
b11011100 %
b11011100 D
b11011100 F
b11011100 T
b11011000 &
b11011000 E
b11011000 K
b11011000 \
1!
#540
0!
#545
b11100000 '
b11100000 P
b11100000 [
b11100000 $
b11100000 O
b11100000 W
b11100000 %
b11100000 D
b11100000 F
b11100000 T
b11011100 &
b11011100 E
b11011100 K
b11011100 \
1!
#550
0!
#555
b11100100 '
b11100100 P
b11100100 [
b11100100 $
b11100100 O
b11100100 W
b11100100 %
b11100100 D
b11100100 F
b11100100 T
b11100000 &
b11100000 E
b11100000 K
b11100000 \
1!
#560
0!
#565
b11101000 '
b11101000 P
b11101000 [
b11101000 $
b11101000 O
b11101000 W
b11101000 %
b11101000 D
b11101000 F
b11101000 T
b11100100 &
b11100100 E
b11100100 K
b11100100 \
1!
#570
0!
#575
b11101100 '
b11101100 P
b11101100 [
b11101100 $
b11101100 O
b11101100 W
b11101100 %
b11101100 D
b11101100 F
b11101100 T
b11101000 &
b11101000 E
b11101000 K
b11101000 \
1!
#580
0!
#585
b11110000 '
b11110000 P
b11110000 [
b11110000 $
b11110000 O
b11110000 W
b11110000 %
b11110000 D
b11110000 F
b11110000 T
b11101100 &
b11101100 E
b11101100 K
b11101100 \
1!
#590
0!
#595
b11110100 '
b11110100 P
b11110100 [
b11110100 $
b11110100 O
b11110100 W
b11110100 %
b11110100 D
b11110100 F
b11110100 T
b11110000 &
b11110000 E
b11110000 K
b11110000 \
1!
#600
0!
#605
b11111000 '
b11111000 P
b11111000 [
b11111000 $
b11111000 O
b11111000 W
b11111000 %
b11111000 D
b11111000 F
b11111000 T
b11110100 &
b11110100 E
b11110100 K
b11110100 \
1!
#610
0!
#615
b11111100 '
b11111100 P
b11111100 [
b11111100 $
b11111100 O
b11111100 W
b11111100 %
b11111100 D
b11111100 F
b11111100 T
b11111000 &
b11111000 E
b11111000 K
b11111000 \
1!
#620
0!
#625
b100000000 '
b100000000 P
b100000000 [
b100000000 $
b100000000 O
b100000000 W
b100000000 %
b100000000 D
b100000000 F
b100000000 T
b11111100 &
b11111100 E
b11111100 K
b11111100 \
1!
#630
0!
#635
b100000100 '
b100000100 P
b100000100 [
b100000100 $
b100000100 O
b100000100 W
b100000100 %
b100000100 D
b100000100 F
b100000100 T
b100000000 &
b100000000 E
b100000000 K
b100000000 \
1!
#640
0!
#645
b100001000 '
b100001000 P
b100001000 [
b100001000 $
b100001000 O
b100001000 W
b100001000 %
b100001000 D
b100001000 F
b100001000 T
b100000100 &
b100000100 E
b100000100 K
b100000100 \
1!
#650
0!
#655
b100001100 '
b100001100 P
b100001100 [
b100001100 $
b100001100 O
b100001100 W
b100001100 %
b100001100 D
b100001100 F
b100001100 T
b100001000 &
b100001000 E
b100001000 K
b100001000 \
1!
#660
0!
#665
b100010000 '
b100010000 P
b100010000 [
b100010000 $
b100010000 O
b100010000 W
b100010000 %
b100010000 D
b100010000 F
b100010000 T
b100001100 &
b100001100 E
b100001100 K
b100001100 \
1!
#670
0!
#675
b100010100 '
b100010100 P
b100010100 [
b100010100 $
b100010100 O
b100010100 W
b100010100 %
b100010100 D
b100010100 F
b100010100 T
b100010000 &
b100010000 E
b100010000 K
b100010000 \
1!
#680
0!
#685
b100011000 '
b100011000 P
b100011000 [
b100011000 $
b100011000 O
b100011000 W
b100011000 %
b100011000 D
b100011000 F
b100011000 T
b100010100 &
b100010100 E
b100010100 K
b100010100 \
1!
#690
0!
#695
b100011100 '
b100011100 P
b100011100 [
b100011100 $
b100011100 O
b100011100 W
b100011100 %
b100011100 D
b100011100 F
b100011100 T
b100011000 &
b100011000 E
b100011000 K
b100011000 \
1!
#700
0!
#705
b100100000 '
b100100000 P
b100100000 [
b100100000 $
b100100000 O
b100100000 W
b100100000 %
b100100000 D
b100100000 F
b100100000 T
b100011100 &
b100011100 E
b100011100 K
b100011100 \
1!
#710
0!
#715
b100100100 '
b100100100 P
b100100100 [
b100100100 $
b100100100 O
b100100100 W
b100100100 %
b100100100 D
b100100100 F
b100100100 T
b100100000 &
b100100000 E
b100100000 K
b100100000 \
1!
#720
0!
#725
b100101000 '
b100101000 P
b100101000 [
b100101000 $
b100101000 O
b100101000 W
b100101000 %
b100101000 D
b100101000 F
b100101000 T
b100100100 &
b100100100 E
b100100100 K
b100100100 \
1!
#730
0!
#735
b100101100 '
b100101100 P
b100101100 [
b100101100 $
b100101100 O
b100101100 W
b100101100 %
b100101100 D
b100101100 F
b100101100 T
b100101000 &
b100101000 E
b100101000 K
b100101000 \
1!
#740
0!
#745
b100110000 '
b100110000 P
b100110000 [
b100110000 $
b100110000 O
b100110000 W
b100110000 %
b100110000 D
b100110000 F
b100110000 T
b100101100 &
b100101100 E
b100101100 K
b100101100 \
1!
#750
0!
#755
b100110100 '
b100110100 P
b100110100 [
b100110100 $
b100110100 O
b100110100 W
b100110100 %
b100110100 D
b100110100 F
b100110100 T
b100110000 &
b100110000 E
b100110000 K
b100110000 \
1!
#760
0!
#765
b100111000 '
b100111000 P
b100111000 [
b100111000 $
b100111000 O
b100111000 W
b100111000 %
b100111000 D
b100111000 F
b100111000 T
b100110100 &
b100110100 E
b100110100 K
b100110100 \
1!
#770
0!
#775
b100111100 '
b100111100 P
b100111100 [
b100111100 $
b100111100 O
b100111100 W
b100111100 %
b100111100 D
b100111100 F
b100111100 T
b100111000 &
b100111000 E
b100111000 K
b100111000 \
1!
#780
0!
#785
b101000000 '
b101000000 P
b101000000 [
b101000000 $
b101000000 O
b101000000 W
b101000000 %
b101000000 D
b101000000 F
b101000000 T
b100111100 &
b100111100 E
b100111100 K
b100111100 \
1!
#790
0!
#795
b101000100 '
b101000100 P
b101000100 [
b101000100 $
b101000100 O
b101000100 W
b101000100 %
b101000100 D
b101000100 F
b101000100 T
b101000000 &
b101000000 E
b101000000 K
b101000000 \
1!
#800
0!
#805
b101001000 '
b101001000 P
b101001000 [
b101001000 $
b101001000 O
b101001000 W
b101001000 %
b101001000 D
b101001000 F
b101001000 T
b101000100 &
b101000100 E
b101000100 K
b101000100 \
1!
#810
0!
#815
b101001100 '
b101001100 P
b101001100 [
b101001100 $
b101001100 O
b101001100 W
b101001100 %
b101001100 D
b101001100 F
b101001100 T
b101001000 &
b101001000 E
b101001000 K
b101001000 \
1!
#820
0!
#825
b101010000 '
b101010000 P
b101010000 [
b101010000 $
b101010000 O
b101010000 W
b101010000 %
b101010000 D
b101010000 F
b101010000 T
b101001100 &
b101001100 E
b101001100 K
b101001100 \
1!
#830
0!
#835
b101010100 '
b101010100 P
b101010100 [
b101010100 $
b101010100 O
b101010100 W
b101010100 %
b101010100 D
b101010100 F
b101010100 T
b101010000 &
b101010000 E
b101010000 K
b101010000 \
1!
#840
0!
#845
b101011000 '
b101011000 P
b101011000 [
b101011000 $
b101011000 O
b101011000 W
b101011000 %
b101011000 D
b101011000 F
b101011000 T
b101010100 &
b101010100 E
b101010100 K
b101010100 \
1!
#850
0!
#855
b101011100 '
b101011100 P
b101011100 [
b101011100 $
b101011100 O
b101011100 W
b101011100 %
b101011100 D
b101011100 F
b101011100 T
b101011000 &
b101011000 E
b101011000 K
b101011000 \
1!
#860
0!
#865
b101100000 '
b101100000 P
b101100000 [
b101100000 $
b101100000 O
b101100000 W
b101100000 %
b101100000 D
b101100000 F
b101100000 T
b101011100 &
b101011100 E
b101011100 K
b101011100 \
1!
#870
0!
#875
b101100100 '
b101100100 P
b101100100 [
b101100100 $
b101100100 O
b101100100 W
b101100100 %
b101100100 D
b101100100 F
b101100100 T
b101100000 &
b101100000 E
b101100000 K
b101100000 \
1!
#880
0!
#885
b101101000 '
b101101000 P
b101101000 [
b101101000 $
b101101000 O
b101101000 W
b101101000 %
b101101000 D
b101101000 F
b101101000 T
b101100100 &
b101100100 E
b101100100 K
b101100100 \
1!
#890
0!
#895
b101101100 '
b101101100 P
b101101100 [
b101101100 $
b101101100 O
b101101100 W
b101101100 %
b101101100 D
b101101100 F
b101101100 T
b101101000 &
b101101000 E
b101101000 K
b101101000 \
1!
#900
0!
#905
b101110000 '
b101110000 P
b101110000 [
b101110000 $
b101110000 O
b101110000 W
b101110000 %
b101110000 D
b101110000 F
b101110000 T
b101101100 &
b101101100 E
b101101100 K
b101101100 \
1!
#910
0!
#915
b101110100 '
b101110100 P
b101110100 [
b101110100 $
b101110100 O
b101110100 W
b101110100 %
b101110100 D
b101110100 F
b101110100 T
b101110000 &
b101110000 E
b101110000 K
b101110000 \
1!
#920
0!
#925
b101111000 '
b101111000 P
b101111000 [
b101111000 $
b101111000 O
b101111000 W
b101111000 %
b101111000 D
b101111000 F
b101111000 T
b101110100 &
b101110100 E
b101110100 K
b101110100 \
1!
#930
0!
#935
b101111100 '
b101111100 P
b101111100 [
b101111100 $
b101111100 O
b101111100 W
b101111100 %
b101111100 D
b101111100 F
b101111100 T
b101111000 &
b101111000 E
b101111000 K
b101111000 \
1!
#940
0!
