sample_code/lab3_cpu.vcd
$date
	Mon May 25 00:36:56 2020
$end
$version
	Icarus Verilog
$end
$timescale
	1s
$end
$scope module TestBench $end
$scope module cpu $end
$var wire 1 ! clk_i $end
$var wire 1 " rst_i $end
$var wire 1 # zero_alu $end
$var wire 32 $ write_data2 [31:0] $end
$var wire 5 % tmp_number_WriteReg_fromMux [4:0] $end
$var wire 32 & tmp_jump_address [31:0] $end
$var wire 32 ' tmp [31:0] $end
$var wire 32 ( pc_plus_4 [31:0] $end
$var wire 32 ) pc_out [31:0] $end
$var wire 32 * pc_in [31:0] $end
$var wire 5 + number_WriteReg_fromMux [4:0] $end
$var wire 1 , mem_write $end
$var wire 1 - mem_reg $end
$var wire 1 . mem_read $end
$var wire 32 / jump_address_2 [31:0] $end
$var wire 32 0 jump_address [31:0] $end
$var wire 1 1 jump $end
$var wire 1 2 jr $end
$var wire 1 3 jal $end
$var wire 32 4 instruction [31:0] $end
$var wire 32 5 data_into_ALU_after_mux [31:0] $end
$var wire 32 6 data_after_se [31:0] $end
$var wire 32 7 data_after_left2 [31:0] $end
$var wire 1 8 branch_type_or_not $end
$var wire 2 9 branch_type [1:0] $end
$var wire 32 : branch_target_addr [31:0] $end
$var wire 32 ; branch_address [31:0] $end
$var wire 1 < branch $end
$var wire 1 = RegWrite $end
$var wire 1 > RegDst $end
$var wire 32 ? RT_data [31:0] $end
$var wire 32 @ RS_data [31:0] $end
$var wire 32 A RD_data [31:0] $end
$var wire 4 B AlU_control [3:0] $end
$var wire 1 C ALUSrc $end
$var wire 3 D ALUOp [2:0] $end
$scope module AC $end
$var wire 6 E funct_i [5:0] $end
$var wire 3 F ALUOp_i [2:0] $end
$var reg 4 G ALUCtrl_o [3:0] $end
$var reg 1 2 jr_o $end
$upscope $end
$scope module ALU $end
$var wire 4 H ctrl_i [3:0] $end
$var wire 5 I shamt_i [4:0] $end
$var wire 5 J tmp_shamt [4:0] $end
$var wire 32 K tmp_src1 [31:0] $end
$var wire 32 L tmp_src2 [31:0] $end
$var wire 32 M src2_i [31:0] $end
$var wire 32 N src1_i [31:0] $end
$var reg 32 O result_o [31:0] $end
$var reg 1 # zero_o $end
$upscope $end
$scope module Adder1 $end
$var wire 32 P src2_i [31:0] $end
$var wire 32 Q sum_o [31:0] $end
$var wire 32 R src1_i [31:0] $end
$upscope $end
$scope module Adder2 $end
$var wire 32 S src1_i [31:0] $end
$var wire 32 T sum_o [31:0] $end
$var wire 32 U src2_i [31:0] $end
$upscope $end
$scope module Decoder $end
$var wire 6 V instr_op_i [5:0] $end
$var reg 1 C ALUSrc_o $end
$var reg 3 W ALU_op_o [2:0] $end
$var reg 1 < Branch_o $end
$var reg 1 > RegDst_o $end
$var reg 1 = RegWrite_o $end
$var reg 2 X branch_type_o [1:0] $end
$var reg 1 3 jal_o $end
$var reg 1 1 jump_o $end
$var reg 1 . mem_read_o $end
$var reg 1 - mem_to_reg $end
$var reg 1 , mem_write_o $end
$upscope $end
$scope module IM $end
$var wire 32 Y pc_addr_i [31:0] $end
$var reg 32 Z instr_o [31:0] $end
$var integer 32 [ i [31:0] $end
$upscope $end
$scope module Jrr $end
$var wire 1 2 select_i $end
$var wire 32 \ data1_i [31:0] $end
$var wire 32 ] data0_i [31:0] $end
$var reg 32 ^ data_o [31:0] $end
$upscope $end
$scope module Jump_address $end
$var wire 32 _ data_i [31:0] $end
$var wire 32 ` data_o [31:0] $end
$upscope $end
$scope module Mux_ALUSrc $end
$var wire 1 C select_i $end
$var wire 32 a data1_i [31:0] $end
$var wire 32 b data0_i [31:0] $end
$var reg 32 c data_o [31:0] $end
$upscope $end
$scope module Mux_PC_Source $end
$var wire 32 d data0_i [31:0] $end
$var wire 32 e data1_i [31:0] $end
$var wire 1 f select_i $end
$var reg 32 g data_o [31:0] $end
$upscope $end
$scope module Mux_Write_Reg $end
$var wire 5 h data0_i [4:0] $end
$var wire 5 i data1_i [4:0] $end
$var wire 1 > select_i $end
$var reg 5 j data_o [4:0] $end
$upscope $end
$scope module Mux_Write_Reg_or_jal $end
$var wire 5 k data0_i [4:0] $end
$var wire 5 l data1_i [4:0] $end
$var wire 1 3 select_i $end
$var reg 5 m data_o [4:0] $end
$upscope $end
$scope module Mux_jump $end
$var wire 32 n data0_i [31:0] $end
$var wire 32 o data1_i [31:0] $end
$var wire 1 1 select_i $end
$var reg 32 p data_o [31:0] $end
$upscope $end
$scope module PC $end
$var wire 1 ! clk_i $end
$var wire 32 q pc_in_i [31:0] $end
$var wire 1 " rst_i $end
$var reg 32 r pc_out_o [31:0] $end
$upscope $end
$scope module RF $end
$var wire 5 s RDaddr_i [4:0] $end
$var wire 5 t RSaddr_i [4:0] $end
$var wire 32 u RSdata_o [31:0] $end
$var wire 5 v RTaddr_i [4:0] $end
$var wire 32 w RTdata_o [31:0] $end
$var wire 1 = RegWrite_i $end
$var wire 1 ! clk_i $end
$var wire 1 " rst_i $end
$var wire 32 x RDdata_i [31:0] $end
$upscope $end
$scope module SE $end
$var wire 4 y ctrl_i [3:0] $end
$var wire 16 z data_i [15:0] $end
$var reg 32 { data_o [31:0] $end
$upscope $end
$scope module Shifter $end
$var wire 32 | data_i [31:0] $end
$var wire 32 } data_o [31:0] $end
$upscope $end
$scope module branchtype $end
$var wire 1 ~ ALU_result_i $end
$var wire 2 !" Branch_type_i [1:0] $end
$var wire 1 # Zero_i $end
$var reg 1 8 branch_type_result_o $end
$upscope $end
$scope module write_data $end
$var wire 32 "" data0_i [31:0] $end
$var wire 32 #" data1_i [31:0] $end
$var wire 1 3 select_i $end
$var reg 32 $" data_o [31:0] $end
$upscope $end
$upscope $end
$upscope $end
$enddefinitions $end
#0
$dumpvars
bx $"
bx #"
bx ""
bx !"
x~
bx00 }
bx |
bx {
bx z
bx y
bx x
bx w
bx v
bx u
bx t
bx s
bx r
bx q
bx p
b0xxxxxxxxxxxxxxxxxxxxxxxxxxxx00 o
bx n
bx m
b11111 l
bx k
bx j
bx i
bx h
bx g
xf
bx e
bx d
bx c
bx b
bx a
bx00000000 `
bx000000 _
bx ^
bx ]
bx \
b100000 [
bx Z
bx Y
bx X
bx W
bx V
bx00 U
bx T
bx S
bx R
bx Q
b100 P
bx O
bx N
bx M
bx L
bx K
bx J
bx I
bx H
bx G
bx F
bx E
bx D
xC
bx B
bx A
bx @
bx ?
x>
x=
x<
bx ;
bx :
bx 9
x8
bx00 7
bx 6
bx 5
bx 4
x3
x2
x1
b0xxxxxxxxxxxxxxxxxxxxxxxxxxxx00 0
bx /
x.
x-
x,
bx +
bx *
bx )
bx (
bx000000 '
bx00000000 &
bx %
bx $
x#
0"
0!
$end
#5
b100 *
b100 ^
b100 q
b11100 $
b11100 x
b11100 $"
0~
b100 /
b100 ]
b100 p
b11100 A
b11100 O
b11100 ""
b100 ;
b100 g
b100 n
b11100 L
b11100 5
b11100 M
b11100 c
b10 B
b10 G
b10 H
b10 y
08
b1 +
b1 m
b1 s
b1110100 :
b1110100 T
b1110100 e
b1110000 7
b1110000 U
b1110000 }
0f
b11100 6
b11100 a
b11100 {
b11100 |
02
03
b0 9
b0 X
b0 !"
01
0-
0.
0,
0<
0>
1C
b1 D
b1 F
b1 W
1=
0#
b1 %
b1 j
b1 k
b1000000000001110000000000 &
b1000000000001110000000000 `
b10000000000011100000000 '
b10000000000011100000000 _
b0 J
b0 I
b11100 z
b11100 E
b1000 V
b1 ?
b1 b
b1 w
b1 v
b0 K
b0 @
b0 N
b0 \
b0 u
b0 t
b0 i
b1 h
b1000000000001110000 0
b1000000000001110000 o
b100000000000010000000000011100 4
b100000000000010000000000011100 Z
b100 (
b100 Q
b100 S
b100 d
b100 #"
b0 )
b0 R
b0 Y
b0 r
1!
#10
b11100 ?
b11100 b
b11100 w
0!
1"
#15
18
1#
b0 $
b0 x
b0 $"
b0 A
b0 O
b0 ""
b1000 *
b1000 ^
b1000 q
b0 L
b0 5
b0 M
b0 c
b10 +
b10 m
b10 s
b1000 /
b1000 ]
b1000 p
b0 7
b0 U
b0 }
b0 6
b0 a
b0 {
b0 |
b10 %
b10 j
b10 k
b1000 ;
b1000 g
b1000 n
b10000000000000000000 0
b10000000000000000000 o
b10000000000000000000000000 &
b10000000000000000000000000 `
b100000000000000000000000 '
b100000000000000000000000 _
b0 z
b0 E
b10 ?
b10 b
b10 w
b10 v
b10 h
b100000000000100000000000000000 4
b100000000000100000000000000000 Z
b1000 :
b1000 T
b1000 e
b1000 (
b1000 Q
b1000 S
b1000 d
b1000 #"
b100 )
b100 R
b100 Y
b100 r
1!
#20
0!
#25
b1100 *
b1100 ^
b1100 q
b11 +
b11 m
b11 s
b1100 /
b1100 ]
b1100 p
b11 %
b11 j
b11 k
b1100 ;
b1100 g
b1100 n
b11000000000000000000 0
b11000000000000000000 o
b11000000000000000000000000 &
b11000000000000000000000000 `
b110000000000000000000000 '
b110000000000000000000000 _
b11 v
b11 h
b100000000000110000000000000000 4
b100000000000110000000000000000 Z
b1100 :
b1100 T
b1100 e
b1100 (
b1100 Q
b1100 S
b1100 d
b1100 #"
b1000 )
b1000 R
b1000 Y
b1000 r
b11 ?
b11 b
b11 w
1!
#30
0!
#35
b10000 *
b10000 ^
b10000 q
b100 +
b100 m
b100 s
b10000 /
b10000 ]
b10000 p
b100 %
b100 j
b100 k
b10000 ;
b10000 g
b10000 n
b100000000000000000000 0
b100000000000000000000 o
b100000000000000000000000000 &
b100000000000000000000000000 `
b1000000000000000000000000 '
b1000000000000000000000000 _
b100 v
b100 h
b100000000001000000000000000000 4
b100000000001000000000000000000 Z
b10000 :
b10000 T
b10000 e
b10000 (
b10000 Q
b10000 S
b10000 d
b10000 #"
b1100 )
b1100 R
b1100 Y
b1100 r
b100 ?
b100 b
b100 w
1!
#40
0!
#45
b10100 *
b10100 ^
b10100 q
b101 +
b101 m
b101 s
b10100 /
b10100 ]
b10100 p
b101 %
b101 j
b101 k
b10100 ;
b10100 g
b10100 n
b101000000000000000000 0
b101000000000000000000 o
b101000000000000000000000000 &
b101000000000000000000000000 `
b1010000000000000000000000 '
b1010000000000000000000000 _
b101 v
b101 h
b100000000001010000000000000000 4
b100000000001010000000000000000 Z
b10100 :
b10100 T
b10100 e
b10100 (
b10100 Q
b10100 S
b10100 d
b10100 #"
b10000 )
b10000 R
b10000 Y
b10000 r
b101 ?
b101 b
b101 w
1!
#50
0!
#55
18
b11100 *
b11100 ^
b11100 q
12
b0 B
b0 G
b0 H
b0 y
1#
b0 $
b0 x
b0 $"
b0 +
b0 m
b0 s
b11000 /
b11000 ]
b11000 p
b100000 7
b100000 U
b100000 }
b1000 6
b1000 a
b1000 {
b1000 |
1>
0C
b0 D
b0 F
b0 W
b0 A
b0 O
b0 ""
b0 %
b0 j
b0 k
b11000 ;
b11000 g
b11000 n
b100000000000000000100000 0
b100000000000000000100000 o
b100000000000000000100000000000 &
b100000000000000000100000000000 `
b1000000000000000001000000000 '
b1000000000000000001000000000 _
b1000 z
b1000 E
b0 V
b0 v
b11100 K
b11100 @
b11100 N
b11100 \
b11100 u
b1 t
b0 h
b1000000000000000001000 4
b1000000000000000001000 Z
b111000 :
b111000 T
b111000 e
b11000 (
b11000 Q
b11000 S
b11000 d
b11000 #"
b10100 )
b10100 R
b10100 Y
b10100 r
b0 ?
b0 b
b0 w
1!
#60
0!
#65
08
0#
b11 $
b11 x
b11 $"
b11 +
b11 m
b11 s
b11 A
b11 O
b11 ""
b11 %
b11 j
b11 k
b11 L
b11 5
b11 M
b11 c
b100000 /
b100000 ]
b100000 p
b1100 7
b1100 U
b1100 }
b11 6
b11 a
b11 {
b11 |
b10 B
b10 G
b10 H
b10 y
02
0>
1C
b1 D
b1 F
b1 W
b100000 *
b100000 ^
b100000 q
b100000 ;
b100000 g
b100000 n
b11000000000000001100 0
b11000000000000001100 o
b11000000000000001100000000 &
b11000000000000001100000000 `
b110000000000000011000000 '
b110000000000000011000000 _
b11 z
b11 E
b1000 V
b11 v
b0 K
b0 @
b0 N
b0 \
b0 u
b0 t
b11 h
b100000000000110000000000000011 4
b100000000000110000000000000011 Z
b101100 :
b101100 T
b101100 e
b100000 (
b100000 Q
b100000 S
b100000 d
b100000 #"
b11100 )
b11100 R
b11100 Y
b11100 r
1!
#70
0!
#75
b100 $
b100 x
b100 $"
b100 A
b100 O
b100 ""
b100100 *
b100100 ^
b100100 q
b100 L
b100 5
b100 M
b100 c
b100 +
b100 m
b100 s
b100100 /
b100100 ]
b100100 p
b10000 7
b10000 U
b10000 }
b100 6
b100 a
b100 {
b100 |
b100 %
b100 j
b100 k
b100100 ;
b100100 g
b100100 n
b100000000000000010000 0
b100000000000000010000 o
b100000000000000010000000000 &
b100000000000000010000000000 `
b1000000000000000100000000 '
b1000000000000000100000000 _
b100 z
b100 E
b100 v
b100 h
b100000000001000000000000000100 4
b100000000001000000000000000100 Z
b110100 :
b110100 T
b110100 e
b100100 (
b100100 Q
b100100 S
b100100 d
b100100 #"
b100000 )
b100000 R
b100000 Y
b100000 r
b0 ?
b0 b
b0 w
1!
#80
0!
#85
b101 $
b101 x
b101 $"
b101 A
b101 O
b101 ""
b101000 *
b101000 ^
b101000 q
b101 L
b101 5
b101 M
b101 c
b101 +
b101 m
b101 s
b101000 /
b101000 ]
b101000 p
b10100 7
b10100 U
b10100 }
b101 6
b101 a
b101 {
b101 |
b101 %
b101 j
b101 k
b101000 ;
b101000 g
b101000 n
b101000000000000010100 0
b101000000000000010100 o
b101000000000000010100000000 &
b101000000000000010100000000 `
b1010000000000000101000000 '
b1010000000000000101000000 _
b101 z
b101 E
b101 v
b101 h
b100000000001010000000000000101 4
b100000000001010000000000000101 Z
b111100 :
b111100 T
b111100 e
b101000 (
b101000 Q
b101000 S
b101000 d
b101000 #"
b100100 )
b100100 R
b100100 Y
b100100 r
b0 ?
b0 b
b0 w
1!
#90
0!
#95
18
1#
b0 $
b0 x
b0 $"
b0 A
b0 O
b0 ""
b101100 *
b101100 ^
b101100 q
b0 L
b0 5
b0 M
b0 c
b1101 B
b1101 G
b1101 H
b1101 y
b0 +
b0 m
b0 s
b101100 /
b101100 ]
b101100 p
b0 7
b0 U
b0 }
b0 6
b0 a
b0 {
b0 |
1>
0C
b0 D
b0 F
b0 W
b0 %
b0 j
b0 k
b101100 ;
b101100 g
b101100 n
b0 0
b0 o
b0 &
b0 `
b0 '
b0 _
b0 z
b0 E
b0 V
b0 v
b0 h
b0 4
b0 Z
b101100 :
b101100 T
b101100 e
b101100 (
b101100 Q
b101100 S
b101100 d
b101100 #"
b101000 )
b101000 R
b101000 Y
b101000 r
b0 ?
b0 b
b0 w
1!
#100
0!
#105
b110000 *
b110000 ^
b110000 q
b110000 /
b110000 ]
b110000 p
b110000 ;
b110000 g
b110000 n
b110000 :
b110000 T
b110000 e
b110000 (
b110000 Q
b110000 S
b110000 d
b110000 #"
b101100 )
b101100 R
b101100 Y
b101100 r
1!
#110
0!
#115
b110100 *
b110100 ^
b110100 q
b110100 /
b110100 ]
b110100 p
b110100 ;
b110100 g
b110100 n
b110100 :
b110100 T
b110100 e
b110100 (
b110100 Q
b110100 S
b110100 d
b110100 #"
b110000 )
b110000 R
b110000 Y
b110000 r
1!
#120
0!
#125
b111000 *
b111000 ^
b111000 q
b111000 /
b111000 ]
b111000 p
b111000 ;
b111000 g
b111000 n
b111000 :
b111000 T
b111000 e
b111000 (
b111000 Q
b111000 S
b111000 d
b111000 #"
b110100 )
b110100 R
b110100 Y
b110100 r
1!
#130
0!
#135
b111100 *
b111100 ^
b111100 q
b111100 /
b111100 ]
b111100 p
b111100 ;
b111100 g
b111100 n
b111100 :
b111100 T
b111100 e
b111100 (
b111100 Q
b111100 S
b111100 d
b111100 #"
b111000 )
b111000 R
b111000 Y
b111000 r
1!
#140
0!
#145
b1000000 *
b1000000 ^
b1000000 q
b1000000 /
b1000000 ]
b1000000 p
b1000000 ;
b1000000 g
b1000000 n
b1000000 :
b1000000 T
b1000000 e
b1000000 (
b1000000 Q
b1000000 S
b1000000 d
b1000000 #"
b111100 )
b111100 R
b111100 Y
b111100 r
1!
#150
0!
#155
b1000100 *
b1000100 ^
b1000100 q
b1000100 /
b1000100 ]
b1000100 p
b1000100 ;
b1000100 g
b1000100 n
b1000100 :
b1000100 T
b1000100 e
b1000100 (
b1000100 Q
b1000100 S
b1000100 d
b1000100 #"
b1000000 )
b1000000 R
b1000000 Y
b1000000 r
1!
#160
0!
#165
b1001000 *
b1001000 ^
b1001000 q
b1001000 /
b1001000 ]
b1001000 p
b1001000 ;
b1001000 g
b1001000 n
b1001000 :
b1001000 T
b1001000 e
b1001000 (
b1001000 Q
b1001000 S
b1001000 d
b1001000 #"
b1000100 )
b1000100 R
b1000100 Y
b1000100 r
1!
#170
0!
#175
b1001100 *
b1001100 ^
b1001100 q
b1001100 /
b1001100 ]
b1001100 p
b1001100 ;
b1001100 g
b1001100 n
b1001100 :
b1001100 T
b1001100 e
b1001100 (
b1001100 Q
b1001100 S
b1001100 d
b1001100 #"
b1001000 )
b1001000 R
b1001000 Y
b1001000 r
1!
#180
0!
#185
b1010000 *
b1010000 ^
b1010000 q
b1010000 /
b1010000 ]
b1010000 p
b1010000 ;
b1010000 g
b1010000 n
b1010000 :
b1010000 T
b1010000 e
b1010000 (
b1010000 Q
b1010000 S
b1010000 d
b1010000 #"
b1001100 )
b1001100 R
b1001100 Y
b1001100 r
1!
#190
0!
#195
b1010100 *
b1010100 ^
b1010100 q
b1010100 /
b1010100 ]
b1010100 p
b1010100 ;
b1010100 g
b1010100 n
b1010100 :
b1010100 T
b1010100 e
b1010100 (
b1010100 Q
b1010100 S
b1010100 d
b1010100 #"
b1010000 )
b1010000 R
b1010000 Y
b1010000 r
1!
#200
0!
#205
b1011000 *
b1011000 ^
b1011000 q
b1011000 /
b1011000 ]
b1011000 p
b1011000 ;
b1011000 g
b1011000 n
b1011000 :
b1011000 T
b1011000 e
b1011000 (
b1011000 Q
b1011000 S
b1011000 d
b1011000 #"
b1010100 )
b1010100 R
b1010100 Y
b1010100 r
1!
#210
0!
#215
b1011100 *
b1011100 ^
b1011100 q
b1011100 /
b1011100 ]
b1011100 p
b1011100 ;
b1011100 g
b1011100 n
b1011100 :
b1011100 T
b1011100 e
b1011100 (
b1011100 Q
b1011100 S
b1011100 d
b1011100 #"
b1011000 )
b1011000 R
b1011000 Y
b1011000 r
1!
#220
0!
#225
b1100000 *
b1100000 ^
b1100000 q
b1100000 /
b1100000 ]
b1100000 p
b1100000 ;
b1100000 g
b1100000 n
b1100000 :
b1100000 T
b1100000 e
b1100000 (
b1100000 Q
b1100000 S
b1100000 d
b1100000 #"
b1011100 )
b1011100 R
b1011100 Y
b1011100 r
1!
#230
0!
#235
b1100100 *
b1100100 ^
b1100100 q
b1100100 /
b1100100 ]
b1100100 p
b1100100 ;
b1100100 g
b1100100 n
b1100100 :
b1100100 T
b1100100 e
b1100100 (
b1100100 Q
b1100100 S
b1100100 d
b1100100 #"
b1100000 )
b1100000 R
b1100000 Y
b1100000 r
1!
#240
0!
#245
b1101000 *
b1101000 ^
b1101000 q
b1101000 /
b1101000 ]
b1101000 p
b1101000 ;
b1101000 g
b1101000 n
b1101000 :
b1101000 T
b1101000 e
b1101000 (
b1101000 Q
b1101000 S
b1101000 d
b1101000 #"
b1100100 )
b1100100 R
b1100100 Y
b1100100 r
1!
#250
0!
#255
b1101100 *
b1101100 ^
b1101100 q
b1101100 /
b1101100 ]
b1101100 p
b1101100 ;
b1101100 g
b1101100 n
b1101100 :
b1101100 T
b1101100 e
b1101100 (
b1101100 Q
b1101100 S
b1101100 d
b1101100 #"
b1101000 )
b1101000 R
b1101000 Y
b1101000 r
1!
#260
0!
#265
b1110000 *
b1110000 ^
b1110000 q
b1110000 /
b1110000 ]
b1110000 p
b1110000 ;
b1110000 g
b1110000 n
b1110000 :
b1110000 T
b1110000 e
b1110000 (
b1110000 Q
b1110000 S
b1110000 d
b1110000 #"
b1101100 )
b1101100 R
b1101100 Y
b1101100 r
1!
#270
0!
#275
b1110100 *
b1110100 ^
b1110100 q
b1110100 /
b1110100 ]
b1110100 p
b1110100 ;
b1110100 g
b1110100 n
b1110100 :
b1110100 T
b1110100 e
b1110100 (
b1110100 Q
b1110100 S
b1110100 d
b1110100 #"
b1110000 )
b1110000 R
b1110000 Y
b1110000 r
1!
#280
0!
#285
b1111000 *
b1111000 ^
b1111000 q
b1111000 /
b1111000 ]
b1111000 p
b1111000 ;
b1111000 g
b1111000 n
b1111000 :
b1111000 T
b1111000 e
b1111000 (
b1111000 Q
b1111000 S
b1111000 d
b1111000 #"
b1110100 )
b1110100 R
b1110100 Y
b1110100 r
1!
#290
0!
#295
b1111100 *
b1111100 ^
b1111100 q
b1111100 /
b1111100 ]
b1111100 p
b1111100 ;
b1111100 g
b1111100 n
b1111100 :
b1111100 T
b1111100 e
b1111100 (
b1111100 Q
b1111100 S
b1111100 d
b1111100 #"
b1111000 )
b1111000 R
b1111000 Y
b1111000 r
1!
#300
0!
#305
b10000000 *
b10000000 ^
b10000000 q
b10000000 /
b10000000 ]
b10000000 p
b10000000 ;
b10000000 g
b10000000 n
b10000000 :
b10000000 T
b10000000 e
b10000000 (
b10000000 Q
b10000000 S
b10000000 d
b10000000 #"
b1111100 )
b1111100 R
b1111100 Y
b1111100 r
1!
#310
0!
#315
08
b10000100 *
b10000100 ^
b10000100 q
0#
bx $
bx x
bx $"
bx +
bx m
bx s
b10000100 /
b10000100 ]
b10000100 p
bx00 7
bx00 U
bx00 }
x~
bx 6
bx a
bx {
bx |
bx L
bx 5
bx M
bx c
bx A
bx O
bx ""
bx %
bx j
bx k
b10000100 ;
b10000100 g
b10000100 n
b0xxxxxxxxxxxxxxxxxxxxxxxx00 0
b0xxxxxxxxxxxxxxxxxxxxxxxx00 o
bx00000000 &
bx00000000 `
bx000000 '
bx000000 _
bx J
bx I
bx z
bx E
bx V
bx ?
bx b
bx w
bx v
bx K
bx @
bx N
bx \
bx u
bx t
bx i
bx h
bx 4
bx Z
bx :
bx T
bx e
b10000100 (
b10000100 Q
b10000100 S
b10000100 d
b10000100 #"
b10000000 )
b10000000 R
b10000000 Y
b10000000 r
1!
#320
0!
#325
b10001000 *
b10001000 ^
b10001000 q
b10001000 /
b10001000 ]
b10001000 p
b10001000 ;
b10001000 g
b10001000 n
b10001000 (
b10001000 Q
b10001000 S
b10001000 d
b10001000 #"
b10000100 )
b10000100 R
b10000100 Y
b10000100 r
1!
#330
0!
#335
b10001100 *
b10001100 ^
b10001100 q
b10001100 /
b10001100 ]
b10001100 p
b10001100 ;
b10001100 g
b10001100 n
b10001100 (
b10001100 Q
b10001100 S
b10001100 d
b10001100 #"
b10001000 )
b10001000 R
b10001000 Y
b10001000 r
1!
#340
0!
#345
b10010000 *
b10010000 ^
b10010000 q
b10010000 /
b10010000 ]
b10010000 p
b10010000 ;
b10010000 g
b10010000 n
b10010000 (
b10010000 Q
b10010000 S
b10010000 d
b10010000 #"
b10001100 )
b10001100 R
b10001100 Y
b10001100 r
1!
#350
0!
#355
b10010100 *
b10010100 ^
b10010100 q
b10010100 /
b10010100 ]
b10010100 p
b10010100 ;
b10010100 g
b10010100 n
b10010100 (
b10010100 Q
b10010100 S
b10010100 d
b10010100 #"
b10010000 )
b10010000 R
b10010000 Y
b10010000 r
1!
#360
0!
#365
b10011000 *
b10011000 ^
b10011000 q
b10011000 /
b10011000 ]
b10011000 p
b10011000 ;
b10011000 g
b10011000 n
b10011000 (
b10011000 Q
b10011000 S
b10011000 d
b10011000 #"
b10010100 )
b10010100 R
b10010100 Y
b10010100 r
1!
#370
0!
#375
b10011100 *
b10011100 ^
b10011100 q
b10011100 /
b10011100 ]
b10011100 p
b10011100 ;
b10011100 g
b10011100 n
b10011100 (
b10011100 Q
b10011100 S
b10011100 d
b10011100 #"
b10011000 )
b10011000 R
b10011000 Y
b10011000 r
1!
#380
0!
#385
b10100000 *
b10100000 ^
b10100000 q
b10100000 /
b10100000 ]
b10100000 p
b10100000 ;
b10100000 g
b10100000 n
b10100000 (
b10100000 Q
b10100000 S
b10100000 d
b10100000 #"
b10011100 )
b10011100 R
b10011100 Y
b10011100 r
1!
#390
0!
#395
b10100100 *
b10100100 ^
b10100100 q
b10100100 /
b10100100 ]
b10100100 p
b10100100 ;
b10100100 g
b10100100 n
b10100100 (
b10100100 Q
b10100100 S
b10100100 d
b10100100 #"
b10100000 )
b10100000 R
b10100000 Y
b10100000 r
1!
#400
0!
#405
b10101000 *
b10101000 ^
b10101000 q
b10101000 /
b10101000 ]
b10101000 p
b10101000 ;
b10101000 g
b10101000 n
b10101000 (
b10101000 Q
b10101000 S
b10101000 d
b10101000 #"
b10100100 )
b10100100 R
b10100100 Y
b10100100 r
1!
#410
0!
#415
b10101100 *
b10101100 ^
b10101100 q
b10101100 /
b10101100 ]
b10101100 p
b10101100 ;
b10101100 g
b10101100 n
b10101100 (
b10101100 Q
b10101100 S
b10101100 d
b10101100 #"
b10101000 )
b10101000 R
b10101000 Y
b10101000 r
1!
#420
0!
#425
b10110000 *
b10110000 ^
b10110000 q
b10110000 /
b10110000 ]
b10110000 p
b10110000 ;
b10110000 g
b10110000 n
b10110000 (
b10110000 Q
b10110000 S
b10110000 d
b10110000 #"
b10101100 )
b10101100 R
b10101100 Y
b10101100 r
1!
#430
0!
#435
b10110100 *
b10110100 ^
b10110100 q
b10110100 /
b10110100 ]
b10110100 p
b10110100 ;
b10110100 g
b10110100 n
b10110100 (
b10110100 Q
b10110100 S
b10110100 d
b10110100 #"
b10110000 )
b10110000 R
b10110000 Y
b10110000 r
1!
#440
0!
#445
b10111000 *
b10111000 ^
b10111000 q
b10111000 /
b10111000 ]
b10111000 p
b10111000 ;
b10111000 g
b10111000 n
b10111000 (
b10111000 Q
b10111000 S
b10111000 d
b10111000 #"
b10110100 )
b10110100 R
b10110100 Y
b10110100 r
1!
#450
0!
#455
b10111100 *
b10111100 ^
b10111100 q
b10111100 /
b10111100 ]
b10111100 p
b10111100 ;
b10111100 g
b10111100 n
b10111100 (
b10111100 Q
b10111100 S
b10111100 d
b10111100 #"
b10111000 )
b10111000 R
b10111000 Y
b10111000 r
1!
#460
0!
#465
b11000000 *
b11000000 ^
b11000000 q
b11000000 /
b11000000 ]
b11000000 p
b11000000 ;
b11000000 g
b11000000 n
b11000000 (
b11000000 Q
b11000000 S
b11000000 d
b11000000 #"
b10111100 )
b10111100 R
b10111100 Y
b10111100 r
1!
#470
0!
#475
b11000100 *
b11000100 ^
b11000100 q
b11000100 /
b11000100 ]
b11000100 p
b11000100 ;
b11000100 g
b11000100 n
b11000100 (
b11000100 Q
b11000100 S
b11000100 d
b11000100 #"
b11000000 )
b11000000 R
b11000000 Y
b11000000 r
1!
#480
0!
#485
b11001000 *
b11001000 ^
b11001000 q
b11001000 /
b11001000 ]
b11001000 p
b11001000 ;
b11001000 g
b11001000 n
b11001000 (
b11001000 Q
b11001000 S
b11001000 d
b11001000 #"
b11000100 )
b11000100 R
b11000100 Y
b11000100 r
1!
#490
0!
#495
b11001100 *
b11001100 ^
b11001100 q
b11001100 /
b11001100 ]
b11001100 p
b11001100 ;
b11001100 g
b11001100 n
b11001100 (
b11001100 Q
b11001100 S
b11001100 d
b11001100 #"
b11001000 )
b11001000 R
b11001000 Y
b11001000 r
1!
#500
0!
#505
b11010000 *
b11010000 ^
b11010000 q
b11010000 /
b11010000 ]
b11010000 p
b11010000 ;
b11010000 g
b11010000 n
b11010000 (
b11010000 Q
b11010000 S
b11010000 d
b11010000 #"
b11001100 )
b11001100 R
b11001100 Y
b11001100 r
1!
#510
0!
#515
b11010100 *
b11010100 ^
b11010100 q
b11010100 /
b11010100 ]
b11010100 p
b11010100 ;
b11010100 g
b11010100 n
b11010100 (
b11010100 Q
b11010100 S
b11010100 d
b11010100 #"
b11010000 )
b11010000 R
b11010000 Y
b11010000 r
1!
#520
0!
#525
b11011000 *
b11011000 ^
b11011000 q
b11011000 /
b11011000 ]
b11011000 p
b11011000 ;
b11011000 g
b11011000 n
b11011000 (
b11011000 Q
b11011000 S
b11011000 d
b11011000 #"
b11010100 )
b11010100 R
b11010100 Y
b11010100 r
1!
#530
0!
#535
b11011100 *
b11011100 ^
b11011100 q
b11011100 /
b11011100 ]
b11011100 p
b11011100 ;
b11011100 g
b11011100 n
b11011100 (
b11011100 Q
b11011100 S
b11011100 d
b11011100 #"
b11011000 )
b11011000 R
b11011000 Y
b11011000 r
1!
#540
0!
#545
b11100000 *
b11100000 ^
b11100000 q
b11100000 /
b11100000 ]
b11100000 p
b11100000 ;
b11100000 g
b11100000 n
b11100000 (
b11100000 Q
b11100000 S
b11100000 d
b11100000 #"
b11011100 )
b11011100 R
b11011100 Y
b11011100 r
1!
#550
0!
#555
b11100100 *
b11100100 ^
b11100100 q
b11100100 /
b11100100 ]
b11100100 p
b11100100 ;
b11100100 g
b11100100 n
b11100100 (
b11100100 Q
b11100100 S
b11100100 d
b11100100 #"
b11100000 )
b11100000 R
b11100000 Y
b11100000 r
1!
#560
0!
#565
b11101000 *
b11101000 ^
b11101000 q
b11101000 /
b11101000 ]
b11101000 p
b11101000 ;
b11101000 g
b11101000 n
b11101000 (
b11101000 Q
b11101000 S
b11101000 d
b11101000 #"
b11100100 )
b11100100 R
b11100100 Y
b11100100 r
1!
#570
0!
#575
b11101100 *
b11101100 ^
b11101100 q
b11101100 /
b11101100 ]
b11101100 p
b11101100 ;
b11101100 g
b11101100 n
b11101100 (
b11101100 Q
b11101100 S
b11101100 d
b11101100 #"
b11101000 )
b11101000 R
b11101000 Y
b11101000 r
1!
#580
0!
