sample_code/lab3_cpu.vcd
$date
	Sat May 23 23:58:04 2020
$end
$version
	Icarus Verilog
$end
$timescale
	1s
$end
$scope module TestBench $end
$scope module cpu $end
$var wire 1 ! clk_i $end
$var wire 1 " rst_i $end
$var wire 1 # zero_alu $end
$var wire 1 $ regdst2 $end
$var wire 32 % pc_plus_4 [31:0] $end
$var wire 32 & pc_out [31:0] $end
$var wire 32 ' pc_in [31:0] $end
$var wire 5 ( number_WriteReg_fromMux [4:0] $end
$var wire 1 ) mem_write $end
$var wire 1 * mem_reg $end
$var wire 1 + mem_read $end
$var wire 1 , jump $end
$var wire 1 - jr $end
$var wire 32 . instruction [31:0] $end
$var wire 32 / data_into_ALU_after_mux [31:0] $end
$var wire 32 0 data_after_se [31:0] $end
$var wire 32 1 data_after_left2 [31:0] $end
$var wire 1 2 branch_type_or_not $end
$var wire 2 3 branch_type [1:0] $end
$var wire 32 4 branch_target_addr [31:0] $end
$var wire 1 5 branch $end
$var wire 1 6 RegWrite $end
$var wire 1 7 RegDst $end
$var wire 32 8 RT_data [31:0] $end
$var wire 32 9 RS_data [31:0] $end
$var wire 32 : RD_data [31:0] $end
$var wire 4 ; AlU_control [3:0] $end
$var wire 1 < ALUSrc $end
$var wire 3 = ALUOp [2:0] $end
$scope module AC $end
$var wire 6 > funct_i [5:0] $end
$var wire 3 ? ALUOp_i [2:0] $end
$var reg 4 @ ALUCtrl_o [3:0] $end
$var reg 1 - jr_o $end
$upscope $end
$scope module ALU $end
$var wire 4 A ctrl_i [3:0] $end
$var wire 5 B shamt_i [4:0] $end
$var wire 5 C tmp_shamt [4:0] $end
$var wire 32 D tmp_src1 [31:0] $end
$var wire 32 E tmp_src2 [31:0] $end
$var wire 32 F src2_i [31:0] $end
$var wire 32 G src1_i [31:0] $end
$var reg 32 H result_o [31:0] $end
$var reg 1 # zero_o $end
$upscope $end
$scope module Adder1 $end
$var wire 32 I src2_i [31:0] $end
$var wire 32 J sum_o [31:0] $end
$var wire 32 K src1_i [31:0] $end
$upscope $end
$scope module Adder2 $end
$var wire 32 L src1_i [31:0] $end
$var wire 32 M sum_o [31:0] $end
$var wire 32 N src2_i [31:0] $end
$upscope $end
$scope module Decoder $end
$var wire 6 O instr_op_i [5:0] $end
$var reg 1 < ALUSrc_o $end
$var reg 3 P ALU_op_o [2:0] $end
$var reg 1 5 Branch_o $end
$var reg 1 7 RegDst_o $end
$var reg 1 6 RegWrite_o $end
$var reg 2 Q branch_type_o [1:0] $end
$var reg 1 , jump_o $end
$var reg 1 + mem_read_o $end
$var reg 1 * mem_to_reg $end
$var reg 1 ) mem_write_o $end
$var reg 1 $ regdst2_o $end
$upscope $end
$scope module IM $end
$var wire 32 R pc_addr_i [31:0] $end
$var reg 32 S instr_o [31:0] $end
$var integer 32 T i [31:0] $end
$upscope $end
$scope module Mux_ALUSrc $end
$var wire 1 < select_i $end
$var wire 32 U data1_i [31:0] $end
$var wire 32 V data0_i [31:0] $end
$var reg 32 W data_o [31:0] $end
$upscope $end
$scope module Mux_PC_Source $end
$var wire 32 X data0_i [31:0] $end
$var wire 32 Y data1_i [31:0] $end
$var wire 1 Z select_i $end
$var reg 32 [ data_o [31:0] $end
$upscope $end
$scope module Mux_Write_Reg $end
$var wire 5 \ data0_i [4:0] $end
$var wire 5 ] data1_i [4:0] $end
$var wire 1 7 select_i $end
$var reg 5 ^ data_o [4:0] $end
$upscope $end
$scope module PC $end
$var wire 1 ! clk_i $end
$var wire 32 _ pc_in_i [31:0] $end
$var wire 1 " rst_i $end
$var reg 32 ` pc_out_o [31:0] $end
$upscope $end
$scope module RF $end
$var wire 5 a RDaddr_i [4:0] $end
$var wire 32 b RDdata_i [31:0] $end
$var wire 5 c RSaddr_i [4:0] $end
$var wire 32 d RSdata_o [31:0] $end
$var wire 5 e RTaddr_i [4:0] $end
$var wire 32 f RTdata_o [31:0] $end
$var wire 1 6 RegWrite_i $end
$var wire 1 ! clk_i $end
$var wire 1 " rst_i $end
$upscope $end
$scope module SE $end
$var wire 4 g ctrl_i [3:0] $end
$var wire 16 h data_i [15:0] $end
$var reg 32 i data_o [31:0] $end
$upscope $end
$scope module Shifter $end
$var wire 32 j data_i [31:0] $end
$var wire 32 k data_o [31:0] $end
$upscope $end
$scope module branchtype $end
$var wire 1 l ALU_result_i $end
$var wire 2 m Branch_type_i [1:0] $end
$var wire 1 # Zero_i $end
$var reg 1 2 branch_type_result_o $end
$upscope $end
$upscope $end
$upscope $end
$enddefinitions $end
#0
$dumpvars
bx m
xl
bx00 k
bx j
bx i
bx h
bx g
bx f
bx e
bx d
bx c
bx b
bx a
bx `
bx _
bx ^
bx ]
bx \
bx [
xZ
bx Y
bx X
bx W
bx V
bx U
b100000 T
bx S
bx R
bx Q
bx P
bx O
bx00 N
bx M
bx L
bx K
bx J
b100 I
bx H
bx G
bx F
bx E
bx D
bx C
bx B
bx A
bx @
bx ?
bx >
bx =
x<
bx ;
bx :
bx 9
bx 8
x7
x6
x5
bx 4
bx 3
x2
bx00 1
bx 0
bx /
bx .
x-
x,
x+
x*
x)
bx (
bx '
bx &
bx %
x$
x#
0"
0!
$end
#5
1l
b11111111111111111111111111111111 :
b11111111111111111111111111111111 H
b11111111111111111111111111111111 b
b100 '
b100 [
b100 _
b11111111111111111111111111111111 E
b11111111111111111111111111111111 /
b11111111111111111111111111111111 F
b11111111111111111111111111111111 W
b10 ;
b10 @
b10 A
b10 g
12
b0 4
b0 M
b0 Y
b11111111111111111111111111111100 1
b11111111111111111111111111111100 N
b11111111111111111111111111111100 k
0Z
b11111111111111111111111111111111 0
b11111111111111111111111111111111 U
b11111111111111111111111111111111 i
b11111111111111111111111111111111 j
0-
b0 3
b0 Q
b0 m
0$
0,
0*
0+
0)
05
07
1<
b1 =
b1 ?
b1 P
16
0#
b1 (
b1 ^
b1 a
b11111 C
b11111 B
b1111111111111111 h
b111111 >
b1000 O
b1 8
b1 V
b1 f
b1 e
b0 D
b0 9
b0 G
b0 d
b0 c
b11111 ]
b1 \
b100000000000011111111111111111 .
b100000000000011111111111111111 S
b100 %
b100 J
b100 L
b100 X
b0 &
b0 K
b0 R
b0 `
1!
#10
b11111111111111111111111111111111 8
b11111111111111111111111111111111 V
b11111111111111111111111111111111 f
0!
1"
#15
b11111111111111111111111111111101 :
b11111111111111111111111111111101 H
b11111111111111111111111111111101 b
b11111111111111111111111111111101 E
b11111111111111111111111111111101 /
b11111111111111111111111111111101 F
b11111111111111111111111111111101 W
b11111111111111111111111111110100 1
b11111111111111111111111111110100 N
b11111111111111111111111111110100 k
b11111111111111111111111111111101 0
b11111111111111111111111111111101 U
b11111111111111111111111111111101 i
b11111111111111111111111111111101 j
b10 (
b10 ^
b10 a
b1000 '
b1000 [
b1000 _
b1111111111111101 h
b111101 >
b10 8
b10 V
b10 f
b10 e
b10 \
b100000000000101111111111111101 .
b100000000000101111111111111101 S
b11111111111111111111111111111100 4
b11111111111111111111111111111100 M
b11111111111111111111111111111100 Y
b1000 %
b1000 J
b1000 L
b1000 X
b100 &
b100 K
b100 R
b100 `
1!
#20
0!
#25
0l
b10 :
b10 H
b10 b
b10 E
b10 /
b10 F
b10 W
b1000 1
b1000 N
b1000 k
b10 0
b10 U
b10 i
b10 j
b11 (
b11 ^
b11 a
b1100 '
b1100 [
b1100 _
b0 C
b0 B
b10 h
b10 >
b11 e
b0 ]
b11 \
b100000000000110000000000000010 .
b100000000000110000000000000010 S
b10100 4
b10100 M
b10100 Y
b1100 %
b1100 J
b1100 L
b1100 X
b1000 &
b1000 K
b1000 R
b1000 `
b11 8
b11 V
b11 f
1!
#30
0!
#35
b100 :
b100 H
b100 b
b100 E
b100 /
b100 F
b100 W
b10000 1
b10000 N
b10000 k
b100 0
b100 U
b100 i
b100 j
b100 (
b100 ^
b100 a
b10000 '
b10000 [
b10000 _
b100 h
b100 >
b100 e
b100 \
b100000000001000000000000000100 .
b100000000001000000000000000100 S
b100000 4
b100000 M
b100000 Y
b10000 %
b10000 J
b10000 L
b10000 X
b1100 &
b1100 K
b1100 R
b1100 `
b100 8
b100 V
b100 f
1!
#40
0!
#45
b101 :
b101 H
b101 b
b101 E
b101 /
b101 F
b101 W
b10100 1
b10100 N
b10100 k
b101 0
b101 U
b101 i
b101 j
b101 (
b101 ^
b101 a
b10100 '
b10100 [
b10100 _
b101 h
b101 >
b101 8
b101 V
b101 f
b101 e
b101 \
b100000000001010000000000000101 .
b100000000001010000000000000101 S
b101000 4
b101000 M
b101000 Y
b10100 %
b10100 J
b10100 L
b10100 X
b10000 &
b10000 K
b10000 R
b10000 `
1!
#50
0!
#55
1l
b10 E
b10 /
b10 F
b10 W
12
b1010 ;
b1010 @
b1010 A
b1010 g
b1000 1
b1000 N
b1000 k
1Z
b10 0
b10 U
b10 i
b10 j
b10 3
b10 Q
b10 m
1$
15
b110 =
b110 ?
b110 P
06
b11111111111111111111111111111101 :
b11111111111111111111111111111101 H
b11111111111111111111111111111101 b
b0 (
b0 ^
b0 a
b100000 '
b100000 [
b100000 _
b10 h
b10 >
b110 O
b0 8
b0 V
b0 f
b0 e
b11111111111111111111111111111111 D
b11111111111111111111111111111111 9
b11111111111111111111111111111111 G
b11111111111111111111111111111111 d
b1 c
b0 \
b11000001000000000000000000010 .
b11000001000000000000000000010 S
b100000 4
b100000 M
b100000 Y
b11000 %
b11000 J
b11000 L
b11000 X
b10100 &
b10100 K
b10100 R
b10100 `
1!
#60
0!
#65
b1 E
b1 /
b1 F
b1 W
b10 ;
b10 @
b10 A
b10 g
b100 1
b100 N
b100 k
0Z
b1 0
b1 U
b1 i
b1 j
b0 3
b0 Q
b0 m
0$
05
b1 =
b1 ?
b1 P
16
b11111111111111111111111111111110 :
b11111111111111111111111111111110 H
b11111111111111111111111111111110 b
b10 (
b10 ^
b10 a
b100100 '
b100100 [
b100100 _
b1 h
b1 >
b1000 O
b11111111111111111111111111111101 8
b11111111111111111111111111111101 V
b11111111111111111111111111111101 f
b10 e
b11111111111111111111111111111101 D
b11111111111111111111111111111101 9
b11111111111111111111111111111101 G
b11111111111111111111111111111101 d
b10 c
b10 \
b100000010000100000000000000001 .
b100000010000100000000000000001 S
b101000 4
b101000 M
b101000 Y
b100100 %
b100100 J
b100100 L
b100100 X
b100000 &
b100000 K
b100000 R
b100000 `
1!
#70
0!
#75
b10 E
b10 /
b10 F
b10 W
b110000010000100 1
b110000010000100 N
b110000010000100 k
0l
b1100000100001 0
b1100000100001 U
b1100000100001 i
b1100000100001 j
17
0<
b0 =
b0 ?
b0 P
b11 (
b11 ^
b11 a
b101000 '
b101000 [
b101000 _
b100 :
b100 H
b100 b
b1100000100001 h
b100001 >
b0 O
b11 e
b11 c
b11 ]
b11 \
b11000110001100000100001 .
b11000110001100000100001 S
b110000010101100 4
b110000010101100 M
b110000010101100 Y
b101000 %
b101000 J
b101000 L
b101000 X
b100100 &
b100100 K
b100100 R
b100100 `
b10 D
b10 9
b10 G
b10 d
b10 8
b10 V
b10 f
1!
#80
0!
#85
0l
02
b1010 ;
b1010 @
b1010 A
b1010 g
0#
b11111111111111111111111111110100 1
b11111111111111111111111111110100 N
b11111111111111111111111111110100 k
0Z
b11111111111111111111111111111101 0
b11111111111111111111111111111101 U
b11111111111111111111111111111101 i
b11111111111111111111111111111101 j
b10 3
b10 Q
b10 m
1$
15
07
1<
b110 =
b110 ?
b110 P
06
b0 (
b0 ^
b0 a
b101100 '
b101100 [
b101100 _
b1 :
b1 H
b1 b
b11111111111111111111111111111101 E
b11111111111111111111111111111101 /
b11111111111111111111111111111101 F
b11111111111111111111111111111101 W
b11111 C
b11111 B
b1111111111111101 h
b111101 >
b110 O
b0 e
b10 c
b11111 ]
b0 \
b11000010000001111111111111101 .
b11000010000001111111111111101 S
b100000 4
b100000 M
b100000 Y
b101100 %
b101100 J
b101100 L
b101100 X
b101000 &
b101000 K
b101000 R
b101000 `
b11111111111111111111111111111110 D
b11111111111111111111111111111110 9
b11111111111111111111111111111110 G
b11111111111111111111111111111110 d
b0 8
b0 V
b0 f
1!
#90
0!
#95
b110 E
b110 /
b110 F
b110 W
12
b10 ;
b10 @
b10 A
b10 g
b11000 1
b11000 N
b11000 k
b110 0
b110 U
b110 i
b110 j
b0 3
b0 Q
b0 m
0$
05
b1 =
b1 ?
b1 P
16
b110 :
b110 H
b110 b
b110 (
b110 ^
b110 a
b110000 '
b110000 [
b110000 _
b0 C
b0 B
b110 h
b110 >
b1000 O
b110 8
b110 V
b110 f
b110 e
b0 D
b0 9
b0 G
b0 d
b0 c
b0 ]
b110 \
b100000000001100000000000000110 .
b100000000001100000000000000110 S
b1001000 4
b1001000 M
b1001000 Y
b110000 %
b110000 J
b110000 L
b110000 X
b101100 &
b101100 K
b101100 R
b101100 `
1!
#100
0!
#105
b111 :
b111 H
b111 b
b111 E
b111 /
b111 F
b111 W
b11100 1
b11100 N
b11100 k
b111 0
b111 U
b111 i
b111 j
b111 (
b111 ^
b111 a
b110100 '
b110100 [
b110100 _
b111 h
b111 >
b111 8
b111 V
b111 f
b111 e
b111 \
b100000000001110000000000000111 .
b100000000001110000000000000111 S
b1010000 4
b1010000 M
b1010000 Y
b110100 %
b110100 J
b110100 L
b110100 X
b110000 &
b110000 K
b110000 R
b110000 `
1!
#110
0!
#115
b1000 :
b1000 H
b1000 b
b1000 E
b1000 /
b1000 F
b1000 W
b100000 1
b100000 N
b100000 k
b1000 0
b1000 U
b1000 i
b1000 j
b1000 (
b1000 ^
b1000 a
b111000 '
b111000 [
b111000 _
b1000 h
b1000 >
b1000 8
b1000 V
b1000 f
b1000 e
b1000 \
b100000000010000000000000001000 .
b100000000010000000000000001000 S
b1011000 4
b1011000 M
b1011000 Y
b111000 %
b111000 J
b111000 L
b111000 X
b110100 &
b110100 K
b110100 R
b110100 `
1!
#120
0!
#125
02
1#
b0 :
b0 H
b0 b
b0 E
b0 /
b0 F
b0 W
b1101 ;
b1101 @
b1101 A
b1101 g
b0 1
b0 N
b0 k
b0 0
b0 U
b0 i
b0 j
17
0<
b0 =
b0 ?
b0 P
b0 (
b0 ^
b0 a
b111100 '
b111100 [
b111100 _
b0 h
b0 >
b0 O
b0 8
b0 V
b0 f
b0 e
b0 \
b0 .
b0 S
b111100 4
b111100 M
b111100 Y
b111100 %
b111100 J
b111100 L
b111100 X
b111000 &
b111000 K
b111000 R
b111000 `
1!
#130
0!
#135
b1000000 '
b1000000 [
b1000000 _
b1000000 4
b1000000 M
b1000000 Y
b1000000 %
b1000000 J
b1000000 L
b1000000 X
b111100 &
b111100 K
b111100 R
b111100 `
1!
#140
0!
#145
b1000100 '
b1000100 [
b1000100 _
b1000100 4
b1000100 M
b1000100 Y
b1000100 %
b1000100 J
b1000100 L
b1000100 X
b1000000 &
b1000000 K
b1000000 R
b1000000 `
1!
#150
0!
#155
b1001000 '
b1001000 [
b1001000 _
b1001000 4
b1001000 M
b1001000 Y
b1001000 %
b1001000 J
b1001000 L
b1001000 X
b1000100 &
b1000100 K
b1000100 R
b1000100 `
1!
#160
0!
#165
b1001100 '
b1001100 [
b1001100 _
b1001100 4
b1001100 M
b1001100 Y
b1001100 %
b1001100 J
b1001100 L
b1001100 X
b1001000 &
b1001000 K
b1001000 R
b1001000 `
1!
#170
0!
#175
b1010000 '
b1010000 [
b1010000 _
b1010000 4
b1010000 M
b1010000 Y
b1010000 %
b1010000 J
b1010000 L
b1010000 X
b1001100 &
b1001100 K
b1001100 R
b1001100 `
1!
#180
0!
#185
b1010100 '
b1010100 [
b1010100 _
b1010100 4
b1010100 M
b1010100 Y
b1010100 %
b1010100 J
b1010100 L
b1010100 X
b1010000 &
b1010000 K
b1010000 R
b1010000 `
1!
#190
0!
#195
b1011000 '
b1011000 [
b1011000 _
b1011000 4
b1011000 M
b1011000 Y
b1011000 %
b1011000 J
b1011000 L
b1011000 X
b1010100 &
b1010100 K
b1010100 R
b1010100 `
1!
#200
0!
#205
b1011100 '
b1011100 [
b1011100 _
b1011100 4
b1011100 M
b1011100 Y
b1011100 %
b1011100 J
b1011100 L
b1011100 X
b1011000 &
b1011000 K
b1011000 R
b1011000 `
1!
#210
0!
#215
b1100000 '
b1100000 [
b1100000 _
b1100000 4
b1100000 M
b1100000 Y
b1100000 %
b1100000 J
b1100000 L
b1100000 X
b1011100 &
b1011100 K
b1011100 R
b1011100 `
1!
#220
0!
#225
b1100100 '
b1100100 [
b1100100 _
b1100100 4
b1100100 M
b1100100 Y
b1100100 %
b1100100 J
b1100100 L
b1100100 X
b1100000 &
b1100000 K
b1100000 R
b1100000 `
1!
#230
0!
#235
b1101000 '
b1101000 [
b1101000 _
b1101000 4
b1101000 M
b1101000 Y
b1101000 %
b1101000 J
b1101000 L
b1101000 X
b1100100 &
b1100100 K
b1100100 R
b1100100 `
1!
#240
0!
#245
b1101100 '
b1101100 [
b1101100 _
b1101100 4
b1101100 M
b1101100 Y
b1101100 %
b1101100 J
b1101100 L
b1101100 X
b1101000 &
b1101000 K
b1101000 R
b1101000 `
1!
#250
0!
#255
b1110000 '
b1110000 [
b1110000 _
b1110000 4
b1110000 M
b1110000 Y
b1110000 %
b1110000 J
b1110000 L
b1110000 X
b1101100 &
b1101100 K
b1101100 R
b1101100 `
1!
#260
0!
#265
b1110100 '
b1110100 [
b1110100 _
b1110100 4
b1110100 M
b1110100 Y
b1110100 %
b1110100 J
b1110100 L
b1110100 X
b1110000 &
b1110000 K
b1110000 R
b1110000 `
1!
#270
0!
#275
b1111000 '
b1111000 [
b1111000 _
b1111000 4
b1111000 M
b1111000 Y
b1111000 %
b1111000 J
b1111000 L
b1111000 X
b1110100 &
b1110100 K
b1110100 R
b1110100 `
1!
#280
0!
#285
b1111100 '
b1111100 [
b1111100 _
b1111100 4
b1111100 M
b1111100 Y
b1111100 %
b1111100 J
b1111100 L
b1111100 X
b1111000 &
b1111000 K
b1111000 R
b1111000 `
1!
#290
0!
#295
b10000000 '
b10000000 [
b10000000 _
b10000000 4
b10000000 M
b10000000 Y
b10000000 %
b10000000 J
b10000000 L
b10000000 X
b1111100 &
b1111100 K
b1111100 R
b1111100 `
1!
#300
0!
#305
12
0#
bx00 1
bx00 N
bx00 k
xl
bx 0
bx U
bx i
bx j
bx E
bx /
bx F
bx W
bx :
bx H
bx b
bx (
bx ^
bx a
b10000100 '
b10000100 [
b10000100 _
bx C
bx B
bx h
bx >
bx O
bx 8
bx V
bx f
bx e
bx D
bx 9
bx G
bx d
bx c
bx ]
bx \
bx .
bx S
bx 4
bx M
bx Y
b10000100 %
b10000100 J
b10000100 L
b10000100 X
b10000000 &
b10000000 K
b10000000 R
b10000000 `
1!
#310
0!
#315
b10001000 '
b10001000 [
b10001000 _
b10001000 %
b10001000 J
b10001000 L
b10001000 X
b10000100 &
b10000100 K
b10000100 R
b10000100 `
1!
#320
0!
#325
b10001100 '
b10001100 [
b10001100 _
b10001100 %
b10001100 J
b10001100 L
b10001100 X
b10001000 &
b10001000 K
b10001000 R
b10001000 `
1!
#330
0!
#335
b10010000 '
b10010000 [
b10010000 _
b10010000 %
b10010000 J
b10010000 L
b10010000 X
b10001100 &
b10001100 K
b10001100 R
b10001100 `
1!
#340
0!
#345
b10010100 '
b10010100 [
b10010100 _
b10010100 %
b10010100 J
b10010100 L
b10010100 X
b10010000 &
b10010000 K
b10010000 R
b10010000 `
1!
#350
0!
#355
b10011000 '
b10011000 [
b10011000 _
b10011000 %
b10011000 J
b10011000 L
b10011000 X
b10010100 &
b10010100 K
b10010100 R
b10010100 `
1!
#360
0!
#365
b10011100 '
b10011100 [
b10011100 _
b10011100 %
b10011100 J
b10011100 L
b10011100 X
b10011000 &
b10011000 K
b10011000 R
b10011000 `
1!
#370
0!
#375
b10100000 '
b10100000 [
b10100000 _
b10100000 %
b10100000 J
b10100000 L
b10100000 X
b10011100 &
b10011100 K
b10011100 R
b10011100 `
1!
#380
0!
#385
b10100100 '
b10100100 [
b10100100 _
b10100100 %
b10100100 J
b10100100 L
b10100100 X
b10100000 &
b10100000 K
b10100000 R
b10100000 `
1!
#390
0!
#395
b10101000 '
b10101000 [
b10101000 _
b10101000 %
b10101000 J
b10101000 L
b10101000 X
b10100100 &
b10100100 K
b10100100 R
b10100100 `
1!
#400
0!
#405
b10101100 '
b10101100 [
b10101100 _
b10101100 %
b10101100 J
b10101100 L
b10101100 X
b10101000 &
b10101000 K
b10101000 R
b10101000 `
1!
#410
0!
#415
b10110000 '
b10110000 [
b10110000 _
b10110000 %
b10110000 J
b10110000 L
b10110000 X
b10101100 &
b10101100 K
b10101100 R
b10101100 `
1!
#420
0!
#425
b10110100 '
b10110100 [
b10110100 _
b10110100 %
b10110100 J
b10110100 L
b10110100 X
b10110000 &
b10110000 K
b10110000 R
b10110000 `
1!
#430
0!
#435
b10111000 '
b10111000 [
b10111000 _
b10111000 %
b10111000 J
b10111000 L
b10111000 X
b10110100 &
b10110100 K
b10110100 R
b10110100 `
1!
#440
0!
#445
b10111100 '
b10111100 [
b10111100 _
b10111100 %
b10111100 J
b10111100 L
b10111100 X
b10111000 &
b10111000 K
b10111000 R
b10111000 `
1!
#450
0!
#455
b11000000 '
b11000000 [
b11000000 _
b11000000 %
b11000000 J
b11000000 L
b11000000 X
b10111100 &
b10111100 K
b10111100 R
b10111100 `
1!
#460
0!
#465
b11000100 '
b11000100 [
b11000100 _
b11000100 %
b11000100 J
b11000100 L
b11000100 X
b11000000 &
b11000000 K
b11000000 R
b11000000 `
1!
#470
0!
#475
b11001000 '
b11001000 [
b11001000 _
b11001000 %
b11001000 J
b11001000 L
b11001000 X
b11000100 &
b11000100 K
b11000100 R
b11000100 `
1!
#480
0!
#485
b11001100 '
b11001100 [
b11001100 _
b11001100 %
b11001100 J
b11001100 L
b11001100 X
b11001000 &
b11001000 K
b11001000 R
b11001000 `
1!
#490
0!
#495
b11010000 '
b11010000 [
b11010000 _
b11010000 %
b11010000 J
b11010000 L
b11010000 X
b11001100 &
b11001100 K
b11001100 R
b11001100 `
1!
#500
0!
#505
b11010100 '
b11010100 [
b11010100 _
b11010100 %
b11010100 J
b11010100 L
b11010100 X
b11010000 &
b11010000 K
b11010000 R
b11010000 `
1!
#510
0!
#515
b11011000 '
b11011000 [
b11011000 _
b11011000 %
b11011000 J
b11011000 L
b11011000 X
b11010100 &
b11010100 K
b11010100 R
b11010100 `
1!
#520
0!
#525
b11011100 '
b11011100 [
b11011100 _
b11011100 %
b11011100 J
b11011100 L
b11011100 X
b11011000 &
b11011000 K
b11011000 R
b11011000 `
1!
#530
0!
#535
b11100000 '
b11100000 [
b11100000 _
b11100000 %
b11100000 J
b11100000 L
b11100000 X
b11011100 &
b11011100 K
b11011100 R
b11011100 `
1!
#540
0!
#545
b11100100 '
b11100100 [
b11100100 _
b11100100 %
b11100100 J
b11100100 L
b11100100 X
b11100000 &
b11100000 K
b11100000 R
b11100000 `
1!
#550
0!
#555
b11101000 '
b11101000 [
b11101000 _
b11101000 %
b11101000 J
b11101000 L
b11101000 X
b11100100 &
b11100100 K
b11100100 R
b11100100 `
1!
#560
0!
#565
b11101100 '
b11101100 [
b11101100 _
b11101100 %
b11101100 J
b11101100 L
b11101100 X
b11101000 &
b11101000 K
b11101000 R
b11101000 `
1!
#570
0!
#575
b11110000 '
b11110000 [
b11110000 _
b11110000 %
b11110000 J
b11110000 L
b11110000 X
b11101100 &
b11101100 K
b11101100 R
b11101100 `
1!
#580
0!
#585
b11110100 '
b11110100 [
b11110100 _
b11110100 %
b11110100 J
b11110100 L
b11110100 X
b11110000 &
b11110000 K
b11110000 R
b11110000 `
1!
#590
0!
#595
b11111000 '
b11111000 [
b11111000 _
b11111000 %
b11111000 J
b11111000 L
b11111000 X
b11110100 &
b11110100 K
b11110100 R
b11110100 `
1!
#600
0!
#605
b11111100 '
b11111100 [
b11111100 _
b11111100 %
b11111100 J
b11111100 L
b11111100 X
b11111000 &
b11111000 K
b11111000 R
b11111000 `
1!
#610
0!
#615
b100000000 '
b100000000 [
b100000000 _
b100000000 %
b100000000 J
b100000000 L
b100000000 X
b11111100 &
b11111100 K
b11111100 R
b11111100 `
1!
#620
0!
#625
b100000100 '
b100000100 [
b100000100 _
b100000100 %
b100000100 J
b100000100 L
b100000100 X
b100000000 &
b100000000 K
b100000000 R
b100000000 `
1!
#630
0!
#635
b100001000 '
b100001000 [
b100001000 _
b100001000 %
b100001000 J
b100001000 L
b100001000 X
b100000100 &
b100000100 K
b100000100 R
b100000100 `
1!
#640
0!
#645
b100001100 '
b100001100 [
b100001100 _
b100001100 %
b100001100 J
b100001100 L
b100001100 X
b100001000 &
b100001000 K
b100001000 R
b100001000 `
1!
#650
0!
#655
b100010000 '
b100010000 [
b100010000 _
b100010000 %
b100010000 J
b100010000 L
b100010000 X
b100001100 &
b100001100 K
b100001100 R
b100001100 `
1!
#660
0!
#665
b100010100 '
b100010100 [
b100010100 _
b100010100 %
b100010100 J
b100010100 L
b100010100 X
b100010000 &
b100010000 K
b100010000 R
b100010000 `
1!
#670
0!
#675
b100011000 '
b100011000 [
b100011000 _
b100011000 %
b100011000 J
b100011000 L
b100011000 X
b100010100 &
b100010100 K
b100010100 R
b100010100 `
1!
#680
0!
#685
b100011100 '
b100011100 [
b100011100 _
b100011100 %
b100011100 J
b100011100 L
b100011100 X
b100011000 &
b100011000 K
b100011000 R
b100011000 `
1!
#690
0!
#695
b100100000 '
b100100000 [
b100100000 _
b100100000 %
b100100000 J
b100100000 L
b100100000 X
b100011100 &
b100011100 K
b100011100 R
b100011100 `
1!
#700
0!
#705
b100100100 '
b100100100 [
b100100100 _
b100100100 %
b100100100 J
b100100100 L
b100100100 X
b100100000 &
b100100000 K
b100100000 R
b100100000 `
1!
#710
0!
#715
b100101000 '
b100101000 [
b100101000 _
b100101000 %
b100101000 J
b100101000 L
b100101000 X
b100100100 &
b100100100 K
b100100100 R
b100100100 `
1!
#720
0!
#725
b100101100 '
b100101100 [
b100101100 _
b100101100 %
b100101100 J
b100101100 L
b100101100 X
b100101000 &
b100101000 K
b100101000 R
b100101000 `
1!
#730
0!
#735
b100110000 '
b100110000 [
b100110000 _
b100110000 %
b100110000 J
b100110000 L
b100110000 X
b100101100 &
b100101100 K
b100101100 R
b100101100 `
1!
#740
0!
#745
b100110100 '
b100110100 [
b100110100 _
b100110100 %
b100110100 J
b100110100 L
b100110100 X
b100110000 &
b100110000 K
b100110000 R
b100110000 `
1!
#750
0!
#755
b100111000 '
b100111000 [
b100111000 _
b100111000 %
b100111000 J
b100111000 L
b100111000 X
b100110100 &
b100110100 K
b100110100 R
b100110100 `
1!
#760
0!
#765
b100111100 '
b100111100 [
b100111100 _
b100111100 %
b100111100 J
b100111100 L
b100111100 X
b100111000 &
b100111000 K
b100111000 R
b100111000 `
1!
#770
0!
#775
b101000000 '
b101000000 [
b101000000 _
b101000000 %
b101000000 J
b101000000 L
b101000000 X
b100111100 &
b100111100 K
b100111100 R
b100111100 `
1!
#780
0!
#785
b101000100 '
b101000100 [
b101000100 _
b101000100 %
b101000100 J
b101000100 L
b101000100 X
b101000000 &
b101000000 K
b101000000 R
b101000000 `
1!
#790
0!
#795
b101001000 '
b101001000 [
b101001000 _
b101001000 %
b101001000 J
b101001000 L
b101001000 X
b101000100 &
b101000100 K
b101000100 R
b101000100 `
1!
#800
0!
#805
b101001100 '
b101001100 [
b101001100 _
b101001100 %
b101001100 J
b101001100 L
b101001100 X
b101001000 &
b101001000 K
b101001000 R
b101001000 `
1!
#810
0!
#815
b101010000 '
b101010000 [
b101010000 _
b101010000 %
b101010000 J
b101010000 L
b101010000 X
b101001100 &
b101001100 K
b101001100 R
b101001100 `
1!
#820
0!
#825
b101010100 '
b101010100 [
b101010100 _
b101010100 %
b101010100 J
b101010100 L
b101010100 X
b101010000 &
b101010000 K
b101010000 R
b101010000 `
1!
#830
0!
#835
b101011000 '
b101011000 [
b101011000 _
b101011000 %
b101011000 J
b101011000 L
b101011000 X
b101010100 &
b101010100 K
b101010100 R
b101010100 `
1!
#840
0!
#845
b101011100 '
b101011100 [
b101011100 _
b101011100 %
b101011100 J
b101011100 L
b101011100 X
b101011000 &
b101011000 K
b101011000 R
b101011000 `
1!
#850
0!
#855
b101100000 '
b101100000 [
b101100000 _
b101100000 %
b101100000 J
b101100000 L
b101100000 X
b101011100 &
b101011100 K
b101011100 R
b101011100 `
1!
#860
0!
#865
b101100100 '
b101100100 [
b101100100 _
b101100100 %
b101100100 J
b101100100 L
b101100100 X
b101100000 &
b101100000 K
b101100000 R
b101100000 `
1!
#870
0!
#875
b101101000 '
b101101000 [
b101101000 _
b101101000 %
b101101000 J
b101101000 L
b101101000 X
b101100100 &
b101100100 K
b101100100 R
b101100100 `
1!
#880
0!
#885
b101101100 '
b101101100 [
b101101100 _
b101101100 %
b101101100 J
b101101100 L
b101101100 X
b101101000 &
b101101000 K
b101101000 R
b101101000 `
1!
#890
0!
#895
b101110000 '
b101110000 [
b101110000 _
b101110000 %
b101110000 J
b101110000 L
b101110000 X
b101101100 &
b101101100 K
b101101100 R
b101101100 `
1!
#900
0!
#905
b101110100 '
b101110100 [
b101110100 _
b101110100 %
b101110100 J
b101110100 L
b101110100 X
b101110000 &
b101110000 K
b101110000 R
b101110000 `
1!
#910
0!
#915
b101111000 '
b101111000 [
b101111000 _
b101111000 %
b101111000 J
b101111000 L
b101111000 X
b101110100 &
b101110100 K
b101110100 R
b101110100 `
1!
#920
0!
#925
b101111100 '
b101111100 [
b101111100 _
b101111100 %
b101111100 J
b101111100 L
b101111100 X
b101111000 &
b101111000 K
b101111000 R
b101111000 `
1!
#930
0!
