sample_code/lab3_cpu.vcd
$date
	Tue May 26 13:51:27 2020
$end
$version
	Icarus Verilog
$end
$timescale
	1s
$end
$scope module TestBench $end
$scope module cpu $end
$var wire 1 ! clk_i $end
$var wire 1 " rst_i $end
$var wire 1 # zero_alu $end
$var wire 32 $ write_data2 [31:0] $end
$var wire 5 % tmp_number_WriteReg_fromMux [4:0] $end
$var wire 32 & tmp_jump_address [31:0] $end
$var wire 32 ' tmp [31:0] $end
$var wire 32 ( result_mux_mem_alu [31:0] $end
$var wire 32 ) result_mem [31:0] $end
$var wire 32 * pc_plus_4 [31:0] $end
$var wire 32 + pc_out [31:0] $end
$var wire 32 , pc_in [31:0] $end
$var wire 5 - number_WriteReg_fromMux [4:0] $end
$var wire 1 . mem_write $end
$var wire 1 / mem_reg $end
$var wire 1 0 mem_read $end
$var wire 32 1 jump_address_2 [31:0] $end
$var wire 32 2 jump_address [31:0] $end
$var wire 1 3 jump $end
$var wire 1 4 jr $end
$var wire 1 5 jal $end
$var wire 32 6 instruction [31:0] $end
$var wire 32 7 data_into_ALU_after_mux [31:0] $end
$var wire 32 8 data_after_se [31:0] $end
$var wire 32 9 data_after_left2 [31:0] $end
$var wire 1 : branch_type_or_not $end
$var wire 2 ; branch_type [1:0] $end
$var wire 32 < branch_target_addr [31:0] $end
$var wire 32 = branch_address [31:0] $end
$var wire 1 > branch $end
$var wire 1 ? RegWrite $end
$var wire 1 @ RegDst $end
$var wire 32 A RT_data [31:0] $end
$var wire 32 B RS_data [31:0] $end
$var wire 32 C RD_data [31:0] $end
$var wire 4 D AlU_control [3:0] $end
$var wire 1 E ALUSrc $end
$var wire 3 F ALUOp [2:0] $end
$scope module AC $end
$var wire 6 G funct_i [5:0] $end
$var wire 3 H ALUOp_i [2:0] $end
$var reg 4 I ALUCtrl_o [3:0] $end
$var reg 1 4 jr_o $end
$upscope $end
$scope module ALU $end
$var wire 4 J ctrl_i [3:0] $end
$var wire 5 K shamt_i [4:0] $end
$var wire 5 L tmp_shamt [4:0] $end
$var wire 32 M tmp_src1 [31:0] $end
$var wire 32 N tmp_src2 [31:0] $end
$var wire 32 O src2_i [31:0] $end
$var wire 32 P src1_i [31:0] $end
$var reg 32 Q result_o [31:0] $end
$var reg 1 # zero_o $end
$upscope $end
$scope module Adder1 $end
$var wire 32 R src2_i [31:0] $end
$var wire 32 S sum_o [31:0] $end
$var wire 32 T src1_i [31:0] $end
$upscope $end
$scope module Adder2 $end
$var wire 32 U src1_i [31:0] $end
$var wire 32 V sum_o [31:0] $end
$var wire 32 W src2_i [31:0] $end
$upscope $end
$scope module Data_Memory $end
$var wire 32 X addr_i [31:0] $end
$var wire 1 ! clk_i $end
$var wire 32 Y data_i [31:0] $end
$var wire 1 . MemWrite_i $end
$var wire 1 0 MemRead_i $end
$var reg 32 Z data_o [31:0] $end
$var integer 32 [ i [31:0] $end
$upscope $end
$scope module Decoder $end
$var wire 6 \ instr_op_i [5:0] $end
$var reg 1 E ALUSrc_o $end
$var reg 3 ] ALU_op_o [2:0] $end
$var reg 1 > Branch_o $end
$var reg 1 @ RegDst_o $end
$var reg 1 ? RegWrite_o $end
$var reg 2 ^ branch_type_o [1:0] $end
$var reg 1 5 jal_o $end
$var reg 1 3 jump_o $end
$var reg 1 0 mem_read_o $end
$var reg 1 / mem_to_reg $end
$var reg 1 . mem_write_o $end
$upscope $end
$scope module IM $end
$var wire 32 _ pc_addr_i [31:0] $end
$var reg 32 ` instr_o [31:0] $end
$var integer 32 a i [31:0] $end
$upscope $end
$scope module Jrr $end
$var wire 1 4 select_i $end
$var wire 32 b data1_i [31:0] $end
$var wire 32 c data0_i [31:0] $end
$var reg 32 d data_o [31:0] $end
$upscope $end
$scope module Jump_address $end
$var wire 32 e data_i [31:0] $end
$var wire 32 f data_o [31:0] $end
$upscope $end
$scope module Mux_ALUSrc $end
$var wire 1 E select_i $end
$var wire 32 g data1_i [31:0] $end
$var wire 32 h data0_i [31:0] $end
$var reg 32 i data_o [31:0] $end
$upscope $end
$scope module Mux_PC_Source $end
$var wire 32 j data0_i [31:0] $end
$var wire 32 k data1_i [31:0] $end
$var wire 1 l select_i $end
$var reg 32 m data_o [31:0] $end
$upscope $end
$scope module Mux_Write_Reg $end
$var wire 5 n data0_i [4:0] $end
$var wire 5 o data1_i [4:0] $end
$var wire 1 @ select_i $end
$var reg 5 p data_o [4:0] $end
$upscope $end
$scope module Mux_Write_Reg_or_jal $end
$var wire 5 q data0_i [4:0] $end
$var wire 5 r data1_i [4:0] $end
$var wire 1 5 select_i $end
$var reg 5 s data_o [4:0] $end
$upscope $end
$scope module Mux_jump $end
$var wire 32 t data0_i [31:0] $end
$var wire 32 u data1_i [31:0] $end
$var wire 1 3 select_i $end
$var reg 32 v data_o [31:0] $end
$upscope $end
$scope module Mux_mem_or_alu $end
$var wire 32 w data0_i [31:0] $end
$var wire 32 x data1_i [31:0] $end
$var wire 1 / select_i $end
$var reg 32 y data_o [31:0] $end
$upscope $end
$scope module PC $end
$var wire 1 ! clk_i $end
$var wire 32 z pc_in_i [31:0] $end
$var wire 1 " rst_i $end
$var reg 32 { pc_out_o [31:0] $end
$upscope $end
$scope module RF $end
$var wire 5 | RDaddr_i [4:0] $end
$var wire 5 } RSaddr_i [4:0] $end
$var wire 32 ~ RSdata_o [31:0] $end
$var wire 5 !" RTaddr_i [4:0] $end
$var wire 32 "" RTdata_o [31:0] $end
$var wire 1 ? RegWrite_i $end
$var wire 1 ! clk_i $end
$var wire 1 " rst_i $end
$var wire 32 #" RDdata_i [31:0] $end
$upscope $end
$scope module SE $end
$var wire 4 $" ctrl_i [3:0] $end
$var wire 16 %" data_i [15:0] $end
$var reg 32 &" data_o [31:0] $end
$upscope $end
$scope module Shifter $end
$var wire 32 '" data_i [31:0] $end
$var wire 32 (" data_o [31:0] $end
$upscope $end
$scope module branchtype $end
$var wire 1 )" ALU_result_i $end
$var wire 2 *" Branch_type_i [1:0] $end
$var wire 1 # Zero_i $end
$var reg 1 : branch_type_result_o $end
$upscope $end
$scope module write_data $end
$var wire 32 +" data0_i [31:0] $end
$var wire 32 ," data1_i [31:0] $end
$var wire 1 5 select_i $end
$var reg 32 -" data_o [31:0] $end
$upscope $end
$upscope $end
$upscope $end
$enddefinitions $end
#0
$dumpvars
bx -"
bx ,"
bx +"
bx *"
x)"
bx00 ("
bx '"
bx &"
bx %"
bx $"
bx #"
bx ""
bx !"
bx ~
bx }
bx |
bx {
bx z
bx y
bx x
bx w
bx v
bx00 u
bx t
bx s
b11111 r
bx q
bx p
bx o
bx n
bx m
xl
bx k
bx j
bx i
bx h
bx g
b0xxxxxxxxxxxxxxxxxxxxxxxxxx00 f
b0xxxxxxxxxxxxxxxxxxxxxxxxxx e
bx d
bx c
bx b
b100000 a
bx `
bx _
bx ^
bx ]
bx \
b10000000 [
bx Z
bx Y
bx X
bx00 W
bx V
bx U
bx T
bx S
b100 R
bx Q
bx P
bx O
bx N
bx M
bx L
bx K
bx J
bx I
bx H
bx G
bx F
xE
bx D
bx C
bx B
bx A
x@
x?
x>
bx =
bx <
bx ;
x:
bx00 9
bx 8
bx 7
bx 6
x5
x4
x3
bx00 2
bx 1
x0
x/
x.
bx -
bx ,
bx +
bx *
bx )
bx (
b0xxxxxxxxxxxxxxxxxxxxxxxxxx '
b0xxxxxxxxxxxxxxxxxxxxxxxxxx00 &
bx %
bx $
x#
0"
0!
$end
#5
b11111111111111111001010010001001 $
b11111111111111111001010010001001 #"
b11111111111111111001010010001001 -"
b100 ,
b100 d
b100 z
b11111111111111111001010010001001 (
b11111111111111111001010010001001 y
b11111111111111111001010010001001 +"
1)"
b100 1
b100 c
b100 v
b11111111111111111001010010001001 C
b11111111111111111001010010001001 Q
b11111111111111111001010010001001 X
b11111111111111111001010010001001 w
b100 =
b100 m
b100 t
b11111111111111111001010010000111 N
b11111111111111111001010010000111 7
b11111111111111111001010010000111 O
b11111111111111111001010010000111 i
b10 D
b10 I
b10 J
b10 $"
0:
b0 -
b0 s
b0 |
b11111111111111100101001000100000 <
b11111111111111100101001000100000 V
b11111111111111100101001000100000 k
b11111111111111100101001000011100 9
b11111111111111100101001000011100 W
b11111111111111100101001000011100 ("
0l
b11111111111111111001010010000111 8
b11111111111111111001010010000111 g
b11111111111111111001010010000111 &"
b11111111111111111001010010000111 '"
04
05
b0 ;
b0 ^
b0 *"
03
0/
00
0.
0>
0@
1E
b1 F
b1 H
b1 ]
1?
0#
b0 %
b0 p
b0 q
b1000000100101001000011100 &
b1000000100101001000011100 f
b10000001001010010000111 '
b10000001001010010000111 e
b10010 L
b10010 K
b1001010010000111 %"
b111 G
b1000 \
b0 A
b0 Y
b0 h
b0 ""
b0 !"
b10 M
b10 B
b10 P
b10 b
b10 ~
b10 }
b10010 o
b0 n
b1000000100101001000011100 2
b1000000100101001000011100 u
b100000010000001001010010000111 6
b100000010000001001010010000111 `
b100 *
b100 S
b100 U
b100 j
b100 ,"
b0 +
b0 T
b0 _
b0 {
1!
#10
b11111111111111111001010010001001 A
b11111111111111111001010010001001 Y
b11111111111111111001010010001001 h
b11111111111111111001010010001001 ""
0!
1"
#15
b11111111111111111010110110101011 $
b11111111111111111010110110101011 #"
b11111111111111111010110110101011 -"
b1000 ,
b1000 d
b1000 z
b1100100100010 N
b1100100100010 7
b1100100100010 O
b1100100100010 i
b11111111111111111010110110101011 (
b11111111111111111010110110101011 y
b11111111111111111010110110101011 +"
b10 -
b10 s
b10 |
b1000 1
b1000 c
b1000 v
b110010010001000 9
b110010010001000 W
b110010010001000 ("
b1100100100010 8
b1100100100010 g
b1100100100010 &"
b1100100100010 '"
b11111111111111111010110110101011 C
b11111111111111111010110110101011 Q
b11111111111111111010110110101011 X
b11111111111111111010110110101011 w
b10 %
b10 p
b10 q
b1000 =
b1000 m
b1000 t
b10000110010010001000 2
b10000110010010001000 u
b10000110010010001000 &
b10000110010010001000 f
b100001100100100010 '
b100001100100100010 e
b100 L
b100 K
b1100100100010 %"
b100010 G
b10 A
b10 Y
b10 h
b10 ""
b10 !"
b11111111111111111001010010001001 M
b11111111111111111001010010001001 B
b11111111111111111001010010001001 P
b11111111111111111001010010001001 b
b11111111111111111001010010001001 ~
b0 }
b11 o
b10 n
b100000000000100001100100100010 6
b100000000000100001100100100010 `
b110010010010000 <
b110010010010000 V
b110010010010000 k
b1000 *
b1000 S
b1000 U
b1000 j
b1000 ,"
b100 +
b100 T
b100 _
b100 {
1!
#20
0!
#25
b11111111111111111010011010111101 $
b11111111111111111010011010111101 #"
b11111111111111111010011010111101 -"
b11111111111111111010011010111101 (
b11111111111111111010011010111101 y
b11111111111111111010011010111101 +"
b11111111111111111010011010111101 C
b11111111111111111010011010111101 Q
b11111111111111111010011010111101 X
b11111111111111111010011010111101 w
b1100 ,
b1100 d
b1100 z
b1001000110100 N
b1001000110100 7
b1001000110100 O
b1001000110100 i
b110 -
b110 s
b110 |
b1100 1
b1100 c
b1100 v
b100100011010000 9
b100100011010000 W
b100100011010000 ("
b1001000110100 8
b1001000110100 g
b1001000110100 &"
b1001000110100 '"
b110 %
b110 p
b110 q
b1100 =
b1100 m
b1100 t
b110000100100011010000 2
b110000100100011010000 u
b110000100100011010000 &
b110000100100011010000 f
b1100001001000110100 '
b1100001001000110100 e
b1000 L
b1000 K
b1001000110100 %"
b110100 G
b110 !"
b10 o
b110 n
b100000000001100001001000110100 6
b100000000001100001001000110100 `
b100100011011100 <
b100100011011100 V
b100100011011100 k
b1100 *
b1100 S
b1100 U
b1100 j
b1100 ,"
b1000 +
b1000 T
b1000 _
b1000 {
b110 A
b110 Y
b110 h
b110 ""
1!
#30
0!
#35
b11111111111111111001010010001001 $
b11111111111111111001010010001001 #"
b11111111111111111001010010001001 -"
b11111111111111111001010010001001 (
b11111111111111111001010010001001 y
b11111111111111111001010010001001 +"
b11111111111111111001010010001001 C
b11111111111111111001010010001001 Q
b11111111111111111001010010001001 X
b11111111111111111001010010001001 w
b10000 ,
b10000 d
b10000 z
b11111111111111111001010010001001 N
b11111111111111111001010010001001 7
b11111111111111111001010010001001 O
b11111111111111111001010010001001 i
b1101 D
b1101 I
b1101 J
b1101 $"
b0 -
b0 s
b0 |
b10000 1
b10000 c
b10000 v
b0 9
b0 W
b0 ("
b0 8
b0 g
b0 &"
b0 '"
1@
0E
b0 F
b0 H
b0 ]
b0 %
b0 p
b0 q
b10000 =
b10000 m
b10000 t
b0 2
b0 u
b0 &
b0 f
b0 '
b0 e
b0 L
b0 K
b0 %"
b0 G
b0 \
b0 !"
b0 o
b0 n
b0 6
b0 `
b10000 <
b10000 V
b10000 k
b10000 *
b10000 S
b10000 U
b10000 j
b10000 ,"
b1100 +
b1100 T
b1100 _
b1100 {
b11111111111111111001010010001001 A
b11111111111111111001010010001001 Y
b11111111111111111001010010001001 h
b11111111111111111001010010001001 ""
1!
#40
0!
#45
b10100 ,
b10100 d
b10100 z
b10100 1
b10100 c
b10100 v
b10100 =
b10100 m
b10100 t
b10100 <
b10100 V
b10100 k
b10100 *
b10100 S
b10100 U
b10100 j
b10100 ,"
b10000 +
b10000 T
b10000 _
b10000 {
1!
#50
0!
#55
b11000 ,
b11000 d
b11000 z
b11000 1
b11000 c
b11000 v
b11000 =
b11000 m
b11000 t
b11000 <
b11000 V
b11000 k
b11000 *
b11000 S
b11000 U
b11000 j
b11000 ,"
b10100 +
b10100 T
b10100 _
b10100 {
1!
#60
0!
#65
b11100 ,
b11100 d
b11100 z
b11100 1
b11100 c
b11100 v
b11100 =
b11100 m
b11100 t
b11100 <
b11100 V
b11100 k
b11100 *
b11100 S
b11100 U
b11100 j
b11100 ,"
b11000 +
b11000 T
b11000 _
b11000 {
1!
#70
0!
#75
b100000 ,
b100000 d
b100000 z
b100000 1
b100000 c
b100000 v
b100000 =
b100000 m
b100000 t
b100000 <
b100000 V
b100000 k
b100000 *
b100000 S
b100000 U
b100000 j
b100000 ,"
b11100 +
b11100 T
b11100 _
b11100 {
1!
#80
0!
#85
b100100 ,
b100100 d
b100100 z
b100100 1
b100100 c
b100100 v
b100100 =
b100100 m
b100100 t
b100100 <
b100100 V
b100100 k
b100100 *
b100100 S
b100100 U
b100100 j
b100100 ,"
b100000 +
b100000 T
b100000 _
b100000 {
1!
#90
0!
#95
b101000 ,
b101000 d
b101000 z
b101000 1
b101000 c
b101000 v
b101000 =
b101000 m
b101000 t
b101000 <
b101000 V
b101000 k
b101000 *
b101000 S
b101000 U
b101000 j
b101000 ,"
b100100 +
b100100 T
b100100 _
b100100 {
1!
#100
0!
#105
b101100 ,
b101100 d
b101100 z
b101100 1
b101100 c
b101100 v
b101100 =
b101100 m
b101100 t
b101100 <
b101100 V
b101100 k
b101100 *
b101100 S
b101100 U
b101100 j
b101100 ,"
b101000 +
b101000 T
b101000 _
b101000 {
1!
#110
0!
#115
b110000 ,
b110000 d
b110000 z
b110000 1
b110000 c
b110000 v
b110000 =
b110000 m
b110000 t
b110000 <
b110000 V
b110000 k
b110000 *
b110000 S
b110000 U
b110000 j
b110000 ,"
b101100 +
b101100 T
b101100 _
b101100 {
1!
#120
0!
#125
b110100 ,
b110100 d
b110100 z
b110100 1
b110100 c
b110100 v
b110100 =
b110100 m
b110100 t
b110100 <
b110100 V
b110100 k
b110100 *
b110100 S
b110100 U
b110100 j
b110100 ,"
b110000 +
b110000 T
b110000 _
b110000 {
1!
#130
0!
#135
b111000 ,
b111000 d
b111000 z
b111000 1
b111000 c
b111000 v
b111000 =
b111000 m
b111000 t
b111000 <
b111000 V
b111000 k
b111000 *
b111000 S
b111000 U
b111000 j
b111000 ,"
b110100 +
b110100 T
b110100 _
b110100 {
1!
#140
0!
#145
b111100 ,
b111100 d
b111100 z
b111100 1
b111100 c
b111100 v
b111100 =
b111100 m
b111100 t
b111100 <
b111100 V
b111100 k
b111100 *
b111100 S
b111100 U
b111100 j
b111100 ,"
b111000 +
b111000 T
b111000 _
b111000 {
1!
#150
0!
#155
b1000000 ,
b1000000 d
b1000000 z
b1000000 1
b1000000 c
b1000000 v
b1000000 =
b1000000 m
b1000000 t
b1000000 <
b1000000 V
b1000000 k
b1000000 *
b1000000 S
b1000000 U
b1000000 j
b1000000 ,"
b111100 +
b111100 T
b111100 _
b111100 {
1!
#160
0!
#165
b1000100 ,
b1000100 d
b1000100 z
b1000100 1
b1000100 c
b1000100 v
b1000100 =
b1000100 m
b1000100 t
b1000100 <
b1000100 V
b1000100 k
b1000100 *
b1000100 S
b1000100 U
b1000100 j
b1000100 ,"
b1000000 +
b1000000 T
b1000000 _
b1000000 {
1!
#170
0!
#175
b1001000 ,
b1001000 d
b1001000 z
b1001000 1
b1001000 c
b1001000 v
b1001000 =
b1001000 m
b1001000 t
b1001000 <
b1001000 V
b1001000 k
b1001000 *
b1001000 S
b1001000 U
b1001000 j
b1001000 ,"
b1000100 +
b1000100 T
b1000100 _
b1000100 {
1!
#180
0!
#185
b1001100 ,
b1001100 d
b1001100 z
b1001100 1
b1001100 c
b1001100 v
b1001100 =
b1001100 m
b1001100 t
b1001100 <
b1001100 V
b1001100 k
b1001100 *
b1001100 S
b1001100 U
b1001100 j
b1001100 ,"
b1001000 +
b1001000 T
b1001000 _
b1001000 {
1!
#190
0!
#195
b1010000 ,
b1010000 d
b1010000 z
b1010000 1
b1010000 c
b1010000 v
b1010000 =
b1010000 m
b1010000 t
b1010000 <
b1010000 V
b1010000 k
b1010000 *
b1010000 S
b1010000 U
b1010000 j
b1010000 ,"
b1001100 +
b1001100 T
b1001100 _
b1001100 {
1!
#200
0!
#205
b1010100 ,
b1010100 d
b1010100 z
b1010100 1
b1010100 c
b1010100 v
b1010100 =
b1010100 m
b1010100 t
b1010100 <
b1010100 V
b1010100 k
b1010100 *
b1010100 S
b1010100 U
b1010100 j
b1010100 ,"
b1010000 +
b1010000 T
b1010000 _
b1010000 {
1!
#210
0!
#215
b1011000 ,
b1011000 d
b1011000 z
b1011000 1
b1011000 c
b1011000 v
b1011000 =
b1011000 m
b1011000 t
b1011000 <
b1011000 V
b1011000 k
b1011000 *
b1011000 S
b1011000 U
b1011000 j
b1011000 ,"
b1010100 +
b1010100 T
b1010100 _
b1010100 {
1!
#220
0!
#225
b1011100 ,
b1011100 d
b1011100 z
b1011100 1
b1011100 c
b1011100 v
b1011100 =
b1011100 m
b1011100 t
b1011100 <
b1011100 V
b1011100 k
b1011100 *
b1011100 S
b1011100 U
b1011100 j
b1011100 ,"
b1011000 +
b1011000 T
b1011000 _
b1011000 {
1!
#230
0!
#235
b1100000 ,
b1100000 d
b1100000 z
b1100000 1
b1100000 c
b1100000 v
b1100000 =
b1100000 m
b1100000 t
b1100000 <
b1100000 V
b1100000 k
b1100000 *
b1100000 S
b1100000 U
b1100000 j
b1100000 ,"
b1011100 +
b1011100 T
b1011100 _
b1011100 {
1!
#240
0!
#245
b1100100 ,
b1100100 d
b1100100 z
b1100100 1
b1100100 c
b1100100 v
b1100100 =
b1100100 m
b1100100 t
b1100100 <
b1100100 V
b1100100 k
b1100100 *
b1100100 S
b1100100 U
b1100100 j
b1100100 ,"
b1100000 +
b1100000 T
b1100000 _
b1100000 {
1!
#250
0!
#255
b1101000 ,
b1101000 d
b1101000 z
b1101000 1
b1101000 c
b1101000 v
b1101000 =
b1101000 m
b1101000 t
b1101000 <
b1101000 V
b1101000 k
b1101000 *
b1101000 S
b1101000 U
b1101000 j
b1101000 ,"
b1100100 +
b1100100 T
b1100100 _
b1100100 {
1!
#260
0!
#265
b1101100 ,
b1101100 d
b1101100 z
b1101100 1
b1101100 c
b1101100 v
b1101100 =
b1101100 m
b1101100 t
b1101100 <
b1101100 V
b1101100 k
b1101100 *
b1101100 S
b1101100 U
b1101100 j
b1101100 ,"
b1101000 +
b1101000 T
b1101000 _
b1101000 {
1!
#270
0!
#275
b1110000 ,
b1110000 d
b1110000 z
b1110000 1
b1110000 c
b1110000 v
b1110000 =
b1110000 m
b1110000 t
b1110000 <
b1110000 V
b1110000 k
b1110000 *
b1110000 S
b1110000 U
b1110000 j
b1110000 ,"
b1101100 +
b1101100 T
b1101100 _
b1101100 {
1!
#280
0!
#285
b1110100 ,
b1110100 d
b1110100 z
b1110100 1
b1110100 c
b1110100 v
b1110100 =
b1110100 m
b1110100 t
b1110100 <
b1110100 V
b1110100 k
b1110100 *
b1110100 S
b1110100 U
b1110100 j
b1110100 ,"
b1110000 +
b1110000 T
b1110000 _
b1110000 {
1!
#290
0!
#295
b1111000 ,
b1111000 d
b1111000 z
b1111000 1
b1111000 c
b1111000 v
b1111000 =
b1111000 m
b1111000 t
b1111000 <
b1111000 V
b1111000 k
b1111000 *
b1111000 S
b1111000 U
b1111000 j
b1111000 ,"
b1110100 +
b1110100 T
b1110100 _
b1110100 {
1!
#300
0!
#305
b1111100 ,
b1111100 d
b1111100 z
b1111100 1
b1111100 c
b1111100 v
b1111100 =
b1111100 m
b1111100 t
b1111100 <
b1111100 V
b1111100 k
b1111100 *
b1111100 S
b1111100 U
b1111100 j
b1111100 ,"
b1111000 +
b1111000 T
b1111000 _
b1111000 {
1!
#310
0!
#315
b10000000 ,
b10000000 d
b10000000 z
b10000000 1
b10000000 c
b10000000 v
b10000000 =
b10000000 m
b10000000 t
b10000000 <
b10000000 V
b10000000 k
b10000000 *
b10000000 S
b10000000 U
b10000000 j
b10000000 ,"
b1111100 +
b1111100 T
b1111100 _
b1111100 {
1!
#320
0!
#325
bx $
bx #"
bx -"
b10000100 ,
b10000100 d
b10000100 z
bx (
bx y
bx +"
bx -
bx s
bx |
b10000100 1
b10000100 c
b10000100 v
bx00 9
bx00 W
bx00 ("
x)"
bx 8
bx g
bx &"
bx '"
bx N
bx 7
bx O
bx i
bx C
bx Q
bx X
bx w
bx %
bx p
bx q
b10000100 =
b10000100 m
b10000100 t
b0xxxxxxxxxxxxxxxxxxxxxxxxxx00 2
b0xxxxxxxxxxxxxxxxxxxxxxxxxx00 u
b0xxxxxxxxxxxxxxxxxxxxxxxxxx00 &
b0xxxxxxxxxxxxxxxxxxxxxxxxxx00 f
b0xxxxxxxxxxxxxxxxxxxxxxxxxx '
b0xxxxxxxxxxxxxxxxxxxxxxxxxx e
bx L
bx K
bx %"
bx G
bx \
bx A
bx Y
bx h
bx ""
bx !"
bx M
bx B
bx P
bx b
bx ~
bx }
bx o
bx n
bx 6
bx `
bx <
bx V
bx k
b10000100 *
b10000100 S
b10000100 U
b10000100 j
b10000100 ,"
b10000000 +
b10000000 T
b10000000 _
b10000000 {
1!
#330
0!
#335
b10001000 ,
b10001000 d
b10001000 z
b10001000 1
b10001000 c
b10001000 v
b10001000 =
b10001000 m
b10001000 t
b10001000 *
b10001000 S
b10001000 U
b10001000 j
b10001000 ,"
b10000100 +
b10000100 T
b10000100 _
b10000100 {
1!
#340
0!
#345
b10001100 ,
b10001100 d
b10001100 z
b10001100 1
b10001100 c
b10001100 v
b10001100 =
b10001100 m
b10001100 t
b10001100 *
b10001100 S
b10001100 U
b10001100 j
b10001100 ,"
b10001000 +
b10001000 T
b10001000 _
b10001000 {
1!
#350
0!
#355
b10010000 ,
b10010000 d
b10010000 z
b10010000 1
b10010000 c
b10010000 v
b10010000 =
b10010000 m
b10010000 t
b10010000 *
b10010000 S
b10010000 U
b10010000 j
b10010000 ,"
b10001100 +
b10001100 T
b10001100 _
b10001100 {
1!
#360
0!
#365
b10010100 ,
b10010100 d
b10010100 z
b10010100 1
b10010100 c
b10010100 v
b10010100 =
b10010100 m
b10010100 t
b10010100 *
b10010100 S
b10010100 U
b10010100 j
b10010100 ,"
b10010000 +
b10010000 T
b10010000 _
b10010000 {
1!
#370
0!
#375
b10011000 ,
b10011000 d
b10011000 z
b10011000 1
b10011000 c
b10011000 v
b10011000 =
b10011000 m
b10011000 t
b10011000 *
b10011000 S
b10011000 U
b10011000 j
b10011000 ,"
b10010100 +
b10010100 T
b10010100 _
b10010100 {
1!
#380
0!
#385
b10011100 ,
b10011100 d
b10011100 z
b10011100 1
b10011100 c
b10011100 v
b10011100 =
b10011100 m
b10011100 t
b10011100 *
b10011100 S
b10011100 U
b10011100 j
b10011100 ,"
b10011000 +
b10011000 T
b10011000 _
b10011000 {
1!
#390
0!
#395
b10100000 ,
b10100000 d
b10100000 z
b10100000 1
b10100000 c
b10100000 v
b10100000 =
b10100000 m
b10100000 t
b10100000 *
b10100000 S
b10100000 U
b10100000 j
b10100000 ,"
b10011100 +
b10011100 T
b10011100 _
b10011100 {
1!
#400
0!
#405
b10100100 ,
b10100100 d
b10100100 z
b10100100 1
b10100100 c
b10100100 v
b10100100 =
b10100100 m
b10100100 t
b10100100 *
b10100100 S
b10100100 U
b10100100 j
b10100100 ,"
b10100000 +
b10100000 T
b10100000 _
b10100000 {
1!
#410
0!
#415
b10101000 ,
b10101000 d
b10101000 z
b10101000 1
b10101000 c
b10101000 v
b10101000 =
b10101000 m
b10101000 t
b10101000 *
b10101000 S
b10101000 U
b10101000 j
b10101000 ,"
b10100100 +
b10100100 T
b10100100 _
b10100100 {
1!
#420
0!
#425
b10101100 ,
b10101100 d
b10101100 z
b10101100 1
b10101100 c
b10101100 v
b10101100 =
b10101100 m
b10101100 t
b10101100 *
b10101100 S
b10101100 U
b10101100 j
b10101100 ,"
b10101000 +
b10101000 T
b10101000 _
b10101000 {
1!
#430
0!
#435
b10110000 ,
b10110000 d
b10110000 z
b10110000 1
b10110000 c
b10110000 v
b10110000 =
b10110000 m
b10110000 t
b10110000 *
b10110000 S
b10110000 U
b10110000 j
b10110000 ,"
b10101100 +
b10101100 T
b10101100 _
b10101100 {
1!
#440
0!
#445
b10110100 ,
b10110100 d
b10110100 z
b10110100 1
b10110100 c
b10110100 v
b10110100 =
b10110100 m
b10110100 t
b10110100 *
b10110100 S
b10110100 U
b10110100 j
b10110100 ,"
b10110000 +
b10110000 T
b10110000 _
b10110000 {
1!
#450
0!
#455
b10111000 ,
b10111000 d
b10111000 z
b10111000 1
b10111000 c
b10111000 v
b10111000 =
b10111000 m
b10111000 t
b10111000 *
b10111000 S
b10111000 U
b10111000 j
b10111000 ,"
b10110100 +
b10110100 T
b10110100 _
b10110100 {
1!
#460
0!
#465
b10111100 ,
b10111100 d
b10111100 z
b10111100 1
b10111100 c
b10111100 v
b10111100 =
b10111100 m
b10111100 t
b10111100 *
b10111100 S
b10111100 U
b10111100 j
b10111100 ,"
b10111000 +
b10111000 T
b10111000 _
b10111000 {
1!
#470
0!
#475
b11000000 ,
b11000000 d
b11000000 z
b11000000 1
b11000000 c
b11000000 v
b11000000 =
b11000000 m
b11000000 t
b11000000 *
b11000000 S
b11000000 U
b11000000 j
b11000000 ,"
b10111100 +
b10111100 T
b10111100 _
b10111100 {
1!
#480
0!
#485
b11000100 ,
b11000100 d
b11000100 z
b11000100 1
b11000100 c
b11000100 v
b11000100 =
b11000100 m
b11000100 t
b11000100 *
b11000100 S
b11000100 U
b11000100 j
b11000100 ,"
b11000000 +
b11000000 T
b11000000 _
b11000000 {
1!
#490
0!
#495
b11001000 ,
b11001000 d
b11001000 z
b11001000 1
b11001000 c
b11001000 v
b11001000 =
b11001000 m
b11001000 t
b11001000 *
b11001000 S
b11001000 U
b11001000 j
b11001000 ,"
b11000100 +
b11000100 T
b11000100 _
b11000100 {
1!
#500
0!
#505
b11001100 ,
b11001100 d
b11001100 z
b11001100 1
b11001100 c
b11001100 v
b11001100 =
b11001100 m
b11001100 t
b11001100 *
b11001100 S
b11001100 U
b11001100 j
b11001100 ,"
b11001000 +
b11001000 T
b11001000 _
b11001000 {
1!
#510
0!
#515
b11010000 ,
b11010000 d
b11010000 z
b11010000 1
b11010000 c
b11010000 v
b11010000 =
b11010000 m
b11010000 t
b11010000 *
b11010000 S
b11010000 U
b11010000 j
b11010000 ,"
b11001100 +
b11001100 T
b11001100 _
b11001100 {
1!
#520
0!
#525
b11010100 ,
b11010100 d
b11010100 z
b11010100 1
b11010100 c
b11010100 v
b11010100 =
b11010100 m
b11010100 t
b11010100 *
b11010100 S
b11010100 U
b11010100 j
b11010100 ,"
b11010000 +
b11010000 T
b11010000 _
b11010000 {
1!
#530
0!
#535
b11011000 ,
b11011000 d
b11011000 z
b11011000 1
b11011000 c
b11011000 v
b11011000 =
b11011000 m
b11011000 t
b11011000 *
b11011000 S
b11011000 U
b11011000 j
b11011000 ,"
b11010100 +
b11010100 T
b11010100 _
b11010100 {
1!
#540
0!
#545
b11011100 ,
b11011100 d
b11011100 z
b11011100 1
b11011100 c
b11011100 v
b11011100 =
b11011100 m
b11011100 t
b11011100 *
b11011100 S
b11011100 U
b11011100 j
b11011100 ,"
b11011000 +
b11011000 T
b11011000 _
b11011000 {
1!
#550
0!
#555
b11100000 ,
b11100000 d
b11100000 z
b11100000 1
b11100000 c
b11100000 v
b11100000 =
b11100000 m
b11100000 t
b11100000 *
b11100000 S
b11100000 U
b11100000 j
b11100000 ,"
b11011100 +
b11011100 T
b11011100 _
b11011100 {
1!
#560
0!
#565
b11100100 ,
b11100100 d
b11100100 z
b11100100 1
b11100100 c
b11100100 v
b11100100 =
b11100100 m
b11100100 t
b11100100 *
b11100100 S
b11100100 U
b11100100 j
b11100100 ,"
b11100000 +
b11100000 T
b11100000 _
b11100000 {
1!
#570
0!
#575
b11101000 ,
b11101000 d
b11101000 z
b11101000 1
b11101000 c
b11101000 v
b11101000 =
b11101000 m
b11101000 t
b11101000 *
b11101000 S
b11101000 U
b11101000 j
b11101000 ,"
b11100100 +
b11100100 T
b11100100 _
b11100100 {
1!
#580
0!
