sample_code/lab3_cpu.vcd
$date
	Thu May 21 20:09:02 2020
$end
$version
	Icarus Verilog
$end
$timescale
	1s
$end
$scope module TestBench $end
$scope module cpu $end
$var wire 1 ! clk_i $end
$var wire 1 " rst_i $end
$var wire 1 # zero_alu $end
$var wire 32 $ pc_plus_4 [31:0] $end
$var wire 32 % pc_out [31:0] $end
$var wire 32 & pc_in [31:0] $end
$var wire 5 ' number_WriteReg_fromMux [4:0] $end
$var wire 32 ( instruction [31:0] $end
$var wire 32 ) data_into_ALU_after_mux [31:0] $end
$var wire 32 * data_after_se [31:0] $end
$var wire 32 + data_after_left2 [31:0] $end
$var wire 32 , branch_target_addr [31:0] $end
$var wire 1 - branch $end
$var wire 1 . RegWrite $end
$var wire 1 / RegDst $end
$var wire 32 0 RT_data [31:0] $end
$var wire 32 1 RS_data [31:0] $end
$var wire 32 2 RD_data [31:0] $end
$var wire 4 3 AlU_control [3:0] $end
$var wire 1 4 ALUSrc $end
$var wire 3 5 ALUOp [2:0] $end
$scope module AC $end
$var wire 6 6 funct_i [5:0] $end
$var wire 3 7 ALUOp_i [2:0] $end
$var reg 4 8 ALUCtrl_o [3:0] $end
$upscope $end
$scope module ALU $end
$var wire 4 9 ctrl_i [3:0] $end
$var wire 5 : shamt_i [4:0] $end
$var wire 5 ; tmp_shamt [4:0] $end
$var wire 32 < tmp_src1 [31:0] $end
$var wire 32 = tmp_src2 [31:0] $end
$var wire 32 > src2_i [31:0] $end
$var wire 32 ? src1_i [31:0] $end
$var reg 32 @ result_o [31:0] $end
$var reg 1 # zero_o $end
$upscope $end
$scope module Adder1 $end
$var wire 32 A src2_i [31:0] $end
$var wire 32 B sum_o [31:0] $end
$var wire 32 C src1_i [31:0] $end
$upscope $end
$scope module Adder2 $end
$var wire 32 D src1_i [31:0] $end
$var wire 32 E sum_o [31:0] $end
$var wire 32 F src2_i [31:0] $end
$upscope $end
$scope module Decoder $end
$var wire 6 G instr_op_i [5:0] $end
$var reg 1 4 ALUSrc_o $end
$var reg 3 H ALU_op_o [2:0] $end
$var reg 1 - Branch_o $end
$var reg 1 / RegDst_o $end
$var reg 1 . RegWrite_o $end
$upscope $end
$scope module IM $end
$var wire 32 I pc_addr_i [31:0] $end
$var reg 32 J instr_o [31:0] $end
$var integer 32 K i [31:0] $end
$upscope $end
$scope module Mux_ALUSrc $end
$var wire 1 4 select_i $end
$var wire 32 L data1_i [31:0] $end
$var wire 32 M data0_i [31:0] $end
$var reg 32 N data_o [31:0] $end
$upscope $end
$scope module Mux_PC_Source $end
$var wire 32 O data0_i [31:0] $end
$var wire 32 P data1_i [31:0] $end
$var wire 1 Q select_i $end
$var reg 32 R data_o [31:0] $end
$upscope $end
$scope module Mux_Write_Reg $end
$var wire 5 S data0_i [4:0] $end
$var wire 5 T data1_i [4:0] $end
$var wire 1 / select_i $end
$var reg 5 U data_o [4:0] $end
$upscope $end
$scope module PC $end
$var wire 1 ! clk_i $end
$var wire 32 V pc_in_i [31:0] $end
$var wire 1 " rst_i $end
$var reg 32 W pc_out_o [31:0] $end
$upscope $end
$scope module RF $end
$var wire 5 X RDaddr_i [4:0] $end
$var wire 32 Y RDdata_i [31:0] $end
$var wire 5 Z RSaddr_i [4:0] $end
$var wire 32 [ RSdata_o [31:0] $end
$var wire 5 \ RTaddr_i [4:0] $end
$var wire 32 ] RTdata_o [31:0] $end
$var wire 1 . RegWrite_i $end
$var wire 1 ! clk_i $end
$var wire 1 " rst_i $end
$upscope $end
$scope module SE $end
$var wire 4 ^ ctrl_i [3:0] $end
$var wire 16 _ data_i [15:0] $end
$var reg 32 ` data_o [31:0] $end
$upscope $end
$scope module Shifter $end
$var wire 32 a data_i [31:0] $end
$var wire 32 b data_o [31:0] $end
$upscope $end
$upscope $end
$upscope $end
$enddefinitions $end
#0
$dumpvars
bx00 b
bx a
bx `
bx _
bx ^
bx ]
bx \
bx [
bx Z
bx Y
bx X
bx W
bx V
bx U
bx T
bx S
bx R
xQ
bx P
bx O
bx N
bx M
bx L
b100000 K
bx J
bx I
bx H
bx G
bx00 F
bx E
bx D
bx C
bx B
b100 A
bx @
bx ?
bx >
bx =
bx <
bx ;
bx :
bx 9
bx 8
bx 7
bx 6
bx 5
x4
bx 3
bx 2
bx 1
bx 0
x/
x.
x-
bx ,
bx00 +
bx *
bx )
bx (
bx '
bx &
bx %
bx $
x#
0"
0!
$end
#5
0#
b11 2
b11 @
b11 Y
b100 &
b100 R
b100 V
b11 =
b11 )
b11 >
b11 N
b10 3
b10 8
b10 9
b10 ^
b10000 ,
b10000 E
b10000 P
b1100 +
b1100 F
b1100 b
0Q
b11 *
b11 L
b11 `
b11 a
0-
0/
14
b1 5
b1 7
b1 H
1.
b1 '
b1 U
b1 X
b0 ;
b0 :
b11 _
b11 6
b1000 G
b1 0
b1 M
b1 ]
b1 \
b0 <
b0 1
b0 ?
b0 [
b0 Z
b0 T
b1 S
b100000000000010000000000000011 (
b100000000000010000000000000011 J
b100 $
b100 B
b100 D
b100 O
b0 %
b0 C
b0 I
b0 W
1!
#10
b11 0
b11 M
b11 ]
0!
1"
#15
b101 2
b101 @
b101 Y
b101 =
b101 )
b101 >
b101 N
b10100 +
b10100 F
b10100 b
b101 *
b101 L
b101 `
b101 a
b10 '
b10 U
b10 X
b1000 &
b1000 R
b1000 V
b101 _
b101 6
b10 0
b10 M
b10 ]
b10 \
b10 S
b100000000000100000000000000101 (
b100000000000100000000000000101 J
b11100 ,
b11100 E
b11100 P
b1000 $
b1000 B
b1000 D
b1000 O
b100 %
b100 C
b100 I
b100 W
1!
#20
0!
#25
b11000 2
b11000 @
b11000 Y
b11000 =
b11000 )
b11000 >
b11000 N
b1100000 +
b1100000 F
b1100000 b
b11000 *
b11000 L
b11000 `
b11000 a
b11 '
b11 U
b11 X
b1100 &
b1100 R
b1100 V
b11000 _
b11000 6
b11 \
b11 S
b100000000000110000000000011000 (
b100000000000110000000000011000 J
b1101100 ,
b1101100 E
b1101100 P
b1100 $
b1100 B
b1100 D
b1100 O
b1000 %
b1000 C
b1000 I
b1000 W
b11 0
b11 M
b11 ]
1!
#30
0!
#35
b101 =
b101 )
b101 >
b101 N
b100 3
b100 8
b100 9
b100 ^
b1000000001100000 +
b1000000001100000 F
b1000000001100000 b
b10000000011000 *
b10000000011000 L
b10000000011000 `
b10000000011000 a
1/
04
b0 5
b0 7
b0 H
b1111 2
b1111 @
b1111 Y
b100 '
b100 U
b100 X
b10000 &
b10000 R
b10000 V
b10000000011000 _
b0 G
b10 \
b11 <
b11 1
b11 ?
b11 [
b1 Z
b100 T
b10 S
b1000100010000000011000 (
b1000100010000000011000 J
b1000000001110000 ,
b1000000001110000 E
b1000000001110000 P
b10000 $
b10000 B
b10000 D
b10000 O
b1100 %
b1100 C
b1100 I
b1100 W
b101 0
b101 M
b101 ]
1!
#40
0!
#45
b1010000001100000 +
b1010000001100000 F
b1010000001100000 b
b10100000011000 *
b10100000011000 L
b10100000011000 `
b10100000011000 a
b11000 =
b11000 )
b11000 >
b11000 N
b1111000 2
b1111000 @
b1111000 Y
b101 '
b101 U
b101 X
b10100 &
b10100 R
b10100 V
b10100000011000 _
b11000 0
b11000 M
b11000 ]
b11 \
b101 <
b101 1
b101 ?
b101 [
b10 Z
b101 T
b11 S
b10000110010100000011000 (
b10000110010100000011000 J
b1010000001110100 ,
b1010000001110100 E
b1010000001110100 P
b10100 $
b10100 B
b10100 D
b10100 O
b10000 %
b10000 C
b10000 I
b10000 W
1!
#50
0!
#55
1#
b0 +
b0 F
b0 b
b0 *
b0 L
b0 `
b0 a
b1101 3
b1101 8
b1101 9
b1101 ^
b0 =
b0 )
b0 >
b0 N
b0 2
b0 @
b0 Y
b0 '
b0 U
b0 X
b11000 &
b11000 R
b11000 V
b0 _
b0 6
b0 0
b0 M
b0 ]
b0 \
b0 <
b0 1
b0 ?
b0 [
b0 Z
b0 T
b0 S
b0 (
b0 J
b11000 ,
b11000 E
b11000 P
b11000 $
b11000 B
b11000 D
b11000 O
b10100 %
b10100 C
b10100 I
b10100 W
1!
#60
0!
#65
b11100 &
b11100 R
b11100 V
b11100 ,
b11100 E
b11100 P
b11100 $
b11100 B
b11100 D
b11100 O
b11000 %
b11000 C
b11000 I
b11000 W
1!
#70
0!
#75
b100000 &
b100000 R
b100000 V
b100000 ,
b100000 E
b100000 P
b100000 $
b100000 B
b100000 D
b100000 O
b11100 %
b11100 C
b11100 I
b11100 W
1!
#80
0!
#85
b100100 &
b100100 R
b100100 V
b100100 ,
b100100 E
b100100 P
b100100 $
b100100 B
b100100 D
b100100 O
b100000 %
b100000 C
b100000 I
b100000 W
1!
#90
0!
#95
b101000 &
b101000 R
b101000 V
b101000 ,
b101000 E
b101000 P
b101000 $
b101000 B
b101000 D
b101000 O
b100100 %
b100100 C
b100100 I
b100100 W
1!
#100
0!
#105
b101100 &
b101100 R
b101100 V
b101100 ,
b101100 E
b101100 P
b101100 $
b101100 B
b101100 D
b101100 O
b101000 %
b101000 C
b101000 I
b101000 W
1!
#110
0!
#115
b110000 &
b110000 R
b110000 V
b110000 ,
b110000 E
b110000 P
b110000 $
b110000 B
b110000 D
b110000 O
b101100 %
b101100 C
b101100 I
b101100 W
1!
#120
0!
#125
b110100 &
b110100 R
b110100 V
b110100 ,
b110100 E
b110100 P
b110100 $
b110100 B
b110100 D
b110100 O
b110000 %
b110000 C
b110000 I
b110000 W
1!
#130
0!
#135
b111000 &
b111000 R
b111000 V
b111000 ,
b111000 E
b111000 P
b111000 $
b111000 B
b111000 D
b111000 O
b110100 %
b110100 C
b110100 I
b110100 W
1!
#140
0!
#145
b111100 &
b111100 R
b111100 V
b111100 ,
b111100 E
b111100 P
b111100 $
b111100 B
b111100 D
b111100 O
b111000 %
b111000 C
b111000 I
b111000 W
1!
#150
0!
#155
b1000000 &
b1000000 R
b1000000 V
b1000000 ,
b1000000 E
b1000000 P
b1000000 $
b1000000 B
b1000000 D
b1000000 O
b111100 %
b111100 C
b111100 I
b111100 W
1!
#160
0!
#165
b1000100 &
b1000100 R
b1000100 V
b1000100 ,
b1000100 E
b1000100 P
b1000100 $
b1000100 B
b1000100 D
b1000100 O
b1000000 %
b1000000 C
b1000000 I
b1000000 W
1!
#170
0!
#175
b1001000 &
b1001000 R
b1001000 V
b1001000 ,
b1001000 E
b1001000 P
b1001000 $
b1001000 B
b1001000 D
b1001000 O
b1000100 %
b1000100 C
b1000100 I
b1000100 W
1!
#180
0!
#185
b1001100 &
b1001100 R
b1001100 V
b1001100 ,
b1001100 E
b1001100 P
b1001100 $
b1001100 B
b1001100 D
b1001100 O
b1001000 %
b1001000 C
b1001000 I
b1001000 W
1!
#190
0!
#195
b1010000 &
b1010000 R
b1010000 V
b1010000 ,
b1010000 E
b1010000 P
b1010000 $
b1010000 B
b1010000 D
b1010000 O
b1001100 %
b1001100 C
b1001100 I
b1001100 W
1!
#200
0!
#205
b1010100 &
b1010100 R
b1010100 V
b1010100 ,
b1010100 E
b1010100 P
b1010100 $
b1010100 B
b1010100 D
b1010100 O
b1010000 %
b1010000 C
b1010000 I
b1010000 W
1!
#210
0!
#215
b1011000 &
b1011000 R
b1011000 V
b1011000 ,
b1011000 E
b1011000 P
b1011000 $
b1011000 B
b1011000 D
b1011000 O
b1010100 %
b1010100 C
b1010100 I
b1010100 W
1!
#220
0!
#225
b1011100 &
b1011100 R
b1011100 V
b1011100 ,
b1011100 E
b1011100 P
b1011100 $
b1011100 B
b1011100 D
b1011100 O
b1011000 %
b1011000 C
b1011000 I
b1011000 W
1!
#230
0!
#235
b1100000 &
b1100000 R
b1100000 V
b1100000 ,
b1100000 E
b1100000 P
b1100000 $
b1100000 B
b1100000 D
b1100000 O
b1011100 %
b1011100 C
b1011100 I
b1011100 W
1!
#240
0!
#245
b1100100 &
b1100100 R
b1100100 V
b1100100 ,
b1100100 E
b1100100 P
b1100100 $
b1100100 B
b1100100 D
b1100100 O
b1100000 %
b1100000 C
b1100000 I
b1100000 W
1!
#250
0!
#255
b1101000 &
b1101000 R
b1101000 V
b1101000 ,
b1101000 E
b1101000 P
b1101000 $
b1101000 B
b1101000 D
b1101000 O
b1100100 %
b1100100 C
b1100100 I
b1100100 W
1!
#260
0!
#265
b1101100 &
b1101100 R
b1101100 V
b1101100 ,
b1101100 E
b1101100 P
b1101100 $
b1101100 B
b1101100 D
b1101100 O
b1101000 %
b1101000 C
b1101000 I
b1101000 W
1!
#270
0!
#275
b1110000 &
b1110000 R
b1110000 V
b1110000 ,
b1110000 E
b1110000 P
b1110000 $
b1110000 B
b1110000 D
b1110000 O
b1101100 %
b1101100 C
b1101100 I
b1101100 W
1!
#280
0!
#285
b1110100 &
b1110100 R
b1110100 V
b1110100 ,
b1110100 E
b1110100 P
b1110100 $
b1110100 B
b1110100 D
b1110100 O
b1110000 %
b1110000 C
b1110000 I
b1110000 W
1!
#290
0!
#295
b1111000 &
b1111000 R
b1111000 V
b1111000 ,
b1111000 E
b1111000 P
b1111000 $
b1111000 B
b1111000 D
b1111000 O
b1110100 %
b1110100 C
b1110100 I
b1110100 W
1!
#300
0!
#305
b1111100 &
b1111100 R
b1111100 V
b1111100 ,
b1111100 E
b1111100 P
b1111100 $
b1111100 B
b1111100 D
b1111100 O
b1111000 %
b1111000 C
b1111000 I
b1111000 W
1!
#310
0!
#315
b10000000 &
b10000000 R
b10000000 V
b10000000 ,
b10000000 E
b10000000 P
b10000000 $
b10000000 B
b10000000 D
b10000000 O
b1111100 %
b1111100 C
b1111100 I
b1111100 W
1!
#320
0!
#325
x#
bx00 +
bx00 F
bx00 b
bx *
bx L
bx `
bx a
bx =
bx )
bx >
bx N
bx 2
bx @
bx Y
bx '
bx U
bx X
b10000100 &
b10000100 R
b10000100 V
bx ;
bx :
bx _
bx 6
bx G
bx 0
bx M
bx ]
bx \
bx <
bx 1
bx ?
bx [
bx Z
bx T
bx S
bx (
bx J
bx ,
bx E
bx P
b10000100 $
b10000100 B
b10000100 D
b10000100 O
b10000000 %
b10000000 C
b10000000 I
b10000000 W
1!
#330
0!
#335
b10001000 &
b10001000 R
b10001000 V
b10001000 $
b10001000 B
b10001000 D
b10001000 O
b10000100 %
b10000100 C
b10000100 I
b10000100 W
1!
#340
0!
#345
b10001100 &
b10001100 R
b10001100 V
b10001100 $
b10001100 B
b10001100 D
b10001100 O
b10001000 %
b10001000 C
b10001000 I
b10001000 W
1!
#350
0!
#355
b10010000 &
b10010000 R
b10010000 V
b10010000 $
b10010000 B
b10010000 D
b10010000 O
b10001100 %
b10001100 C
b10001100 I
b10001100 W
1!
#360
0!
#365
b10010100 &
b10010100 R
b10010100 V
b10010100 $
b10010100 B
b10010100 D
b10010100 O
b10010000 %
b10010000 C
b10010000 I
b10010000 W
1!
#370
0!
#375
b10011000 &
b10011000 R
b10011000 V
b10011000 $
b10011000 B
b10011000 D
b10011000 O
b10010100 %
b10010100 C
b10010100 I
b10010100 W
1!
#380
0!
#385
b10011100 &
b10011100 R
b10011100 V
b10011100 $
b10011100 B
b10011100 D
b10011100 O
b10011000 %
b10011000 C
b10011000 I
b10011000 W
1!
#390
0!
#395
b10100000 &
b10100000 R
b10100000 V
b10100000 $
b10100000 B
b10100000 D
b10100000 O
b10011100 %
b10011100 C
b10011100 I
b10011100 W
1!
#400
0!
#405
b10100100 &
b10100100 R
b10100100 V
b10100100 $
b10100100 B
b10100100 D
b10100100 O
b10100000 %
b10100000 C
b10100000 I
b10100000 W
1!
#410
0!
#415
b10101000 &
b10101000 R
b10101000 V
b10101000 $
b10101000 B
b10101000 D
b10101000 O
b10100100 %
b10100100 C
b10100100 I
b10100100 W
1!
#420
0!
#425
b10101100 &
b10101100 R
b10101100 V
b10101100 $
b10101100 B
b10101100 D
b10101100 O
b10101000 %
b10101000 C
b10101000 I
b10101000 W
1!
#430
0!
#435
b10110000 &
b10110000 R
b10110000 V
b10110000 $
b10110000 B
b10110000 D
b10110000 O
b10101100 %
b10101100 C
b10101100 I
b10101100 W
1!
#440
0!
#445
b10110100 &
b10110100 R
b10110100 V
b10110100 $
b10110100 B
b10110100 D
b10110100 O
b10110000 %
b10110000 C
b10110000 I
b10110000 W
1!
#450
0!
#455
b10111000 &
b10111000 R
b10111000 V
b10111000 $
b10111000 B
b10111000 D
b10111000 O
b10110100 %
b10110100 C
b10110100 I
b10110100 W
1!
#460
0!
#465
b10111100 &
b10111100 R
b10111100 V
b10111100 $
b10111100 B
b10111100 D
b10111100 O
b10111000 %
b10111000 C
b10111000 I
b10111000 W
1!
#470
0!
#475
b11000000 &
b11000000 R
b11000000 V
b11000000 $
b11000000 B
b11000000 D
b11000000 O
b10111100 %
b10111100 C
b10111100 I
b10111100 W
1!
#480
0!
#485
b11000100 &
b11000100 R
b11000100 V
b11000100 $
b11000100 B
b11000100 D
b11000100 O
b11000000 %
b11000000 C
b11000000 I
b11000000 W
1!
#490
0!
#495
b11001000 &
b11001000 R
b11001000 V
b11001000 $
b11001000 B
b11001000 D
b11001000 O
b11000100 %
b11000100 C
b11000100 I
b11000100 W
1!
#500
0!
#505
b11001100 &
b11001100 R
b11001100 V
b11001100 $
b11001100 B
b11001100 D
b11001100 O
b11001000 %
b11001000 C
b11001000 I
b11001000 W
1!
#510
0!
#515
b11010000 &
b11010000 R
b11010000 V
b11010000 $
b11010000 B
b11010000 D
b11010000 O
b11001100 %
b11001100 C
b11001100 I
b11001100 W
1!
#520
0!
#525
b11010100 &
b11010100 R
b11010100 V
b11010100 $
b11010100 B
b11010100 D
b11010100 O
b11010000 %
b11010000 C
b11010000 I
b11010000 W
1!
#530
0!
#535
b11011000 &
b11011000 R
b11011000 V
b11011000 $
b11011000 B
b11011000 D
b11011000 O
b11010100 %
b11010100 C
b11010100 I
b11010100 W
1!
#540
0!
#545
b11011100 &
b11011100 R
b11011100 V
b11011100 $
b11011100 B
b11011100 D
b11011100 O
b11011000 %
b11011000 C
b11011000 I
b11011000 W
1!
#550
0!
#555
b11100000 &
b11100000 R
b11100000 V
b11100000 $
b11100000 B
b11100000 D
b11100000 O
b11011100 %
b11011100 C
b11011100 I
b11011100 W
1!
#560
0!
#565
b11100100 &
b11100100 R
b11100100 V
b11100100 $
b11100100 B
b11100100 D
b11100100 O
b11100000 %
b11100000 C
b11100000 I
b11100000 W
1!
#570
0!
#575
b11101000 &
b11101000 R
b11101000 V
b11101000 $
b11101000 B
b11101000 D
b11101000 O
b11100100 %
b11100100 C
b11100100 I
b11100100 W
1!
#580
0!
#585
b11101100 &
b11101100 R
b11101100 V
b11101100 $
b11101100 B
b11101100 D
b11101100 O
b11101000 %
b11101000 C
b11101000 I
b11101000 W
1!
#590
0!
#595
b11110000 &
b11110000 R
b11110000 V
b11110000 $
b11110000 B
b11110000 D
b11110000 O
b11101100 %
b11101100 C
b11101100 I
b11101100 W
1!
#600
0!
#605
b11110100 &
b11110100 R
b11110100 V
b11110100 $
b11110100 B
b11110100 D
b11110100 O
b11110000 %
b11110000 C
b11110000 I
b11110000 W
1!
#610
0!
#615
b11111000 &
b11111000 R
b11111000 V
b11111000 $
b11111000 B
b11111000 D
b11111000 O
b11110100 %
b11110100 C
b11110100 I
b11110100 W
1!
#620
0!
#625
b11111100 &
b11111100 R
b11111100 V
b11111100 $
b11111100 B
b11111100 D
b11111100 O
b11111000 %
b11111000 C
b11111000 I
b11111000 W
1!
#630
0!
#635
b100000000 &
b100000000 R
b100000000 V
b100000000 $
b100000000 B
b100000000 D
b100000000 O
b11111100 %
b11111100 C
b11111100 I
b11111100 W
1!
#640
0!
#645
b100000100 &
b100000100 R
b100000100 V
b100000100 $
b100000100 B
b100000100 D
b100000100 O
b100000000 %
b100000000 C
b100000000 I
b100000000 W
1!
#650
0!
#655
b100001000 &
b100001000 R
b100001000 V
b100001000 $
b100001000 B
b100001000 D
b100001000 O
b100000100 %
b100000100 C
b100000100 I
b100000100 W
1!
#660
0!
#665
b100001100 &
b100001100 R
b100001100 V
b100001100 $
b100001100 B
b100001100 D
b100001100 O
b100001000 %
b100001000 C
b100001000 I
b100001000 W
1!
#670
0!
#675
b100010000 &
b100010000 R
b100010000 V
b100010000 $
b100010000 B
b100010000 D
b100010000 O
b100001100 %
b100001100 C
b100001100 I
b100001100 W
1!
#680
0!
#685
b100010100 &
b100010100 R
b100010100 V
b100010100 $
b100010100 B
b100010100 D
b100010100 O
b100010000 %
b100010000 C
b100010000 I
b100010000 W
1!
#690
0!
#695
b100011000 &
b100011000 R
b100011000 V
b100011000 $
b100011000 B
b100011000 D
b100011000 O
b100010100 %
b100010100 C
b100010100 I
b100010100 W
1!
#700
0!
#705
b100011100 &
b100011100 R
b100011100 V
b100011100 $
b100011100 B
b100011100 D
b100011100 O
b100011000 %
b100011000 C
b100011000 I
b100011000 W
1!
#710
0!
#715
b100100000 &
b100100000 R
b100100000 V
b100100000 $
b100100000 B
b100100000 D
b100100000 O
b100011100 %
b100011100 C
b100011100 I
b100011100 W
1!
#720
0!
#725
b100100100 &
b100100100 R
b100100100 V
b100100100 $
b100100100 B
b100100100 D
b100100100 O
b100100000 %
b100100000 C
b100100000 I
b100100000 W
1!
#730
0!
#735
b100101000 &
b100101000 R
b100101000 V
b100101000 $
b100101000 B
b100101000 D
b100101000 O
b100100100 %
b100100100 C
b100100100 I
b100100100 W
1!
#740
0!
#745
b100101100 &
b100101100 R
b100101100 V
b100101100 $
b100101100 B
b100101100 D
b100101100 O
b100101000 %
b100101000 C
b100101000 I
b100101000 W
1!
#750
0!
#755
b100110000 &
b100110000 R
b100110000 V
b100110000 $
b100110000 B
b100110000 D
b100110000 O
b100101100 %
b100101100 C
b100101100 I
b100101100 W
1!
#760
0!
#765
b100110100 &
b100110100 R
b100110100 V
b100110100 $
b100110100 B
b100110100 D
b100110100 O
b100110000 %
b100110000 C
b100110000 I
b100110000 W
1!
#770
0!
#775
b100111000 &
b100111000 R
b100111000 V
b100111000 $
b100111000 B
b100111000 D
b100111000 O
b100110100 %
b100110100 C
b100110100 I
b100110100 W
1!
#780
0!
#785
b100111100 &
b100111100 R
b100111100 V
b100111100 $
b100111100 B
b100111100 D
b100111100 O
b100111000 %
b100111000 C
b100111000 I
b100111000 W
1!
#790
0!
#795
b101000000 &
b101000000 R
b101000000 V
b101000000 $
b101000000 B
b101000000 D
b101000000 O
b100111100 %
b100111100 C
b100111100 I
b100111100 W
1!
#800
0!
#805
b101000100 &
b101000100 R
b101000100 V
b101000100 $
b101000100 B
b101000100 D
b101000100 O
b101000000 %
b101000000 C
b101000000 I
b101000000 W
1!
#810
0!
#815
b101001000 &
b101001000 R
b101001000 V
b101001000 $
b101001000 B
b101001000 D
b101001000 O
b101000100 %
b101000100 C
b101000100 I
b101000100 W
1!
#820
0!
#825
b101001100 &
b101001100 R
b101001100 V
b101001100 $
b101001100 B
b101001100 D
b101001100 O
b101001000 %
b101001000 C
b101001000 I
b101001000 W
1!
#830
0!
#835
b101010000 &
b101010000 R
b101010000 V
b101010000 $
b101010000 B
b101010000 D
b101010000 O
b101001100 %
b101001100 C
b101001100 I
b101001100 W
1!
#840
0!
#845
b101010100 &
b101010100 R
b101010100 V
b101010100 $
b101010100 B
b101010100 D
b101010100 O
b101010000 %
b101010000 C
b101010000 I
b101010000 W
1!
#850
0!
#855
b101011000 &
b101011000 R
b101011000 V
b101011000 $
b101011000 B
b101011000 D
b101011000 O
b101010100 %
b101010100 C
b101010100 I
b101010100 W
1!
#860
0!
#865
b101011100 &
b101011100 R
b101011100 V
b101011100 $
b101011100 B
b101011100 D
b101011100 O
b101011000 %
b101011000 C
b101011000 I
b101011000 W
1!
#870
0!
#875
b101100000 &
b101100000 R
b101100000 V
b101100000 $
b101100000 B
b101100000 D
b101100000 O
b101011100 %
b101011100 C
b101011100 I
b101011100 W
1!
#880
0!
#885
b101100100 &
b101100100 R
b101100100 V
b101100100 $
b101100100 B
b101100100 D
b101100100 O
b101100000 %
b101100000 C
b101100000 I
b101100000 W
1!
#890
0!
#895
b101101000 &
b101101000 R
b101101000 V
b101101000 $
b101101000 B
b101101000 D
b101101000 O
b101100100 %
b101100100 C
b101100100 I
b101100100 W
1!
#900
0!
#905
b101101100 &
b101101100 R
b101101100 V
b101101100 $
b101101100 B
b101101100 D
b101101100 O
b101101000 %
b101101000 C
b101101000 I
b101101000 W
1!
#910
0!
#915
b101110000 &
b101110000 R
b101110000 V
b101110000 $
b101110000 B
b101110000 D
b101110000 O
b101101100 %
b101101100 C
b101101100 I
b101101100 W
1!
#920
0!
#925
b101110100 &
b101110100 R
b101110100 V
b101110100 $
b101110100 B
b101110100 D
b101110100 O
b101110000 %
b101110000 C
b101110000 I
b101110000 W
1!
#930
0!
#935
b101111000 &
b101111000 R
b101111000 V
b101111000 $
b101111000 B
b101111000 D
b101111000 O
b101110100 %
b101110100 C
b101110100 I
b101110100 W
1!
#940
0!
#945
b101111100 &
b101111100 R
b101111100 V
b101111100 $
b101111100 B
b101111100 D
b101111100 O
b101111000 %
b101111000 C
b101111000 I
b101111000 W
1!
#950
0!
#955
b110000000 &
b110000000 R
b110000000 V
b110000000 $
b110000000 B
b110000000 D
b110000000 O
b101111100 %
b101111100 C
b101111100 I
b101111100 W
1!
#960
0!
#965
b110000100 &
b110000100 R
b110000100 V
b110000100 $
b110000100 B
b110000100 D
b110000100 O
b110000000 %
b110000000 C
b110000000 I
b110000000 W
1!
#970
0!
#975
b110001000 &
b110001000 R
b110001000 V
b110001000 $
b110001000 B
b110001000 D
b110001000 O
b110000100 %
b110000100 C
b110000100 I
b110000100 W
1!
#980
0!
#985
b110001100 &
b110001100 R
b110001100 V
b110001100 $
b110001100 B
b110001100 D
b110001100 O
b110001000 %
b110001000 C
b110001000 I
b110001000 W
1!
#990
0!
#995
b110010000 &
b110010000 R
b110010000 V
b110010000 $
b110010000 B
b110010000 D
b110010000 O
b110001100 %
b110001100 C
b110001100 I
b110001100 W
1!
#1000
0!
#1005
b110010100 &
b110010100 R
b110010100 V
b110010100 $
b110010100 B
b110010100 D
b110010100 O
b110010000 %
b110010000 C
b110010000 I
b110010000 W
1!
#1010
0!
#1015
b110011000 &
b110011000 R
b110011000 V
b110011000 $
b110011000 B
b110011000 D
b110011000 O
b110010100 %
b110010100 C
b110010100 I
b110010100 W
1!
#1020
0!
#1025
b110011100 &
b110011100 R
b110011100 V
b110011100 $
b110011100 B
b110011100 D
b110011100 O
b110011000 %
b110011000 C
b110011000 I
b110011000 W
1!
#1030
0!
#1035
b110100000 &
b110100000 R
b110100000 V
b110100000 $
b110100000 B
b110100000 D
b110100000 O
b110011100 %
b110011100 C
b110011100 I
b110011100 W
1!
#1040
0!
#1045
b110100100 &
b110100100 R
b110100100 V
b110100100 $
b110100100 B
b110100100 D
b110100100 O
b110100000 %
b110100000 C
b110100000 I
b110100000 W
1!
#1050
0!
#1055
b110101000 &
b110101000 R
b110101000 V
b110101000 $
b110101000 B
b110101000 D
b110101000 O
b110100100 %
b110100100 C
b110100100 I
b110100100 W
1!
#1060
0!
#1065
b110101100 &
b110101100 R
b110101100 V
b110101100 $
b110101100 B
b110101100 D
b110101100 O
b110101000 %
b110101000 C
b110101000 I
b110101000 W
1!
#1070
0!
#1075
b110110000 &
b110110000 R
b110110000 V
b110110000 $
b110110000 B
b110110000 D
b110110000 O
b110101100 %
b110101100 C
b110101100 I
b110101100 W
1!
#1080
0!
#1085
b110110100 &
b110110100 R
b110110100 V
b110110100 $
b110110100 B
b110110100 D
b110110100 O
b110110000 %
b110110000 C
b110110000 I
b110110000 W
1!
#1090
0!
#1095
b110111000 &
b110111000 R
b110111000 V
b110111000 $
b110111000 B
b110111000 D
b110111000 O
b110110100 %
b110110100 C
b110110100 I
b110110100 W
1!
#1100
0!
#1105
b110111100 &
b110111100 R
b110111100 V
b110111100 $
b110111100 B
b110111100 D
b110111100 O
b110111000 %
b110111000 C
b110111000 I
b110111000 W
1!
#1110
0!
#1115
b111000000 &
b111000000 R
b111000000 V
b111000000 $
b111000000 B
b111000000 D
b111000000 O
b110111100 %
b110111100 C
b110111100 I
b110111100 W
1!
#1120
0!
#1125
b111000100 &
b111000100 R
b111000100 V
b111000100 $
b111000100 B
b111000100 D
b111000100 O
b111000000 %
b111000000 C
b111000000 I
b111000000 W
1!
#1130
0!
#1135
b111001000 &
b111001000 R
b111001000 V
b111001000 $
b111001000 B
b111001000 D
b111001000 O
b111000100 %
b111000100 C
b111000100 I
b111000100 W
1!
#1140
0!
#1145
b111001100 &
b111001100 R
b111001100 V
b111001100 $
b111001100 B
b111001100 D
b111001100 O
b111001000 %
b111001000 C
b111001000 I
b111001000 W
1!
#1150
0!
#1155
b111010000 &
b111010000 R
b111010000 V
b111010000 $
b111010000 B
b111010000 D
b111010000 O
b111001100 %
b111001100 C
b111001100 I
b111001100 W
1!
#1160
0!
#1165
b111010100 &
b111010100 R
b111010100 V
b111010100 $
b111010100 B
b111010100 D
b111010100 O
b111010000 %
b111010000 C
b111010000 I
b111010000 W
1!
#1170
0!
#1175
b111011000 &
b111011000 R
b111011000 V
b111011000 $
b111011000 B
b111011000 D
b111011000 O
b111010100 %
b111010100 C
b111010100 I
b111010100 W
1!
#1180
0!
#1185
b111011100 &
b111011100 R
b111011100 V
b111011100 $
b111011100 B
b111011100 D
b111011100 O
b111011000 %
b111011000 C
b111011000 I
b111011000 W
1!
#1190
0!
#1195
b111100000 &
b111100000 R
b111100000 V
b111100000 $
b111100000 B
b111100000 D
b111100000 O
b111011100 %
b111011100 C
b111011100 I
b111011100 W
1!
#1200
0!
#1205
b111100100 &
b111100100 R
b111100100 V
b111100100 $
b111100100 B
b111100100 D
b111100100 O
b111100000 %
b111100000 C
b111100000 I
b111100000 W
1!
#1210
0!
