sample_code/lab3_cpu.vcd
$date
	Sat May 23 20:17:03 2020
$end
$version
	Icarus Verilog
$end
$timescale
	1s
$end
$scope module TestBench $end
$scope module cpu $end
$var wire 1 ! clk_i $end
$var wire 1 " rst_i $end
$var wire 1 # zero_alu $end
$var wire 32 $ pc_plus_4 [31:0] $end
$var wire 32 % pc_out [31:0] $end
$var wire 32 & pc_in [31:0] $end
$var wire 5 ' number_WriteReg_fromMux [4:0] $end
$var wire 1 ( mem_write $end
$var wire 1 ) mem_reg $end
$var wire 1 * mem_read $end
$var wire 1 + jump $end
$var wire 1 , jr $end
$var wire 32 - instruction [31:0] $end
$var wire 32 . data_into_ALU_after_mux [31:0] $end
$var wire 32 / data_after_se [31:0] $end
$var wire 32 0 data_after_left2 [31:0] $end
$var wire 32 1 branch_target_addr [31:0] $end
$var wire 1 2 branch $end
$var wire 1 3 RegWrite $end
$var wire 1 4 RegDst $end
$var wire 32 5 RT_data [31:0] $end
$var wire 32 6 RS_data [31:0] $end
$var wire 32 7 RD_data [31:0] $end
$var wire 4 8 AlU_control [3:0] $end
$var wire 1 9 ALUSrc $end
$var wire 3 : ALUOp [2:0] $end
$scope module AC $end
$var wire 6 ; funct_i [5:0] $end
$var wire 3 < ALUOp_i [2:0] $end
$var reg 4 = ALUCtrl_o [3:0] $end
$var reg 1 , jr_o $end
$upscope $end
$scope module ALU $end
$var wire 4 > ctrl_i [3:0] $end
$var wire 5 ? shamt_i [4:0] $end
$var wire 5 @ tmp_shamt [4:0] $end
$var wire 32 A tmp_src1 [31:0] $end
$var wire 32 B tmp_src2 [31:0] $end
$var wire 32 C src2_i [31:0] $end
$var wire 32 D src1_i [31:0] $end
$var reg 32 E result_o [31:0] $end
$var reg 1 # zero_o $end
$upscope $end
$scope module Adder1 $end
$var wire 32 F src2_i [31:0] $end
$var wire 32 G sum_o [31:0] $end
$var wire 32 H src1_i [31:0] $end
$upscope $end
$scope module Adder2 $end
$var wire 32 I src1_i [31:0] $end
$var wire 32 J sum_o [31:0] $end
$var wire 32 K src2_i [31:0] $end
$upscope $end
$scope module Decoder $end
$var wire 6 L instr_op_i [5:0] $end
$var reg 1 9 ALUSrc_o $end
$var reg 3 M ALU_op_o [2:0] $end
$var reg 1 2 Branch_o $end
$var reg 1 4 RegDst_o $end
$var reg 1 3 RegWrite_o $end
$var reg 1 + jump_o $end
$var reg 1 * mem_read_o $end
$var reg 1 ) mem_to_reg $end
$var reg 1 ( mem_write_o $end
$upscope $end
$scope module IM $end
$var wire 32 N pc_addr_i [31:0] $end
$var reg 32 O instr_o [31:0] $end
$var integer 32 P i [31:0] $end
$upscope $end
$scope module Mux_ALUSrc $end
$var wire 1 9 select_i $end
$var wire 32 Q data1_i [31:0] $end
$var wire 32 R data0_i [31:0] $end
$var reg 32 S data_o [31:0] $end
$upscope $end
$scope module Mux_PC_Source $end
$var wire 32 T data0_i [31:0] $end
$var wire 32 U data1_i [31:0] $end
$var wire 1 V select_i $end
$var reg 32 W data_o [31:0] $end
$upscope $end
$scope module Mux_Write_Reg $end
$var wire 5 X data0_i [4:0] $end
$var wire 5 Y data1_i [4:0] $end
$var wire 1 4 select_i $end
$var reg 5 Z data_o [4:0] $end
$upscope $end
$scope module PC $end
$var wire 1 ! clk_i $end
$var wire 32 [ pc_in_i [31:0] $end
$var wire 1 " rst_i $end
$var reg 32 \ pc_out_o [31:0] $end
$upscope $end
$scope module RF $end
$var wire 5 ] RDaddr_i [4:0] $end
$var wire 32 ^ RDdata_i [31:0] $end
$var wire 5 _ RSaddr_i [4:0] $end
$var wire 32 ` RSdata_o [31:0] $end
$var wire 5 a RTaddr_i [4:0] $end
$var wire 32 b RTdata_o [31:0] $end
$var wire 1 3 RegWrite_i $end
$var wire 1 ! clk_i $end
$var wire 1 " rst_i $end
$upscope $end
$scope module SE $end
$var wire 4 c ctrl_i [3:0] $end
$var wire 16 d data_i [15:0] $end
$var reg 32 e data_o [31:0] $end
$upscope $end
$scope module Shifter $end
$var wire 32 f data_i [31:0] $end
$var wire 32 g data_o [31:0] $end
$upscope $end
$upscope $end
$upscope $end
$enddefinitions $end
#0
$dumpvars
bx00 g
bx f
bx e
bx d
bx c
bx b
bx a
bx `
bx _
bx ^
bx ]
bx \
bx [
bx Z
bx Y
bx X
bx W
xV
bx U
bx T
bx S
bx R
bx Q
b100000 P
bx O
bx N
bx M
bx L
bx00 K
bx J
bx I
bx H
bx G
b100 F
bx E
bx D
bx C
bx B
bx A
bx @
bx ?
bx >
bx =
bx <
bx ;
bx :
x9
bx 8
bx 7
bx 6
bx 5
x4
x3
x2
bx 1
bx00 0
bx /
bx .
bx -
x,
x+
x*
x)
x(
bx '
bx &
bx %
bx $
x#
0"
0!
$end
#5
0#
b11 7
b11 E
b11 ^
b100 &
b100 W
b100 [
b11 B
b11 .
b11 C
b11 S
b10 8
b10 =
b10 >
b10 c
b10000 1
b10000 J
b10000 U
b1100 0
b1100 K
b1100 g
0V
b11 /
b11 Q
b11 e
b11 f
0,
0+
0)
0*
0(
02
04
19
b1 :
b1 <
b1 M
13
b1 '
b1 Z
b1 ]
b0 @
b0 ?
b11 d
b11 ;
b1000 L
b1 5
b1 R
b1 b
b1 a
b0 A
b0 6
b0 D
b0 `
b0 _
b0 Y
b1 X
b100000000000010000000000000011 -
b100000000000010000000000000011 O
b100 $
b100 G
b100 I
b100 T
b0 %
b0 H
b0 N
b0 \
1!
#10
b11 5
b11 R
b11 b
0!
1"
#15
b101 7
b101 E
b101 ^
b101 B
b101 .
b101 C
b101 S
b10100 0
b10100 K
b10100 g
b101 /
b101 Q
b101 e
b101 f
b10 '
b10 Z
b10 ]
b1000 &
b1000 W
b1000 [
b101 d
b101 ;
b10 5
b10 R
b10 b
b10 a
b10 X
b100000000000100000000000000101 -
b100000000000100000000000000101 O
b11100 1
b11100 J
b11100 U
b1000 $
b1000 G
b1000 I
b1000 T
b100 %
b100 H
b100 N
b100 \
1!
#20
0!
#25
b11000 7
b11000 E
b11000 ^
b11000 B
b11000 .
b11000 C
b11000 S
b1100000 0
b1100000 K
b1100000 g
b11000 /
b11000 Q
b11000 e
b11000 f
b11 '
b11 Z
b11 ]
b1100 &
b1100 W
b1100 [
b11000 d
b11000 ;
b11 a
b11 X
b100000000000110000000000011000 -
b100000000000110000000000011000 O
b1101100 1
b1101100 J
b1101100 U
b1100 $
b1100 G
b1100 I
b1100 T
b1000 %
b1000 H
b1000 N
b1000 \
b11 5
b11 R
b11 b
1!
#30
0!
#35
b101 B
b101 .
b101 C
b101 S
b100 8
b100 =
b100 >
b100 c
b1000000001100000 0
b1000000001100000 K
b1000000001100000 g
b10000000011000 /
b10000000011000 Q
b10000000011000 e
b10000000011000 f
14
09
b0 :
b0 <
b0 M
b1111 7
b1111 E
b1111 ^
b100 '
b100 Z
b100 ]
b10000 &
b10000 W
b10000 [
b10000000011000 d
b0 L
b10 a
b11 A
b11 6
b11 D
b11 `
b1 _
b100 Y
b10 X
b1000100010000000011000 -
b1000100010000000011000 O
b1000000001110000 1
b1000000001110000 J
b1000000001110000 U
b10000 $
b10000 G
b10000 I
b10000 T
b1100 %
b1100 H
b1100 N
b1100 \
b101 5
b101 R
b101 b
1!
#40
0!
#45
b1010000001100000 0
b1010000001100000 K
b1010000001100000 g
b10100000011000 /
b10100000011000 Q
b10100000011000 e
b10100000011000 f
b11000 B
b11000 .
b11000 C
b11000 S
b1111000 7
b1111000 E
b1111000 ^
b101 '
b101 Z
b101 ]
b10100 &
b10100 W
b10100 [
b10100000011000 d
b11000 5
b11000 R
b11000 b
b11 a
b101 A
b101 6
b101 D
b101 `
b10 _
b101 Y
b11 X
b10000110010100000011000 -
b10000110010100000011000 O
b1010000001110100 1
b1010000001110100 J
b1010000001110100 U
b10100 $
b10100 G
b10100 I
b10100 T
b10000 %
b10000 H
b10000 N
b10000 \
1!
#50
0!
#55
1#
b0 0
b0 K
b0 g
b0 /
b0 Q
b0 e
b0 f
b1101 8
b1101 =
b1101 >
b1101 c
b0 B
b0 .
b0 C
b0 S
b0 7
b0 E
b0 ^
b0 '
b0 Z
b0 ]
b11000 &
b11000 W
b11000 [
b0 d
b0 ;
b0 5
b0 R
b0 b
b0 a
b0 A
b0 6
b0 D
b0 `
b0 _
b0 Y
b0 X
b0 -
b0 O
b11000 1
b11000 J
b11000 U
b11000 $
b11000 G
b11000 I
b11000 T
b10100 %
b10100 H
b10100 N
b10100 \
1!
#60
0!
#65
b11100 &
b11100 W
b11100 [
b11100 1
b11100 J
b11100 U
b11100 $
b11100 G
b11100 I
b11100 T
b11000 %
b11000 H
b11000 N
b11000 \
1!
#70
0!
#75
b100000 &
b100000 W
b100000 [
b100000 1
b100000 J
b100000 U
b100000 $
b100000 G
b100000 I
b100000 T
b11100 %
b11100 H
b11100 N
b11100 \
1!
#80
0!
#85
b100100 &
b100100 W
b100100 [
b100100 1
b100100 J
b100100 U
b100100 $
b100100 G
b100100 I
b100100 T
b100000 %
b100000 H
b100000 N
b100000 \
1!
#90
0!
#95
b101000 &
b101000 W
b101000 [
b101000 1
b101000 J
b101000 U
b101000 $
b101000 G
b101000 I
b101000 T
b100100 %
b100100 H
b100100 N
b100100 \
1!
#100
0!
#105
b101100 &
b101100 W
b101100 [
b101100 1
b101100 J
b101100 U
b101100 $
b101100 G
b101100 I
b101100 T
b101000 %
b101000 H
b101000 N
b101000 \
1!
#110
0!
#115
b110000 &
b110000 W
b110000 [
b110000 1
b110000 J
b110000 U
b110000 $
b110000 G
b110000 I
b110000 T
b101100 %
b101100 H
b101100 N
b101100 \
1!
#120
0!
#125
b110100 &
b110100 W
b110100 [
b110100 1
b110100 J
b110100 U
b110100 $
b110100 G
b110100 I
b110100 T
b110000 %
b110000 H
b110000 N
b110000 \
1!
#130
0!
#135
b111000 &
b111000 W
b111000 [
b111000 1
b111000 J
b111000 U
b111000 $
b111000 G
b111000 I
b111000 T
b110100 %
b110100 H
b110100 N
b110100 \
1!
#140
0!
#145
b111100 &
b111100 W
b111100 [
b111100 1
b111100 J
b111100 U
b111100 $
b111100 G
b111100 I
b111100 T
b111000 %
b111000 H
b111000 N
b111000 \
1!
#150
0!
#155
b1000000 &
b1000000 W
b1000000 [
b1000000 1
b1000000 J
b1000000 U
b1000000 $
b1000000 G
b1000000 I
b1000000 T
b111100 %
b111100 H
b111100 N
b111100 \
1!
#160
0!
#165
b1000100 &
b1000100 W
b1000100 [
b1000100 1
b1000100 J
b1000100 U
b1000100 $
b1000100 G
b1000100 I
b1000100 T
b1000000 %
b1000000 H
b1000000 N
b1000000 \
1!
#170
0!
#175
b1001000 &
b1001000 W
b1001000 [
b1001000 1
b1001000 J
b1001000 U
b1001000 $
b1001000 G
b1001000 I
b1001000 T
b1000100 %
b1000100 H
b1000100 N
b1000100 \
1!
#180
0!
#185
b1001100 &
b1001100 W
b1001100 [
b1001100 1
b1001100 J
b1001100 U
b1001100 $
b1001100 G
b1001100 I
b1001100 T
b1001000 %
b1001000 H
b1001000 N
b1001000 \
1!
#190
0!
#195
b1010000 &
b1010000 W
b1010000 [
b1010000 1
b1010000 J
b1010000 U
b1010000 $
b1010000 G
b1010000 I
b1010000 T
b1001100 %
b1001100 H
b1001100 N
b1001100 \
1!
#200
0!
#205
b1010100 &
b1010100 W
b1010100 [
b1010100 1
b1010100 J
b1010100 U
b1010100 $
b1010100 G
b1010100 I
b1010100 T
b1010000 %
b1010000 H
b1010000 N
b1010000 \
1!
#210
0!
#215
b1011000 &
b1011000 W
b1011000 [
b1011000 1
b1011000 J
b1011000 U
b1011000 $
b1011000 G
b1011000 I
b1011000 T
b1010100 %
b1010100 H
b1010100 N
b1010100 \
1!
#220
0!
#225
b1011100 &
b1011100 W
b1011100 [
b1011100 1
b1011100 J
b1011100 U
b1011100 $
b1011100 G
b1011100 I
b1011100 T
b1011000 %
b1011000 H
b1011000 N
b1011000 \
1!
#230
0!
#235
b1100000 &
b1100000 W
b1100000 [
b1100000 1
b1100000 J
b1100000 U
b1100000 $
b1100000 G
b1100000 I
b1100000 T
b1011100 %
b1011100 H
b1011100 N
b1011100 \
1!
#240
0!
#245
b1100100 &
b1100100 W
b1100100 [
b1100100 1
b1100100 J
b1100100 U
b1100100 $
b1100100 G
b1100100 I
b1100100 T
b1100000 %
b1100000 H
b1100000 N
b1100000 \
1!
#250
0!
#255
b1101000 &
b1101000 W
b1101000 [
b1101000 1
b1101000 J
b1101000 U
b1101000 $
b1101000 G
b1101000 I
b1101000 T
b1100100 %
b1100100 H
b1100100 N
b1100100 \
1!
#260
0!
#265
b1101100 &
b1101100 W
b1101100 [
b1101100 1
b1101100 J
b1101100 U
b1101100 $
b1101100 G
b1101100 I
b1101100 T
b1101000 %
b1101000 H
b1101000 N
b1101000 \
1!
#270
0!
#275
b1110000 &
b1110000 W
b1110000 [
b1110000 1
b1110000 J
b1110000 U
b1110000 $
b1110000 G
b1110000 I
b1110000 T
b1101100 %
b1101100 H
b1101100 N
b1101100 \
1!
#280
0!
#285
b1110100 &
b1110100 W
b1110100 [
b1110100 1
b1110100 J
b1110100 U
b1110100 $
b1110100 G
b1110100 I
b1110100 T
b1110000 %
b1110000 H
b1110000 N
b1110000 \
1!
#290
0!
#295
b1111000 &
b1111000 W
b1111000 [
b1111000 1
b1111000 J
b1111000 U
b1111000 $
b1111000 G
b1111000 I
b1111000 T
b1110100 %
b1110100 H
b1110100 N
b1110100 \
1!
#300
0!
#305
b1111100 &
b1111100 W
b1111100 [
b1111100 1
b1111100 J
b1111100 U
b1111100 $
b1111100 G
b1111100 I
b1111100 T
b1111000 %
b1111000 H
b1111000 N
b1111000 \
1!
#310
0!
#315
b10000000 &
b10000000 W
b10000000 [
b10000000 1
b10000000 J
b10000000 U
b10000000 $
b10000000 G
b10000000 I
b10000000 T
b1111100 %
b1111100 H
b1111100 N
b1111100 \
1!
#320
0!
#325
x#
bx00 0
bx00 K
bx00 g
bx /
bx Q
bx e
bx f
bx B
bx .
bx C
bx S
bx 7
bx E
bx ^
bx '
bx Z
bx ]
b10000100 &
b10000100 W
b10000100 [
bx @
bx ?
bx d
bx ;
bx L
bx 5
bx R
bx b
bx a
bx A
bx 6
bx D
bx `
bx _
bx Y
bx X
bx -
bx O
bx 1
bx J
bx U
b10000100 $
b10000100 G
b10000100 I
b10000100 T
b10000000 %
b10000000 H
b10000000 N
b10000000 \
1!
#330
0!
#335
b10001000 &
b10001000 W
b10001000 [
b10001000 $
b10001000 G
b10001000 I
b10001000 T
b10000100 %
b10000100 H
b10000100 N
b10000100 \
1!
#340
0!
#345
b10001100 &
b10001100 W
b10001100 [
b10001100 $
b10001100 G
b10001100 I
b10001100 T
b10001000 %
b10001000 H
b10001000 N
b10001000 \
1!
#350
0!
#355
b10010000 &
b10010000 W
b10010000 [
b10010000 $
b10010000 G
b10010000 I
b10010000 T
b10001100 %
b10001100 H
b10001100 N
b10001100 \
1!
#360
0!
#365
b10010100 &
b10010100 W
b10010100 [
b10010100 $
b10010100 G
b10010100 I
b10010100 T
b10010000 %
b10010000 H
b10010000 N
b10010000 \
1!
#370
0!
#375
b10011000 &
b10011000 W
b10011000 [
b10011000 $
b10011000 G
b10011000 I
b10011000 T
b10010100 %
b10010100 H
b10010100 N
b10010100 \
1!
#380
0!
#385
b10011100 &
b10011100 W
b10011100 [
b10011100 $
b10011100 G
b10011100 I
b10011100 T
b10011000 %
b10011000 H
b10011000 N
b10011000 \
1!
#390
0!
#395
b10100000 &
b10100000 W
b10100000 [
b10100000 $
b10100000 G
b10100000 I
b10100000 T
b10011100 %
b10011100 H
b10011100 N
b10011100 \
1!
#400
0!
#405
b10100100 &
b10100100 W
b10100100 [
b10100100 $
b10100100 G
b10100100 I
b10100100 T
b10100000 %
b10100000 H
b10100000 N
b10100000 \
1!
#410
0!
#415
b10101000 &
b10101000 W
b10101000 [
b10101000 $
b10101000 G
b10101000 I
b10101000 T
b10100100 %
b10100100 H
b10100100 N
b10100100 \
1!
#420
0!
#425
b10101100 &
b10101100 W
b10101100 [
b10101100 $
b10101100 G
b10101100 I
b10101100 T
b10101000 %
b10101000 H
b10101000 N
b10101000 \
1!
#430
0!
#435
b10110000 &
b10110000 W
b10110000 [
b10110000 $
b10110000 G
b10110000 I
b10110000 T
b10101100 %
b10101100 H
b10101100 N
b10101100 \
1!
#440
0!
#445
b10110100 &
b10110100 W
b10110100 [
b10110100 $
b10110100 G
b10110100 I
b10110100 T
b10110000 %
b10110000 H
b10110000 N
b10110000 \
1!
#450
0!
#455
b10111000 &
b10111000 W
b10111000 [
b10111000 $
b10111000 G
b10111000 I
b10111000 T
b10110100 %
b10110100 H
b10110100 N
b10110100 \
1!
#460
0!
#465
b10111100 &
b10111100 W
b10111100 [
b10111100 $
b10111100 G
b10111100 I
b10111100 T
b10111000 %
b10111000 H
b10111000 N
b10111000 \
1!
#470
0!
#475
b11000000 &
b11000000 W
b11000000 [
b11000000 $
b11000000 G
b11000000 I
b11000000 T
b10111100 %
b10111100 H
b10111100 N
b10111100 \
1!
#480
0!
#485
b11000100 &
b11000100 W
b11000100 [
b11000100 $
b11000100 G
b11000100 I
b11000100 T
b11000000 %
b11000000 H
b11000000 N
b11000000 \
1!
#490
0!
#495
b11001000 &
b11001000 W
b11001000 [
b11001000 $
b11001000 G
b11001000 I
b11001000 T
b11000100 %
b11000100 H
b11000100 N
b11000100 \
1!
#500
0!
#505
b11001100 &
b11001100 W
b11001100 [
b11001100 $
b11001100 G
b11001100 I
b11001100 T
b11001000 %
b11001000 H
b11001000 N
b11001000 \
1!
#510
0!
#515
b11010000 &
b11010000 W
b11010000 [
b11010000 $
b11010000 G
b11010000 I
b11010000 T
b11001100 %
b11001100 H
b11001100 N
b11001100 \
1!
#520
0!
#525
b11010100 &
b11010100 W
b11010100 [
b11010100 $
b11010100 G
b11010100 I
b11010100 T
b11010000 %
b11010000 H
b11010000 N
b11010000 \
1!
#530
0!
#535
b11011000 &
b11011000 W
b11011000 [
b11011000 $
b11011000 G
b11011000 I
b11011000 T
b11010100 %
b11010100 H
b11010100 N
b11010100 \
1!
#540
0!
#545
b11011100 &
b11011100 W
b11011100 [
b11011100 $
b11011100 G
b11011100 I
b11011100 T
b11011000 %
b11011000 H
b11011000 N
b11011000 \
1!
#550
0!
#555
b11100000 &
b11100000 W
b11100000 [
b11100000 $
b11100000 G
b11100000 I
b11100000 T
b11011100 %
b11011100 H
b11011100 N
b11011100 \
1!
#560
0!
#565
b11100100 &
b11100100 W
b11100100 [
b11100100 $
b11100100 G
b11100100 I
b11100100 T
b11100000 %
b11100000 H
b11100000 N
b11100000 \
1!
#570
0!
#575
b11101000 &
b11101000 W
b11101000 [
b11101000 $
b11101000 G
b11101000 I
b11101000 T
b11100100 %
b11100100 H
b11100100 N
b11100100 \
1!
#580
0!
#585
b11101100 &
b11101100 W
b11101100 [
b11101100 $
b11101100 G
b11101100 I
b11101100 T
b11101000 %
b11101000 H
b11101000 N
b11101000 \
1!
#590
0!
#595
b11110000 &
b11110000 W
b11110000 [
b11110000 $
b11110000 G
b11110000 I
b11110000 T
b11101100 %
b11101100 H
b11101100 N
b11101100 \
1!
#600
0!
#605
b11110100 &
b11110100 W
b11110100 [
b11110100 $
b11110100 G
b11110100 I
b11110100 T
b11110000 %
b11110000 H
b11110000 N
b11110000 \
1!
#610
0!
#615
b11111000 &
b11111000 W
b11111000 [
b11111000 $
b11111000 G
b11111000 I
b11111000 T
b11110100 %
b11110100 H
b11110100 N
b11110100 \
1!
#620
0!
#625
b11111100 &
b11111100 W
b11111100 [
b11111100 $
b11111100 G
b11111100 I
b11111100 T
b11111000 %
b11111000 H
b11111000 N
b11111000 \
1!
#630
0!
#635
b100000000 &
b100000000 W
b100000000 [
b100000000 $
b100000000 G
b100000000 I
b100000000 T
b11111100 %
b11111100 H
b11111100 N
b11111100 \
1!
#640
0!
#645
b100000100 &
b100000100 W
b100000100 [
b100000100 $
b100000100 G
b100000100 I
b100000100 T
b100000000 %
b100000000 H
b100000000 N
b100000000 \
1!
#650
0!
#655
b100001000 &
b100001000 W
b100001000 [
b100001000 $
b100001000 G
b100001000 I
b100001000 T
b100000100 %
b100000100 H
b100000100 N
b100000100 \
1!
#660
0!
#665
b100001100 &
b100001100 W
b100001100 [
b100001100 $
b100001100 G
b100001100 I
b100001100 T
b100001000 %
b100001000 H
b100001000 N
b100001000 \
1!
#670
0!
#675
b100010000 &
b100010000 W
b100010000 [
b100010000 $
b100010000 G
b100010000 I
b100010000 T
b100001100 %
b100001100 H
b100001100 N
b100001100 \
1!
#680
0!
#685
b100010100 &
b100010100 W
b100010100 [
b100010100 $
b100010100 G
b100010100 I
b100010100 T
b100010000 %
b100010000 H
b100010000 N
b100010000 \
1!
#690
0!
#695
b100011000 &
b100011000 W
b100011000 [
b100011000 $
b100011000 G
b100011000 I
b100011000 T
b100010100 %
b100010100 H
b100010100 N
b100010100 \
1!
#700
0!
#705
b100011100 &
b100011100 W
b100011100 [
b100011100 $
b100011100 G
b100011100 I
b100011100 T
b100011000 %
b100011000 H
b100011000 N
b100011000 \
1!
#710
0!
#715
b100100000 &
b100100000 W
b100100000 [
b100100000 $
b100100000 G
b100100000 I
b100100000 T
b100011100 %
b100011100 H
b100011100 N
b100011100 \
1!
#720
0!
#725
b100100100 &
b100100100 W
b100100100 [
b100100100 $
b100100100 G
b100100100 I
b100100100 T
b100100000 %
b100100000 H
b100100000 N
b100100000 \
1!
#730
0!
#735
b100101000 &
b100101000 W
b100101000 [
b100101000 $
b100101000 G
b100101000 I
b100101000 T
b100100100 %
b100100100 H
b100100100 N
b100100100 \
1!
#740
0!
#745
b100101100 &
b100101100 W
b100101100 [
b100101100 $
b100101100 G
b100101100 I
b100101100 T
b100101000 %
b100101000 H
b100101000 N
b100101000 \
1!
#750
0!
#755
b100110000 &
b100110000 W
b100110000 [
b100110000 $
b100110000 G
b100110000 I
b100110000 T
b100101100 %
b100101100 H
b100101100 N
b100101100 \
1!
#760
0!
#765
b100110100 &
b100110100 W
b100110100 [
b100110100 $
b100110100 G
b100110100 I
b100110100 T
b100110000 %
b100110000 H
b100110000 N
b100110000 \
1!
#770
0!
#775
b100111000 &
b100111000 W
b100111000 [
b100111000 $
b100111000 G
b100111000 I
b100111000 T
b100110100 %
b100110100 H
b100110100 N
b100110100 \
1!
#780
0!
#785
b100111100 &
b100111100 W
b100111100 [
b100111100 $
b100111100 G
b100111100 I
b100111100 T
b100111000 %
b100111000 H
b100111000 N
b100111000 \
1!
#790
0!
#795
b101000000 &
b101000000 W
b101000000 [
b101000000 $
b101000000 G
b101000000 I
b101000000 T
b100111100 %
b100111100 H
b100111100 N
b100111100 \
1!
#800
0!
#805
b101000100 &
b101000100 W
b101000100 [
b101000100 $
b101000100 G
b101000100 I
b101000100 T
b101000000 %
b101000000 H
b101000000 N
b101000000 \
1!
#810
0!
#815
b101001000 &
b101001000 W
b101001000 [
b101001000 $
b101001000 G
b101001000 I
b101001000 T
b101000100 %
b101000100 H
b101000100 N
b101000100 \
1!
#820
0!
#825
b101001100 &
b101001100 W
b101001100 [
b101001100 $
b101001100 G
b101001100 I
b101001100 T
b101001000 %
b101001000 H
b101001000 N
b101001000 \
1!
#830
0!
#835
b101010000 &
b101010000 W
b101010000 [
b101010000 $
b101010000 G
b101010000 I
b101010000 T
b101001100 %
b101001100 H
b101001100 N
b101001100 \
1!
#840
0!
#845
b101010100 &
b101010100 W
b101010100 [
b101010100 $
b101010100 G
b101010100 I
b101010100 T
b101010000 %
b101010000 H
b101010000 N
b101010000 \
1!
#850
0!
#855
b101011000 &
b101011000 W
b101011000 [
b101011000 $
b101011000 G
b101011000 I
b101011000 T
b101010100 %
b101010100 H
b101010100 N
b101010100 \
1!
#860
0!
#865
b101011100 &
b101011100 W
b101011100 [
b101011100 $
b101011100 G
b101011100 I
b101011100 T
b101011000 %
b101011000 H
b101011000 N
b101011000 \
1!
#870
0!
#875
b101100000 &
b101100000 W
b101100000 [
b101100000 $
b101100000 G
b101100000 I
b101100000 T
b101011100 %
b101011100 H
b101011100 N
b101011100 \
1!
#880
0!
#885
b101100100 &
b101100100 W
b101100100 [
b101100100 $
b101100100 G
b101100100 I
b101100100 T
b101100000 %
b101100000 H
b101100000 N
b101100000 \
1!
#890
0!
#895
b101101000 &
b101101000 W
b101101000 [
b101101000 $
b101101000 G
b101101000 I
b101101000 T
b101100100 %
b101100100 H
b101100100 N
b101100100 \
1!
#900
0!
#905
b101101100 &
b101101100 W
b101101100 [
b101101100 $
b101101100 G
b101101100 I
b101101100 T
b101101000 %
b101101000 H
b101101000 N
b101101000 \
1!
#910
0!
#915
b101110000 &
b101110000 W
b101110000 [
b101110000 $
b101110000 G
b101110000 I
b101110000 T
b101101100 %
b101101100 H
b101101100 N
b101101100 \
1!
#920
0!
#925
b101110100 &
b101110100 W
b101110100 [
b101110100 $
b101110100 G
b101110100 I
b101110100 T
b101110000 %
b101110000 H
b101110000 N
b101110000 \
1!
#930
0!
#935
b101111000 &
b101111000 W
b101111000 [
b101111000 $
b101111000 G
b101111000 I
b101111000 T
b101110100 %
b101110100 H
b101110100 N
b101110100 \
1!
#940
0!
#945
b101111100 &
b101111100 W
b101111100 [
b101111100 $
b101111100 G
b101111100 I
b101111100 T
b101111000 %
b101111000 H
b101111000 N
b101111000 \
1!
#950
0!
#955
b110000000 &
b110000000 W
b110000000 [
b110000000 $
b110000000 G
b110000000 I
b110000000 T
b101111100 %
b101111100 H
b101111100 N
b101111100 \
1!
#960
0!
#965
b110000100 &
b110000100 W
b110000100 [
b110000100 $
b110000100 G
b110000100 I
b110000100 T
b110000000 %
b110000000 H
b110000000 N
b110000000 \
1!
#970
0!
#975
b110001000 &
b110001000 W
b110001000 [
b110001000 $
b110001000 G
b110001000 I
b110001000 T
b110000100 %
b110000100 H
b110000100 N
b110000100 \
1!
#980
0!
#985
b110001100 &
b110001100 W
b110001100 [
b110001100 $
b110001100 G
b110001100 I
b110001100 T
b110001000 %
b110001000 H
b110001000 N
b110001000 \
1!
#990
0!
#995
b110010000 &
b110010000 W
b110010000 [
b110010000 $
b110010000 G
b110010000 I
b110010000 T
b110001100 %
b110001100 H
b110001100 N
b110001100 \
1!
#1000
0!
#1005
b110010100 &
b110010100 W
b110010100 [
b110010100 $
b110010100 G
b110010100 I
b110010100 T
b110010000 %
b110010000 H
b110010000 N
b110010000 \
1!
#1010
0!
#1015
b110011000 &
b110011000 W
b110011000 [
b110011000 $
b110011000 G
b110011000 I
b110011000 T
b110010100 %
b110010100 H
b110010100 N
b110010100 \
1!
#1020
0!
#1025
b110011100 &
b110011100 W
b110011100 [
b110011100 $
b110011100 G
b110011100 I
b110011100 T
b110011000 %
b110011000 H
b110011000 N
b110011000 \
1!
#1030
0!
#1035
b110100000 &
b110100000 W
b110100000 [
b110100000 $
b110100000 G
b110100000 I
b110100000 T
b110011100 %
b110011100 H
b110011100 N
b110011100 \
1!
#1040
0!
#1045
b110100100 &
b110100100 W
b110100100 [
b110100100 $
b110100100 G
b110100100 I
b110100100 T
b110100000 %
b110100000 H
b110100000 N
b110100000 \
1!
#1050
0!
#1055
b110101000 &
b110101000 W
b110101000 [
b110101000 $
b110101000 G
b110101000 I
b110101000 T
b110100100 %
b110100100 H
b110100100 N
b110100100 \
1!
#1060
0!
#1065
b110101100 &
b110101100 W
b110101100 [
b110101100 $
b110101100 G
b110101100 I
b110101100 T
b110101000 %
b110101000 H
b110101000 N
b110101000 \
1!
#1070
0!
#1075
b110110000 &
b110110000 W
b110110000 [
b110110000 $
b110110000 G
b110110000 I
b110110000 T
b110101100 %
b110101100 H
b110101100 N
b110101100 \
1!
#1080
0!
#1085
b110110100 &
b110110100 W
b110110100 [
b110110100 $
b110110100 G
b110110100 I
b110110100 T
b110110000 %
b110110000 H
b110110000 N
b110110000 \
1!
#1090
0!
#1095
b110111000 &
b110111000 W
b110111000 [
b110111000 $
b110111000 G
b110111000 I
b110111000 T
b110110100 %
b110110100 H
b110110100 N
b110110100 \
1!
#1100
0!
#1105
b110111100 &
b110111100 W
b110111100 [
b110111100 $
b110111100 G
b110111100 I
b110111100 T
b110111000 %
b110111000 H
b110111000 N
b110111000 \
1!
#1110
0!
#1115
b111000000 &
b111000000 W
b111000000 [
b111000000 $
b111000000 G
b111000000 I
b111000000 T
b110111100 %
b110111100 H
b110111100 N
b110111100 \
1!
#1120
0!
#1125
b111000100 &
b111000100 W
b111000100 [
b111000100 $
b111000100 G
b111000100 I
b111000100 T
b111000000 %
b111000000 H
b111000000 N
b111000000 \
1!
#1130
0!
#1135
b111001000 &
b111001000 W
b111001000 [
b111001000 $
b111001000 G
b111001000 I
b111001000 T
b111000100 %
b111000100 H
b111000100 N
b111000100 \
1!
#1140
0!
#1145
b111001100 &
b111001100 W
b111001100 [
b111001100 $
b111001100 G
b111001100 I
b111001100 T
b111001000 %
b111001000 H
b111001000 N
b111001000 \
1!
#1150
0!
#1155
b111010000 &
b111010000 W
b111010000 [
b111010000 $
b111010000 G
b111010000 I
b111010000 T
b111001100 %
b111001100 H
b111001100 N
b111001100 \
1!
#1160
0!
#1165
b111010100 &
b111010100 W
b111010100 [
b111010100 $
b111010100 G
b111010100 I
b111010100 T
b111010000 %
b111010000 H
b111010000 N
b111010000 \
1!
#1170
0!
#1175
b111011000 &
b111011000 W
b111011000 [
b111011000 $
b111011000 G
b111011000 I
b111011000 T
b111010100 %
b111010100 H
b111010100 N
b111010100 \
1!
#1180
0!
#1185
b111011100 &
b111011100 W
b111011100 [
b111011100 $
b111011100 G
b111011100 I
b111011100 T
b111011000 %
b111011000 H
b111011000 N
b111011000 \
1!
#1190
0!
