sample_code/lab3_cpu.vcd
$date
	Sun May 24 14:25:03 2020
$end
$version
	Icarus Verilog
$end
$timescale
	1s
$end
$scope module TestBench $end
$scope module cpu $end
$var wire 1 ! clk_i $end
$var wire 1 " rst_i $end
$var wire 1 # zero_alu $end
$var wire 32 $ write_data2 [31:0] $end
$var wire 5 % tmp_number_WriteReg_fromMux [4:0] $end
$var wire 32 & tmp_jump_address [31:0] $end
$var wire 32 ' tmp [31:0] $end
$var wire 32 ( pc_plus_4 [31:0] $end
$var wire 32 ) pc_out [31:0] $end
$var wire 32 * pc_in [31:0] $end
$var wire 5 + number_WriteReg_fromMux [4:0] $end
$var wire 1 , mem_write $end
$var wire 1 - mem_reg $end
$var wire 1 . mem_read $end
$var wire 32 / jump_address [31:0] $end
$var wire 1 0 jump $end
$var wire 1 1 jr $end
$var wire 1 2 jal $end
$var wire 32 3 instruction [31:0] $end
$var wire 32 4 data_into_ALU_after_mux [31:0] $end
$var wire 32 5 data_after_se [31:0] $end
$var wire 32 6 data_after_left2 [31:0] $end
$var wire 1 7 branch_type_or_not $end
$var wire 2 8 branch_type [1:0] $end
$var wire 32 9 branch_target_addr [31:0] $end
$var wire 32 : branch_address [31:0] $end
$var wire 1 ; branch $end
$var wire 1 < RegWrite $end
$var wire 1 = RegDst $end
$var wire 32 > RT_data [31:0] $end
$var wire 32 ? RS_data [31:0] $end
$var wire 32 @ RD_data [31:0] $end
$var wire 4 A AlU_control [3:0] $end
$var wire 1 B ALUSrc $end
$var wire 3 C ALUOp [2:0] $end
$scope module AC $end
$var wire 6 D funct_i [5:0] $end
$var wire 3 E ALUOp_i [2:0] $end
$var reg 4 F ALUCtrl_o [3:0] $end
$var reg 1 1 jr_o $end
$upscope $end
$scope module ALU $end
$var wire 4 G ctrl_i [3:0] $end
$var wire 5 H shamt_i [4:0] $end
$var wire 5 I tmp_shamt [4:0] $end
$var wire 32 J tmp_src1 [31:0] $end
$var wire 32 K tmp_src2 [31:0] $end
$var wire 32 L src2_i [31:0] $end
$var wire 32 M src1_i [31:0] $end
$var reg 32 N result_o [31:0] $end
$var reg 1 # zero_o $end
$upscope $end
$scope module Adder1 $end
$var wire 32 O src2_i [31:0] $end
$var wire 32 P sum_o [31:0] $end
$var wire 32 Q src1_i [31:0] $end
$upscope $end
$scope module Adder2 $end
$var wire 32 R src1_i [31:0] $end
$var wire 32 S sum_o [31:0] $end
$var wire 32 T src2_i [31:0] $end
$upscope $end
$scope module Decoder $end
$var wire 6 U instr_op_i [5:0] $end
$var reg 1 B ALUSrc_o $end
$var reg 3 V ALU_op_o [2:0] $end
$var reg 1 ; Branch_o $end
$var reg 1 = RegDst_o $end
$var reg 1 < RegWrite_o $end
$var reg 2 W branch_type_o [1:0] $end
$var reg 1 2 jal_o $end
$var reg 1 0 jump_o $end
$var reg 1 . mem_read_o $end
$var reg 1 - mem_to_reg $end
$var reg 1 , mem_write_o $end
$upscope $end
$scope module IM $end
$var wire 32 X pc_addr_i [31:0] $end
$var reg 32 Y instr_o [31:0] $end
$var integer 32 Z i [31:0] $end
$upscope $end
$scope module Jump_address $end
$var wire 32 [ data_i [31:0] $end
$var wire 32 \ data_o [31:0] $end
$upscope $end
$scope module Mux_ALUSrc $end
$var wire 1 B select_i $end
$var wire 32 ] data1_i [31:0] $end
$var wire 32 ^ data0_i [31:0] $end
$var reg 32 _ data_o [31:0] $end
$upscope $end
$scope module Mux_PC_Source $end
$var wire 32 ` data0_i [31:0] $end
$var wire 32 a data1_i [31:0] $end
$var wire 1 b select_i $end
$var reg 32 c data_o [31:0] $end
$upscope $end
$scope module Mux_Write_Reg $end
$var wire 5 d data0_i [4:0] $end
$var wire 5 e data1_i [4:0] $end
$var wire 1 = select_i $end
$var reg 5 f data_o [4:0] $end
$upscope $end
$scope module Mux_Write_Reg_or_jal $end
$var wire 5 g data0_i [4:0] $end
$var wire 5 h data1_i [4:0] $end
$var wire 1 2 select_i $end
$var reg 5 i data_o [4:0] $end
$upscope $end
$scope module Mux_jump $end
$var wire 32 j data0_i [31:0] $end
$var wire 32 k data1_i [31:0] $end
$var wire 1 0 select_i $end
$var reg 32 l data_o [31:0] $end
$upscope $end
$scope module PC $end
$var wire 1 ! clk_i $end
$var wire 32 m pc_in_i [31:0] $end
$var wire 1 " rst_i $end
$var reg 32 n pc_out_o [31:0] $end
$upscope $end
$scope module RF $end
$var wire 5 o RDaddr_i [4:0] $end
$var wire 5 p RSaddr_i [4:0] $end
$var wire 32 q RSdata_o [31:0] $end
$var wire 5 r RTaddr_i [4:0] $end
$var wire 32 s RTdata_o [31:0] $end
$var wire 1 < RegWrite_i $end
$var wire 1 ! clk_i $end
$var wire 1 " rst_i $end
$var wire 32 t RDdata_i [31:0] $end
$upscope $end
$scope module SE $end
$var wire 4 u ctrl_i [3:0] $end
$var wire 16 v data_i [15:0] $end
$var reg 32 w data_o [31:0] $end
$upscope $end
$scope module Shifter $end
$var wire 32 x data_i [31:0] $end
$var wire 32 y data_o [31:0] $end
$upscope $end
$scope module branchtype $end
$var wire 1 z ALU_result_i $end
$var wire 2 { Branch_type_i [1:0] $end
$var wire 1 # Zero_i $end
$var reg 1 7 branch_type_result_o $end
$upscope $end
$scope module write_data $end
$var wire 32 | data0_i [31:0] $end
$var wire 32 } data1_i [31:0] $end
$var wire 1 2 select_i $end
$var reg 32 ~ data_o [31:0] $end
$upscope $end
$upscope $end
$upscope $end
$enddefinitions $end
#0
$dumpvars
bx ~
bx }
bx |
bx {
xz
bx00 y
bx x
bx w
bx v
bx u
bx t
bx s
bx r
bx q
bx p
bx o
bx n
bx m
bx l
b0xxxxxxxxxxxxxxxxxxxxxxxxxxxx00 k
bx j
bx i
b11111 h
bx g
bx f
bx e
bx d
bx c
xb
bx a
bx `
bx _
bx ^
bx ]
bx00000000 \
bx000000 [
b100000 Z
bx Y
bx X
bx W
bx V
bx U
bx00 T
bx S
bx R
bx Q
bx P
b100 O
bx N
bx M
bx L
bx K
bx J
bx I
bx H
bx G
bx F
bx E
bx D
bx C
xB
bx A
bx @
bx ?
bx >
x=
x<
x;
bx :
bx 9
bx 8
x7
bx00 6
bx 5
bx 4
bx 3
x2
x1
x0
b0xxxxxxxxxxxxxxxxxxxxxxxxxxxx00 /
x.
x-
x,
bx +
bx *
bx )
bx (
bx000000 '
bx00000000 &
bx %
bx $
x#
0"
0!
$end
#5
b0 $
b0 t
b0 ~
0z
b100 *
b100 l
b100 m
b0 @
b0 N
b0 |
b100 :
b100 c
b100 j
b0 K
b0 4
b0 L
b0 _
b10 A
b10 F
b10 G
b10 u
17
b1 +
b1 i
b1 o
b100 9
b100 S
b100 a
b0 6
b0 T
b0 y
0b
b0 5
b0 ]
b0 w
b0 x
01
02
b0 8
b0 W
b0 {
00
0-
0.
0,
0;
0=
1B
b1 C
b1 E
b1 V
1<
1#
b1 %
b1 f
b1 g
b1000000000000000000000000 &
b1000000000000000000000000 \
b10000000000000000000000 '
b10000000000000000000000 [
b0 I
b0 H
b0 v
b0 D
b1000 U
b1 >
b1 ^
b1 s
b1 r
b0 J
b0 ?
b0 M
b0 q
b0 p
b0 e
b1 d
b1000000000000000000 /
b1000000000000000000 k
b100000000000010000000000000000 3
b100000000000010000000000000000 Y
b100 (
b100 P
b100 R
b100 `
b100 }
b0 )
b0 Q
b0 X
b0 n
1!
#10
b0 >
b0 ^
b0 s
0!
1"
#15
b10 +
b10 i
b10 o
b1000 *
b1000 l
b1000 m
b10 %
b10 f
b10 g
b1000 :
b1000 c
b1000 j
b10000000000000000000 /
b10000000000000000000 k
b10000000000000000000000000 &
b10000000000000000000000000 \
b100000000000000000000000 '
b100000000000000000000000 [
b10 >
b10 ^
b10 s
b10 r
b10 d
b100000000000100000000000000000 3
b100000000000100000000000000000 Y
b1000 9
b1000 S
b1000 a
b1000 (
b1000 P
b1000 R
b1000 `
b1000 }
b100 )
b100 Q
b100 X
b100 n
1!
#20
0!
#25
b11 +
b11 i
b11 o
b1100 *
b1100 l
b1100 m
b11 %
b11 f
b11 g
b1100 :
b1100 c
b1100 j
b11000000000000000000 /
b11000000000000000000 k
b11000000000000000000000000 &
b11000000000000000000000000 \
b110000000000000000000000 '
b110000000000000000000000 [
b11 r
b11 d
b100000000000110000000000000000 3
b100000000000110000000000000000 Y
b1100 9
b1100 S
b1100 a
b1100 (
b1100 P
b1100 R
b1100 `
b1100 }
b1000 )
b1000 Q
b1000 X
b1000 n
b11 >
b11 ^
b11 s
1!
#30
0!
#35
b100 +
b100 i
b100 o
b10000 *
b10000 l
b10000 m
b100 %
b100 f
b100 g
b10000 :
b10000 c
b10000 j
b100000000000000000000 /
b100000000000000000000 k
b100000000000000000000000000 &
b100000000000000000000000000 \
b1000000000000000000000000 '
b1000000000000000000000000 [
b100 r
b100 d
b100000000001000000000000000000 3
b100000000001000000000000000000 Y
b10000 9
b10000 S
b10000 a
b10000 (
b10000 P
b10000 R
b10000 `
b10000 }
b1100 )
b1100 Q
b1100 X
b1100 n
b100 >
b100 ^
b100 s
1!
#40
0!
#45
b101 +
b101 i
b101 o
b10100 *
b10100 l
b10100 m
b101 %
b101 f
b101 g
b10100 :
b10100 c
b10100 j
b101000000000000000000 /
b101000000000000000000 k
b101000000000000000000000000 &
b101000000000000000000000000 \
b1010000000000000000000000 '
b1010000000000000000000000 [
b101 r
b101 d
b100000000001010000000000000000 3
b100000000001010000000000000000 Y
b10100 9
b10100 S
b10100 a
b10100 (
b10100 P
b10100 R
b10100 `
b10100 }
b10000 )
b10000 Q
b10000 X
b10000 n
b101 >
b101 ^
b101 s
1!
#50
0!
#55
b11000 $
b11000 t
b11000 ~
b11111 +
b11111 i
b11111 o
b100100 *
b100100 l
b100100 m
b100100 6
b100100 T
b100100 y
b1001 5
b1001 ]
b1001 w
b1001 x
12
10
0B
b0 C
b0 E
b0 V
b0 %
b0 f
b0 g
b11000 :
b11000 c
b11000 j
b100100 /
b100100 k
b100100000000 &
b100100000000 \
b1001000000 '
b1001000000 [
b1001 v
b1001 D
b11 U
b0 r
b0 d
b1100000000000000000000001001 3
b1100000000000000000000001001 Y
b111100 9
b111100 S
b111100 a
b11000 (
b11000 P
b11000 R
b11000 `
b11000 }
b10100 )
b10100 Q
b10100 X
b10100 n
b0 >
b0 ^
b0 s
1!
#60
0!
#65
07
0#
b100 @
b100 N
b100 |
b100 K
b100 4
b100 L
b100 _
b100 +
b100 i
b100 o
b10000 6
b10000 T
b10000 y
b101000 *
b101000 l
b101000 m
b100 5
b100 ]
b100 w
b100 x
02
00
1B
b1 C
b1 E
b1 V
b100 %
b100 f
b100 g
b101000 :
b101000 c
b101000 j
b100 $
b100 t
b100 ~
b100000000000000010000 /
b100000000000000010000 k
b100000000000000010000000000 &
b100000000000000010000000000 \
b1000000000000000100000000 '
b1000000000000000100000000 [
b100 v
b100 D
b1000 U
b100 r
b100 d
b100000000001000000000000000100 3
b100000000001000000000000000100 Y
b111000 9
b111000 S
b111000 a
b101000 (
b101000 P
b101000 R
b101000 `
b101000 }
b100100 )
b100100 Q
b100100 X
b100100 n
1!
#70
0!
#75
b101 $
b101 t
b101 ~
b101 @
b101 N
b101 |
b101 K
b101 4
b101 L
b101 _
b101 +
b101 i
b101 o
b101100 *
b101100 l
b101100 m
b10100 6
b10100 T
b10100 y
b101 5
b101 ]
b101 w
b101 x
b101 %
b101 f
b101 g
b101100 :
b101100 c
b101100 j
b101000000000000010100 /
b101000000000000010100 k
b101000000000000010100000000 &
b101000000000000010100000000 \
b1010000000000000101000000 '
b1010000000000000101000000 [
b101 v
b101 D
b101 r
b101 d
b100000000001010000000000000101 3
b100000000001010000000000000101 Y
b1000000 9
b1000000 S
b1000000 a
b101100 (
b101100 P
b101100 R
b101100 `
b101100 }
b101000 )
b101000 Q
b101000 X
b101000 n
b0 >
b0 ^
b0 s
1!
#80
0!
#85
17
1#
b0 $
b0 t
b0 ~
b0 @
b0 N
b0 |
b0 K
b0 4
b0 L
b0 _
b1101 A
b1101 F
b1101 G
b1101 u
b0 +
b0 i
b0 o
b110000 *
b110000 l
b110000 m
b0 6
b0 T
b0 y
b0 5
b0 ]
b0 w
b0 x
1=
0B
b0 C
b0 E
b0 V
b0 %
b0 f
b0 g
b110000 :
b110000 c
b110000 j
b0 /
b0 k
b0 &
b0 \
b0 '
b0 [
b0 v
b0 D
b0 U
b0 r
b0 d
b0 3
b0 Y
b110000 9
b110000 S
b110000 a
b110000 (
b110000 P
b110000 R
b110000 `
b110000 }
b101100 )
b101100 Q
b101100 X
b101100 n
b0 >
b0 ^
b0 s
1!
#90
0!
#95
b110100 *
b110100 l
b110100 m
b110100 :
b110100 c
b110100 j
b110100 9
b110100 S
b110100 a
b110100 (
b110100 P
b110100 R
b110100 `
b110100 }
b110000 )
b110000 Q
b110000 X
b110000 n
1!
#100
0!
#105
b111000 *
b111000 l
b111000 m
b111000 :
b111000 c
b111000 j
b111000 9
b111000 S
b111000 a
b111000 (
b111000 P
b111000 R
b111000 `
b111000 }
b110100 )
b110100 Q
b110100 X
b110100 n
1!
#110
0!
#115
b111100 *
b111100 l
b111100 m
b111100 :
b111100 c
b111100 j
b111100 9
b111100 S
b111100 a
b111100 (
b111100 P
b111100 R
b111100 `
b111100 }
b111000 )
b111000 Q
b111000 X
b111000 n
1!
#120
0!
#125
b1000000 *
b1000000 l
b1000000 m
b1000000 :
b1000000 c
b1000000 j
b1000000 9
b1000000 S
b1000000 a
b1000000 (
b1000000 P
b1000000 R
b1000000 `
b1000000 }
b111100 )
b111100 Q
b111100 X
b111100 n
1!
#130
0!
#135
b1000100 *
b1000100 l
b1000100 m
b1000100 :
b1000100 c
b1000100 j
b1000100 9
b1000100 S
b1000100 a
b1000100 (
b1000100 P
b1000100 R
b1000100 `
b1000100 }
b1000000 )
b1000000 Q
b1000000 X
b1000000 n
1!
#140
0!
#145
b1001000 *
b1001000 l
b1001000 m
b1001000 :
b1001000 c
b1001000 j
b1001000 9
b1001000 S
b1001000 a
b1001000 (
b1001000 P
b1001000 R
b1001000 `
b1001000 }
b1000100 )
b1000100 Q
b1000100 X
b1000100 n
1!
#150
0!
#155
b1001100 *
b1001100 l
b1001100 m
b1001100 :
b1001100 c
b1001100 j
b1001100 9
b1001100 S
b1001100 a
b1001100 (
b1001100 P
b1001100 R
b1001100 `
b1001100 }
b1001000 )
b1001000 Q
b1001000 X
b1001000 n
1!
#160
0!
#165
b1010000 *
b1010000 l
b1010000 m
b1010000 :
b1010000 c
b1010000 j
b1010000 9
b1010000 S
b1010000 a
b1010000 (
b1010000 P
b1010000 R
b1010000 `
b1010000 }
b1001100 )
b1001100 Q
b1001100 X
b1001100 n
1!
#170
0!
#175
b1010100 *
b1010100 l
b1010100 m
b1010100 :
b1010100 c
b1010100 j
b1010100 9
b1010100 S
b1010100 a
b1010100 (
b1010100 P
b1010100 R
b1010100 `
b1010100 }
b1010000 )
b1010000 Q
b1010000 X
b1010000 n
1!
#180
0!
#185
b1011000 *
b1011000 l
b1011000 m
b1011000 :
b1011000 c
b1011000 j
b1011000 9
b1011000 S
b1011000 a
b1011000 (
b1011000 P
b1011000 R
b1011000 `
b1011000 }
b1010100 )
b1010100 Q
b1010100 X
b1010100 n
1!
#190
0!
#195
b1011100 *
b1011100 l
b1011100 m
b1011100 :
b1011100 c
b1011100 j
b1011100 9
b1011100 S
b1011100 a
b1011100 (
b1011100 P
b1011100 R
b1011100 `
b1011100 }
b1011000 )
b1011000 Q
b1011000 X
b1011000 n
1!
#200
0!
#205
b1100000 *
b1100000 l
b1100000 m
b1100000 :
b1100000 c
b1100000 j
b1100000 9
b1100000 S
b1100000 a
b1100000 (
b1100000 P
b1100000 R
b1100000 `
b1100000 }
b1011100 )
b1011100 Q
b1011100 X
b1011100 n
1!
#210
0!
#215
b1100100 *
b1100100 l
b1100100 m
b1100100 :
b1100100 c
b1100100 j
b1100100 9
b1100100 S
b1100100 a
b1100100 (
b1100100 P
b1100100 R
b1100100 `
b1100100 }
b1100000 )
b1100000 Q
b1100000 X
b1100000 n
1!
#220
0!
#225
b1101000 *
b1101000 l
b1101000 m
b1101000 :
b1101000 c
b1101000 j
b1101000 9
b1101000 S
b1101000 a
b1101000 (
b1101000 P
b1101000 R
b1101000 `
b1101000 }
b1100100 )
b1100100 Q
b1100100 X
b1100100 n
1!
#230
0!
#235
b1101100 *
b1101100 l
b1101100 m
b1101100 :
b1101100 c
b1101100 j
b1101100 9
b1101100 S
b1101100 a
b1101100 (
b1101100 P
b1101100 R
b1101100 `
b1101100 }
b1101000 )
b1101000 Q
b1101000 X
b1101000 n
1!
#240
0!
#245
b1110000 *
b1110000 l
b1110000 m
b1110000 :
b1110000 c
b1110000 j
b1110000 9
b1110000 S
b1110000 a
b1110000 (
b1110000 P
b1110000 R
b1110000 `
b1110000 }
b1101100 )
b1101100 Q
b1101100 X
b1101100 n
1!
#250
0!
#255
b1110100 *
b1110100 l
b1110100 m
b1110100 :
b1110100 c
b1110100 j
b1110100 9
b1110100 S
b1110100 a
b1110100 (
b1110100 P
b1110100 R
b1110100 `
b1110100 }
b1110000 )
b1110000 Q
b1110000 X
b1110000 n
1!
#260
0!
#265
b1111000 *
b1111000 l
b1111000 m
b1111000 :
b1111000 c
b1111000 j
b1111000 9
b1111000 S
b1111000 a
b1111000 (
b1111000 P
b1111000 R
b1111000 `
b1111000 }
b1110100 )
b1110100 Q
b1110100 X
b1110100 n
1!
#270
0!
#275
b1111100 *
b1111100 l
b1111100 m
b1111100 :
b1111100 c
b1111100 j
b1111100 9
b1111100 S
b1111100 a
b1111100 (
b1111100 P
b1111100 R
b1111100 `
b1111100 }
b1111000 )
b1111000 Q
b1111000 X
b1111000 n
1!
#280
0!
#285
b10000000 *
b10000000 l
b10000000 m
b10000000 :
b10000000 c
b10000000 j
b10000000 9
b10000000 S
b10000000 a
b10000000 (
b10000000 P
b10000000 R
b10000000 `
b10000000 }
b1111100 )
b1111100 Q
b1111100 X
b1111100 n
1!
#290
0!
#295
07
0#
bx $
bx t
bx ~
bx +
bx i
bx o
b10000100 *
b10000100 l
b10000100 m
bx00 6
bx00 T
bx00 y
xz
bx 5
bx ]
bx w
bx x
bx K
bx 4
bx L
bx _
bx @
bx N
bx |
bx %
bx f
bx g
b10000100 :
b10000100 c
b10000100 j
b0xxxxxxxxxxxxxxxxxxxxxxxx00 /
b0xxxxxxxxxxxxxxxxxxxxxxxx00 k
bx00000000 &
bx00000000 \
bx000000 '
bx000000 [
bx I
bx H
bx v
bx D
bx U
bx >
bx ^
bx s
bx r
bx J
bx ?
bx M
bx q
bx p
bx e
bx d
bx 3
bx Y
bx 9
bx S
bx a
b10000100 (
b10000100 P
b10000100 R
b10000100 `
b10000100 }
b10000000 )
b10000000 Q
b10000000 X
b10000000 n
1!
#300
0!
#305
b10001000 *
b10001000 l
b10001000 m
b10001000 :
b10001000 c
b10001000 j
b10001000 (
b10001000 P
b10001000 R
b10001000 `
b10001000 }
b10000100 )
b10000100 Q
b10000100 X
b10000100 n
1!
#310
0!
#315
b10001100 *
b10001100 l
b10001100 m
b10001100 :
b10001100 c
b10001100 j
b10001100 (
b10001100 P
b10001100 R
b10001100 `
b10001100 }
b10001000 )
b10001000 Q
b10001000 X
b10001000 n
1!
#320
0!
#325
b10010000 *
b10010000 l
b10010000 m
b10010000 :
b10010000 c
b10010000 j
b10010000 (
b10010000 P
b10010000 R
b10010000 `
b10010000 }
b10001100 )
b10001100 Q
b10001100 X
b10001100 n
1!
#330
0!
#335
b10010100 *
b10010100 l
b10010100 m
b10010100 :
b10010100 c
b10010100 j
b10010100 (
b10010100 P
b10010100 R
b10010100 `
b10010100 }
b10010000 )
b10010000 Q
b10010000 X
b10010000 n
1!
#340
0!
#345
b10011000 *
b10011000 l
b10011000 m
b10011000 :
b10011000 c
b10011000 j
b10011000 (
b10011000 P
b10011000 R
b10011000 `
b10011000 }
b10010100 )
b10010100 Q
b10010100 X
b10010100 n
1!
#350
0!
#355
b10011100 *
b10011100 l
b10011100 m
b10011100 :
b10011100 c
b10011100 j
b10011100 (
b10011100 P
b10011100 R
b10011100 `
b10011100 }
b10011000 )
b10011000 Q
b10011000 X
b10011000 n
1!
#360
0!
#365
b10100000 *
b10100000 l
b10100000 m
b10100000 :
b10100000 c
b10100000 j
b10100000 (
b10100000 P
b10100000 R
b10100000 `
b10100000 }
b10011100 )
b10011100 Q
b10011100 X
b10011100 n
1!
#370
0!
#375
b10100100 *
b10100100 l
b10100100 m
b10100100 :
b10100100 c
b10100100 j
b10100100 (
b10100100 P
b10100100 R
b10100100 `
b10100100 }
b10100000 )
b10100000 Q
b10100000 X
b10100000 n
1!
#380
0!
#385
b10101000 *
b10101000 l
b10101000 m
b10101000 :
b10101000 c
b10101000 j
b10101000 (
b10101000 P
b10101000 R
b10101000 `
b10101000 }
b10100100 )
b10100100 Q
b10100100 X
b10100100 n
1!
#390
0!
#395
b10101100 *
b10101100 l
b10101100 m
b10101100 :
b10101100 c
b10101100 j
b10101100 (
b10101100 P
b10101100 R
b10101100 `
b10101100 }
b10101000 )
b10101000 Q
b10101000 X
b10101000 n
1!
#400
0!
#405
b10110000 *
b10110000 l
b10110000 m
b10110000 :
b10110000 c
b10110000 j
b10110000 (
b10110000 P
b10110000 R
b10110000 `
b10110000 }
b10101100 )
b10101100 Q
b10101100 X
b10101100 n
1!
#410
0!
#415
b10110100 *
b10110100 l
b10110100 m
b10110100 :
b10110100 c
b10110100 j
b10110100 (
b10110100 P
b10110100 R
b10110100 `
b10110100 }
b10110000 )
b10110000 Q
b10110000 X
b10110000 n
1!
#420
0!
#425
b10111000 *
b10111000 l
b10111000 m
b10111000 :
b10111000 c
b10111000 j
b10111000 (
b10111000 P
b10111000 R
b10111000 `
b10111000 }
b10110100 )
b10110100 Q
b10110100 X
b10110100 n
1!
#430
0!
#435
b10111100 *
b10111100 l
b10111100 m
b10111100 :
b10111100 c
b10111100 j
b10111100 (
b10111100 P
b10111100 R
b10111100 `
b10111100 }
b10111000 )
b10111000 Q
b10111000 X
b10111000 n
1!
#440
0!
#445
b11000000 *
b11000000 l
b11000000 m
b11000000 :
b11000000 c
b11000000 j
b11000000 (
b11000000 P
b11000000 R
b11000000 `
b11000000 }
b10111100 )
b10111100 Q
b10111100 X
b10111100 n
1!
#450
0!
#455
b11000100 *
b11000100 l
b11000100 m
b11000100 :
b11000100 c
b11000100 j
b11000100 (
b11000100 P
b11000100 R
b11000100 `
b11000100 }
b11000000 )
b11000000 Q
b11000000 X
b11000000 n
1!
#460
0!
#465
b11001000 *
b11001000 l
b11001000 m
b11001000 :
b11001000 c
b11001000 j
b11001000 (
b11001000 P
b11001000 R
b11001000 `
b11001000 }
b11000100 )
b11000100 Q
b11000100 X
b11000100 n
1!
#470
0!
#475
b11001100 *
b11001100 l
b11001100 m
b11001100 :
b11001100 c
b11001100 j
b11001100 (
b11001100 P
b11001100 R
b11001100 `
b11001100 }
b11001000 )
b11001000 Q
b11001000 X
b11001000 n
1!
#480
0!
#485
b11010000 *
b11010000 l
b11010000 m
b11010000 :
b11010000 c
b11010000 j
b11010000 (
b11010000 P
b11010000 R
b11010000 `
b11010000 }
b11001100 )
b11001100 Q
b11001100 X
b11001100 n
1!
#490
0!
#495
b11010100 *
b11010100 l
b11010100 m
b11010100 :
b11010100 c
b11010100 j
b11010100 (
b11010100 P
b11010100 R
b11010100 `
b11010100 }
b11010000 )
b11010000 Q
b11010000 X
b11010000 n
1!
#500
0!
#505
b11011000 *
b11011000 l
b11011000 m
b11011000 :
b11011000 c
b11011000 j
b11011000 (
b11011000 P
b11011000 R
b11011000 `
b11011000 }
b11010100 )
b11010100 Q
b11010100 X
b11010100 n
1!
#510
0!
#515
b11011100 *
b11011100 l
b11011100 m
b11011100 :
b11011100 c
b11011100 j
b11011100 (
b11011100 P
b11011100 R
b11011100 `
b11011100 }
b11011000 )
b11011000 Q
b11011000 X
b11011000 n
1!
#520
0!
#525
b11100000 *
b11100000 l
b11100000 m
b11100000 :
b11100000 c
b11100000 j
b11100000 (
b11100000 P
b11100000 R
b11100000 `
b11100000 }
b11011100 )
b11011100 Q
b11011100 X
b11011100 n
1!
#530
0!
#535
b11100100 *
b11100100 l
b11100100 m
b11100100 :
b11100100 c
b11100100 j
b11100100 (
b11100100 P
b11100100 R
b11100100 `
b11100100 }
b11100000 )
b11100000 Q
b11100000 X
b11100000 n
1!
#540
0!
#545
b11101000 *
b11101000 l
b11101000 m
b11101000 :
b11101000 c
b11101000 j
b11101000 (
b11101000 P
b11101000 R
b11101000 `
b11101000 }
b11100100 )
b11100100 Q
b11100100 X
b11100100 n
1!
#550
0!
#555
b11101100 *
b11101100 l
b11101100 m
b11101100 :
b11101100 c
b11101100 j
b11101100 (
b11101100 P
b11101100 R
b11101100 `
b11101100 }
b11101000 )
b11101000 Q
b11101000 X
b11101000 n
1!
#560
0!
#565
b11110000 *
b11110000 l
b11110000 m
b11110000 :
b11110000 c
b11110000 j
b11110000 (
b11110000 P
b11110000 R
b11110000 `
b11110000 }
b11101100 )
b11101100 Q
b11101100 X
b11101100 n
1!
#570
0!
#575
b11110100 *
b11110100 l
b11110100 m
b11110100 :
b11110100 c
b11110100 j
b11110100 (
b11110100 P
b11110100 R
b11110100 `
b11110100 }
b11110000 )
b11110000 Q
b11110000 X
b11110000 n
1!
#580
0!
#585
b11111000 *
b11111000 l
b11111000 m
b11111000 :
b11111000 c
b11111000 j
b11111000 (
b11111000 P
b11111000 R
b11111000 `
b11111000 }
b11110100 )
b11110100 Q
b11110100 X
b11110100 n
1!
#590
0!
#595
b11111100 *
b11111100 l
b11111100 m
b11111100 :
b11111100 c
b11111100 j
b11111100 (
b11111100 P
b11111100 R
b11111100 `
b11111100 }
b11111000 )
b11111000 Q
b11111000 X
b11111000 n
1!
#600
0!
#605
b100000000 *
b100000000 l
b100000000 m
b100000000 :
b100000000 c
b100000000 j
b100000000 (
b100000000 P
b100000000 R
b100000000 `
b100000000 }
b11111100 )
b11111100 Q
b11111100 X
b11111100 n
1!
#610
0!
#615
b100000100 *
b100000100 l
b100000100 m
b100000100 :
b100000100 c
b100000100 j
b100000100 (
b100000100 P
b100000100 R
b100000100 `
b100000100 }
b100000000 )
b100000000 Q
b100000000 X
b100000000 n
1!
#620
0!
#625
b100001000 *
b100001000 l
b100001000 m
b100001000 :
b100001000 c
b100001000 j
b100001000 (
b100001000 P
b100001000 R
b100001000 `
b100001000 }
b100000100 )
b100000100 Q
b100000100 X
b100000100 n
1!
#630
0!
#635
b100001100 *
b100001100 l
b100001100 m
b100001100 :
b100001100 c
b100001100 j
b100001100 (
b100001100 P
b100001100 R
b100001100 `
b100001100 }
b100001000 )
b100001000 Q
b100001000 X
b100001000 n
1!
#640
0!
#645
b100010000 *
b100010000 l
b100010000 m
b100010000 :
b100010000 c
b100010000 j
b100010000 (
b100010000 P
b100010000 R
b100010000 `
b100010000 }
b100001100 )
b100001100 Q
b100001100 X
b100001100 n
1!
#650
0!
#655
b100010100 *
b100010100 l
b100010100 m
b100010100 :
b100010100 c
b100010100 j
b100010100 (
b100010100 P
b100010100 R
b100010100 `
b100010100 }
b100010000 )
b100010000 Q
b100010000 X
b100010000 n
1!
#660
0!
#665
b100011000 *
b100011000 l
b100011000 m
b100011000 :
b100011000 c
b100011000 j
b100011000 (
b100011000 P
b100011000 R
b100011000 `
b100011000 }
b100010100 )
b100010100 Q
b100010100 X
b100010100 n
1!
#670
0!
#675
b100011100 *
b100011100 l
b100011100 m
b100011100 :
b100011100 c
b100011100 j
b100011100 (
b100011100 P
b100011100 R
b100011100 `
b100011100 }
b100011000 )
b100011000 Q
b100011000 X
b100011000 n
1!
#680
0!
#685
b100100000 *
b100100000 l
b100100000 m
b100100000 :
b100100000 c
b100100000 j
b100100000 (
b100100000 P
b100100000 R
b100100000 `
b100100000 }
b100011100 )
b100011100 Q
b100011100 X
b100011100 n
1!
#690
0!
#695
b100100100 *
b100100100 l
b100100100 m
b100100100 :
b100100100 c
b100100100 j
b100100100 (
b100100100 P
b100100100 R
b100100100 `
b100100100 }
b100100000 )
b100100000 Q
b100100000 X
b100100000 n
1!
#700
0!
#705
b100101000 *
b100101000 l
b100101000 m
b100101000 :
b100101000 c
b100101000 j
b100101000 (
b100101000 P
b100101000 R
b100101000 `
b100101000 }
b100100100 )
b100100100 Q
b100100100 X
b100100100 n
1!
#710
0!
#715
b100101100 *
b100101100 l
b100101100 m
b100101100 :
b100101100 c
b100101100 j
b100101100 (
b100101100 P
b100101100 R
b100101100 `
b100101100 }
b100101000 )
b100101000 Q
b100101000 X
b100101000 n
1!
#720
0!
#725
b100110000 *
b100110000 l
b100110000 m
b100110000 :
b100110000 c
b100110000 j
b100110000 (
b100110000 P
b100110000 R
b100110000 `
b100110000 }
b100101100 )
b100101100 Q
b100101100 X
b100101100 n
1!
#730
0!
#735
b100110100 *
b100110100 l
b100110100 m
b100110100 :
b100110100 c
b100110100 j
b100110100 (
b100110100 P
b100110100 R
b100110100 `
b100110100 }
b100110000 )
b100110000 Q
b100110000 X
b100110000 n
1!
#740
0!
#745
b100111000 *
b100111000 l
b100111000 m
b100111000 :
b100111000 c
b100111000 j
b100111000 (
b100111000 P
b100111000 R
b100111000 `
b100111000 }
b100110100 )
b100110100 Q
b100110100 X
b100110100 n
1!
#750
0!
#755
b100111100 *
b100111100 l
b100111100 m
b100111100 :
b100111100 c
b100111100 j
b100111100 (
b100111100 P
b100111100 R
b100111100 `
b100111100 }
b100111000 )
b100111000 Q
b100111000 X
b100111000 n
1!
#760
0!
