sample_code/lab3_cpu.vcd
$date
	Sun May 24 13:09:11 2020
$end
$version
	Icarus Verilog
$end
$timescale
	1s
$end
$scope module TestBench $end
$scope module cpu $end
$var wire 1 ! clk_i $end
$var wire 1 " rst_i $end
$var wire 1 # zero_alu $end
$var wire 32 $ pc_plus_4 [31:0] $end
$var wire 32 % pc_out [31:0] $end
$var wire 32 & pc_in [31:0] $end
$var wire 5 ' number_WriteReg_fromMux [4:0] $end
$var wire 1 ( mem_write $end
$var wire 1 ) mem_reg $end
$var wire 1 * mem_read $end
$var wire 1 + jump $end
$var wire 1 , jr $end
$var wire 32 - instruction [31:0] $end
$var wire 32 . data_into_ALU_after_mux [31:0] $end
$var wire 32 / data_after_se [31:0] $end
$var wire 32 0 data_after_left2 [31:0] $end
$var wire 1 1 branch_type_or_not $end
$var wire 2 2 branch_type [1:0] $end
$var wire 32 3 branch_target_addr [31:0] $end
$var wire 1 4 branch $end
$var wire 1 5 RegWrite $end
$var wire 1 6 RegDst $end
$var wire 32 7 RT_data [31:0] $end
$var wire 32 8 RS_data [31:0] $end
$var wire 32 9 RD_data [31:0] $end
$var wire 4 : AlU_control [3:0] $end
$var wire 1 ; ALUSrc $end
$var wire 3 < ALUOp [2:0] $end
$scope module AC $end
$var wire 6 = funct_i [5:0] $end
$var wire 3 > ALUOp_i [2:0] $end
$var reg 4 ? ALUCtrl_o [3:0] $end
$var reg 1 , jr_o $end
$upscope $end
$scope module ALU $end
$var wire 4 @ ctrl_i [3:0] $end
$var wire 5 A shamt_i [4:0] $end
$var wire 5 B tmp_shamt [4:0] $end
$var wire 32 C tmp_src1 [31:0] $end
$var wire 32 D tmp_src2 [31:0] $end
$var wire 32 E src2_i [31:0] $end
$var wire 32 F src1_i [31:0] $end
$var reg 32 G result_o [31:0] $end
$var reg 1 # zero_o $end
$upscope $end
$scope module Adder1 $end
$var wire 32 H src2_i [31:0] $end
$var wire 32 I sum_o [31:0] $end
$var wire 32 J src1_i [31:0] $end
$upscope $end
$scope module Adder2 $end
$var wire 32 K src1_i [31:0] $end
$var wire 32 L sum_o [31:0] $end
$var wire 32 M src2_i [31:0] $end
$upscope $end
$scope module Decoder $end
$var wire 6 N instr_op_i [5:0] $end
$var reg 1 ; ALUSrc_o $end
$var reg 3 O ALU_op_o [2:0] $end
$var reg 1 4 Branch_o $end
$var reg 1 6 RegDst_o $end
$var reg 1 5 RegWrite_o $end
$var reg 2 P branch_type_o [1:0] $end
$var reg 1 + jump_o $end
$var reg 1 * mem_read_o $end
$var reg 1 ) mem_to_reg $end
$var reg 1 ( mem_write_o $end
$upscope $end
$scope module IM $end
$var wire 32 Q pc_addr_i [31:0] $end
$var reg 32 R instr_o [31:0] $end
$var integer 32 S i [31:0] $end
$upscope $end
$scope module Mux_ALUSrc $end
$var wire 1 ; select_i $end
$var wire 32 T data1_i [31:0] $end
$var wire 32 U data0_i [31:0] $end
$var reg 32 V data_o [31:0] $end
$upscope $end
$scope module Mux_PC_Source $end
$var wire 32 W data0_i [31:0] $end
$var wire 32 X data1_i [31:0] $end
$var wire 1 Y select_i $end
$var reg 32 Z data_o [31:0] $end
$upscope $end
$scope module Mux_Write_Reg $end
$var wire 5 [ data0_i [4:0] $end
$var wire 5 \ data1_i [4:0] $end
$var wire 1 6 select_i $end
$var reg 5 ] data_o [4:0] $end
$upscope $end
$scope module PC $end
$var wire 1 ! clk_i $end
$var wire 32 ^ pc_in_i [31:0] $end
$var wire 1 " rst_i $end
$var reg 32 _ pc_out_o [31:0] $end
$upscope $end
$scope module RF $end
$var wire 5 ` RDaddr_i [4:0] $end
$var wire 32 a RDdata_i [31:0] $end
$var wire 5 b RSaddr_i [4:0] $end
$var wire 32 c RSdata_o [31:0] $end
$var wire 5 d RTaddr_i [4:0] $end
$var wire 32 e RTdata_o [31:0] $end
$var wire 1 5 RegWrite_i $end
$var wire 1 ! clk_i $end
$var wire 1 " rst_i $end
$upscope $end
$scope module SE $end
$var wire 4 f ctrl_i [3:0] $end
$var wire 16 g data_i [15:0] $end
$var reg 32 h data_o [31:0] $end
$upscope $end
$scope module Shifter $end
$var wire 32 i data_i [31:0] $end
$var wire 32 j data_o [31:0] $end
$upscope $end
$scope module branchtype $end
$var wire 1 k ALU_result_i $end
$var wire 2 l Branch_type_i [1:0] $end
$var wire 1 # Zero_i $end
$var reg 1 1 branch_type_result_o $end
$upscope $end
$upscope $end
$upscope $end
$enddefinitions $end
#0
$dumpvars
bx l
xk
bx00 j
bx i
bx h
bx g
bx f
bx e
bx d
bx c
bx b
bx a
bx `
bx _
bx ^
bx ]
bx \
bx [
bx Z
xY
bx X
bx W
bx V
bx U
bx T
b100000 S
bx R
bx Q
bx P
bx O
bx N
bx00 M
bx L
bx K
bx J
bx I
b100 H
bx G
bx F
bx E
bx D
bx C
bx B
bx A
bx @
bx ?
bx >
bx =
bx <
x;
bx :
bx 9
bx 8
bx 7
x6
x5
x4
bx 3
bx 2
x1
bx00 0
bx /
bx .
bx -
x,
x+
x*
x)
x(
bx '
bx &
bx %
bx $
x#
0"
0!
$end
#5
0k
b0 9
b0 G
b0 a
1Y
b1000 &
b1000 Z
b1000 ^
b0 D
b0 .
b0 E
b0 V
b1010 :
b1010 ?
b1010 @
b1010 f
11
b1000 3
b1000 L
b1000 X
b100 0
b100 M
b100 j
b1 /
b1 T
b1 h
b1 i
0,
b0 2
b0 P
b0 l
0+
0)
0*
0(
14
06
0;
b110 <
b110 >
b110 O
05
1#
b0 '
b0 ]
b0 `
b0 B
b0 A
b1 g
b1 =
b100 N
b0 7
b0 U
b0 e
b0 d
b0 C
b0 8
b0 F
b0 c
b0 b
b0 \
b0 [
b10000000000000000000000000001 -
b10000000000000000000000000001 R
b100 $
b100 I
b100 K
b100 W
b0 %
b0 J
b0 Q
b0 _
1!
#10
0!
1"
#15
01
0k
b1111 :
b1111 ?
b1111 @
b1111 f
0#
b1110000000011100 0
b1110000000011100 M
b1110000000011100 j
0Y
b11100000000111 /
b11100000000111 T
b11100000000111 h
b11100000000111 i
04
16
b0 <
b0 >
b0 O
15
b111 D
b111 .
b111 E
b111 V
b1 9
b1 G
b1 a
b111 '
b111 ]
b111 `
b1100 &
b1100 Z
b1100 ^
b11100000000111 g
b111 =
b0 N
b111 7
b111 U
b111 e
b111 d
b10 C
b10 8
b10 F
b10 c
b10 b
b111 \
b111 [
b10001110011100000000111 -
b10001110011100000000111 R
b1110000000101000 3
b1110000000101000 L
b1110000000101000 X
b1100 $
b1100 I
b1100 K
b1100 W
b1000 %
b1000 J
b1000 Q
b1000 _
1!
#20
0!
#25
11
1#
b0 0
b0 M
b0 j
b0 /
b0 T
b0 h
b0 i
b1101 :
b1101 ?
b1101 @
b1101 f
b0 9
b0 G
b0 a
b0 '
b0 ]
b0 `
b10000 &
b10000 Z
b10000 ^
b0 D
b0 .
b0 E
b0 V
b0 g
b0 =
b0 d
b0 C
b0 8
b0 F
b0 c
b0 b
b0 \
b0 [
b0 -
b0 R
b10000 3
b10000 L
b10000 X
b10000 $
b10000 I
b10000 K
b10000 W
b1100 %
b1100 J
b1100 Q
b1100 _
b0 7
b0 U
b0 e
1!
#30
0!
#35
b10100 &
b10100 Z
b10100 ^
b10100 3
b10100 L
b10100 X
b10100 $
b10100 I
b10100 K
b10100 W
b10000 %
b10000 J
b10000 Q
b10000 _
1!
#40
0!
#45
b11000 &
b11000 Z
b11000 ^
b11000 3
b11000 L
b11000 X
b11000 $
b11000 I
b11000 K
b11000 W
b10100 %
b10100 J
b10100 Q
b10100 _
1!
#50
0!
#55
b11100 &
b11100 Z
b11100 ^
b11100 3
b11100 L
b11100 X
b11100 $
b11100 I
b11100 K
b11100 W
b11000 %
b11000 J
b11000 Q
b11000 _
1!
#60
0!
#65
b100000 &
b100000 Z
b100000 ^
b100000 3
b100000 L
b100000 X
b100000 $
b100000 I
b100000 K
b100000 W
b11100 %
b11100 J
b11100 Q
b11100 _
1!
#70
0!
#75
b100100 &
b100100 Z
b100100 ^
b100100 3
b100100 L
b100100 X
b100100 $
b100100 I
b100100 K
b100100 W
b100000 %
b100000 J
b100000 Q
b100000 _
1!
#80
0!
#85
b101000 &
b101000 Z
b101000 ^
b101000 3
b101000 L
b101000 X
b101000 $
b101000 I
b101000 K
b101000 W
b100100 %
b100100 J
b100100 Q
b100100 _
1!
#90
0!
#95
b101100 &
b101100 Z
b101100 ^
b101100 3
b101100 L
b101100 X
b101100 $
b101100 I
b101100 K
b101100 W
b101000 %
b101000 J
b101000 Q
b101000 _
1!
#100
0!
#105
b110000 &
b110000 Z
b110000 ^
b110000 3
b110000 L
b110000 X
b110000 $
b110000 I
b110000 K
b110000 W
b101100 %
b101100 J
b101100 Q
b101100 _
1!
#110
0!
#115
b110100 &
b110100 Z
b110100 ^
b110100 3
b110100 L
b110100 X
b110100 $
b110100 I
b110100 K
b110100 W
b110000 %
b110000 J
b110000 Q
b110000 _
1!
#120
0!
#125
b111000 &
b111000 Z
b111000 ^
b111000 3
b111000 L
b111000 X
b111000 $
b111000 I
b111000 K
b111000 W
b110100 %
b110100 J
b110100 Q
b110100 _
1!
#130
0!
#135
b111100 &
b111100 Z
b111100 ^
b111100 3
b111100 L
b111100 X
b111100 $
b111100 I
b111100 K
b111100 W
b111000 %
b111000 J
b111000 Q
b111000 _
1!
#140
0!
#145
b1000000 &
b1000000 Z
b1000000 ^
b1000000 3
b1000000 L
b1000000 X
b1000000 $
b1000000 I
b1000000 K
b1000000 W
b111100 %
b111100 J
b111100 Q
b111100 _
1!
#150
0!
#155
b1000100 &
b1000100 Z
b1000100 ^
b1000100 3
b1000100 L
b1000100 X
b1000100 $
b1000100 I
b1000100 K
b1000100 W
b1000000 %
b1000000 J
b1000000 Q
b1000000 _
1!
#160
0!
#165
b1001000 &
b1001000 Z
b1001000 ^
b1001000 3
b1001000 L
b1001000 X
b1001000 $
b1001000 I
b1001000 K
b1001000 W
b1000100 %
b1000100 J
b1000100 Q
b1000100 _
1!
#170
0!
#175
b1001100 &
b1001100 Z
b1001100 ^
b1001100 3
b1001100 L
b1001100 X
b1001100 $
b1001100 I
b1001100 K
b1001100 W
b1001000 %
b1001000 J
b1001000 Q
b1001000 _
1!
#180
0!
#185
b1010000 &
b1010000 Z
b1010000 ^
b1010000 3
b1010000 L
b1010000 X
b1010000 $
b1010000 I
b1010000 K
b1010000 W
b1001100 %
b1001100 J
b1001100 Q
b1001100 _
1!
#190
0!
#195
b1010100 &
b1010100 Z
b1010100 ^
b1010100 3
b1010100 L
b1010100 X
b1010100 $
b1010100 I
b1010100 K
b1010100 W
b1010000 %
b1010000 J
b1010000 Q
b1010000 _
1!
#200
0!
#205
b1011000 &
b1011000 Z
b1011000 ^
b1011000 3
b1011000 L
b1011000 X
b1011000 $
b1011000 I
b1011000 K
b1011000 W
b1010100 %
b1010100 J
b1010100 Q
b1010100 _
1!
#210
0!
#215
b1011100 &
b1011100 Z
b1011100 ^
b1011100 3
b1011100 L
b1011100 X
b1011100 $
b1011100 I
b1011100 K
b1011100 W
b1011000 %
b1011000 J
b1011000 Q
b1011000 _
1!
#220
0!
#225
b1100000 &
b1100000 Z
b1100000 ^
b1100000 3
b1100000 L
b1100000 X
b1100000 $
b1100000 I
b1100000 K
b1100000 W
b1011100 %
b1011100 J
b1011100 Q
b1011100 _
1!
#230
0!
#235
b1100100 &
b1100100 Z
b1100100 ^
b1100100 3
b1100100 L
b1100100 X
b1100100 $
b1100100 I
b1100100 K
b1100100 W
b1100000 %
b1100000 J
b1100000 Q
b1100000 _
1!
#240
0!
#245
b1101000 &
b1101000 Z
b1101000 ^
b1101000 3
b1101000 L
b1101000 X
b1101000 $
b1101000 I
b1101000 K
b1101000 W
b1100100 %
b1100100 J
b1100100 Q
b1100100 _
1!
#250
0!
#255
b1101100 &
b1101100 Z
b1101100 ^
b1101100 3
b1101100 L
b1101100 X
b1101100 $
b1101100 I
b1101100 K
b1101100 W
b1101000 %
b1101000 J
b1101000 Q
b1101000 _
1!
#260
0!
#265
b1110000 &
b1110000 Z
b1110000 ^
b1110000 3
b1110000 L
b1110000 X
b1110000 $
b1110000 I
b1110000 K
b1110000 W
b1101100 %
b1101100 J
b1101100 Q
b1101100 _
1!
#270
0!
#275
b1110100 &
b1110100 Z
b1110100 ^
b1110100 3
b1110100 L
b1110100 X
b1110100 $
b1110100 I
b1110100 K
b1110100 W
b1110000 %
b1110000 J
b1110000 Q
b1110000 _
1!
#280
0!
#285
b1111000 &
b1111000 Z
b1111000 ^
b1111000 3
b1111000 L
b1111000 X
b1111000 $
b1111000 I
b1111000 K
b1111000 W
b1110100 %
b1110100 J
b1110100 Q
b1110100 _
1!
#290
0!
#295
b1111100 &
b1111100 Z
b1111100 ^
b1111100 3
b1111100 L
b1111100 X
b1111100 $
b1111100 I
b1111100 K
b1111100 W
b1111000 %
b1111000 J
b1111000 Q
b1111000 _
1!
#300
0!
#305
b10000000 &
b10000000 Z
b10000000 ^
b10000000 3
b10000000 L
b10000000 X
b10000000 $
b10000000 I
b10000000 K
b10000000 W
b1111100 %
b1111100 J
b1111100 Q
b1111100 _
1!
#310
0!
#315
01
0#
bx00 0
bx00 M
bx00 j
xk
bx /
bx T
bx h
bx i
bx D
bx .
bx E
bx V
bx 9
bx G
bx a
bx '
bx ]
bx `
b10000100 &
b10000100 Z
b10000100 ^
bx B
bx A
bx g
bx =
bx N
bx 7
bx U
bx e
bx d
bx C
bx 8
bx F
bx c
bx b
bx \
bx [
bx -
bx R
bx 3
bx L
bx X
b10000100 $
b10000100 I
b10000100 K
b10000100 W
b10000000 %
b10000000 J
b10000000 Q
b10000000 _
1!
#320
0!
#325
b10001000 &
b10001000 Z
b10001000 ^
b10001000 $
b10001000 I
b10001000 K
b10001000 W
b10000100 %
b10000100 J
b10000100 Q
b10000100 _
1!
#330
0!
#335
b10001100 &
b10001100 Z
b10001100 ^
b10001100 $
b10001100 I
b10001100 K
b10001100 W
b10001000 %
b10001000 J
b10001000 Q
b10001000 _
1!
#340
0!
#345
b10010000 &
b10010000 Z
b10010000 ^
b10010000 $
b10010000 I
b10010000 K
b10010000 W
b10001100 %
b10001100 J
b10001100 Q
b10001100 _
1!
#350
0!
#355
b10010100 &
b10010100 Z
b10010100 ^
b10010100 $
b10010100 I
b10010100 K
b10010100 W
b10010000 %
b10010000 J
b10010000 Q
b10010000 _
1!
#360
0!
#365
b10011000 &
b10011000 Z
b10011000 ^
b10011000 $
b10011000 I
b10011000 K
b10011000 W
b10010100 %
b10010100 J
b10010100 Q
b10010100 _
1!
#370
0!
#375
b10011100 &
b10011100 Z
b10011100 ^
b10011100 $
b10011100 I
b10011100 K
b10011100 W
b10011000 %
b10011000 J
b10011000 Q
b10011000 _
1!
#380
0!
#385
b10100000 &
b10100000 Z
b10100000 ^
b10100000 $
b10100000 I
b10100000 K
b10100000 W
b10011100 %
b10011100 J
b10011100 Q
b10011100 _
1!
#390
0!
#395
b10100100 &
b10100100 Z
b10100100 ^
b10100100 $
b10100100 I
b10100100 K
b10100100 W
b10100000 %
b10100000 J
b10100000 Q
b10100000 _
1!
#400
0!
#405
b10101000 &
b10101000 Z
b10101000 ^
b10101000 $
b10101000 I
b10101000 K
b10101000 W
b10100100 %
b10100100 J
b10100100 Q
b10100100 _
1!
#410
0!
#415
b10101100 &
b10101100 Z
b10101100 ^
b10101100 $
b10101100 I
b10101100 K
b10101100 W
b10101000 %
b10101000 J
b10101000 Q
b10101000 _
1!
#420
0!
#425
b10110000 &
b10110000 Z
b10110000 ^
b10110000 $
b10110000 I
b10110000 K
b10110000 W
b10101100 %
b10101100 J
b10101100 Q
b10101100 _
1!
#430
0!
#435
b10110100 &
b10110100 Z
b10110100 ^
b10110100 $
b10110100 I
b10110100 K
b10110100 W
b10110000 %
b10110000 J
b10110000 Q
b10110000 _
1!
#440
0!
#445
b10111000 &
b10111000 Z
b10111000 ^
b10111000 $
b10111000 I
b10111000 K
b10111000 W
b10110100 %
b10110100 J
b10110100 Q
b10110100 _
1!
#450
0!
#455
b10111100 &
b10111100 Z
b10111100 ^
b10111100 $
b10111100 I
b10111100 K
b10111100 W
b10111000 %
b10111000 J
b10111000 Q
b10111000 _
1!
#460
0!
#465
b11000000 &
b11000000 Z
b11000000 ^
b11000000 $
b11000000 I
b11000000 K
b11000000 W
b10111100 %
b10111100 J
b10111100 Q
b10111100 _
1!
#470
0!
#475
b11000100 &
b11000100 Z
b11000100 ^
b11000100 $
b11000100 I
b11000100 K
b11000100 W
b11000000 %
b11000000 J
b11000000 Q
b11000000 _
1!
#480
0!
#485
b11001000 &
b11001000 Z
b11001000 ^
b11001000 $
b11001000 I
b11001000 K
b11001000 W
b11000100 %
b11000100 J
b11000100 Q
b11000100 _
1!
#490
0!
#495
b11001100 &
b11001100 Z
b11001100 ^
b11001100 $
b11001100 I
b11001100 K
b11001100 W
b11001000 %
b11001000 J
b11001000 Q
b11001000 _
1!
#500
0!
#505
b11010000 &
b11010000 Z
b11010000 ^
b11010000 $
b11010000 I
b11010000 K
b11010000 W
b11001100 %
b11001100 J
b11001100 Q
b11001100 _
1!
#510
0!
#515
b11010100 &
b11010100 Z
b11010100 ^
b11010100 $
b11010100 I
b11010100 K
b11010100 W
b11010000 %
b11010000 J
b11010000 Q
b11010000 _
1!
#520
0!
#525
b11011000 &
b11011000 Z
b11011000 ^
b11011000 $
b11011000 I
b11011000 K
b11011000 W
b11010100 %
b11010100 J
b11010100 Q
b11010100 _
1!
#530
0!
#535
b11011100 &
b11011100 Z
b11011100 ^
b11011100 $
b11011100 I
b11011100 K
b11011100 W
b11011000 %
b11011000 J
b11011000 Q
b11011000 _
1!
#540
0!
#545
b11100000 &
b11100000 Z
b11100000 ^
b11100000 $
b11100000 I
b11100000 K
b11100000 W
b11011100 %
b11011100 J
b11011100 Q
b11011100 _
1!
#550
0!
#555
b11100100 &
b11100100 Z
b11100100 ^
b11100100 $
b11100100 I
b11100100 K
b11100100 W
b11100000 %
b11100000 J
b11100000 Q
b11100000 _
1!
#560
0!
#565
b11101000 &
b11101000 Z
b11101000 ^
b11101000 $
b11101000 I
b11101000 K
b11101000 W
b11100100 %
b11100100 J
b11100100 Q
b11100100 _
1!
#570
0!
#575
b11101100 &
b11101100 Z
b11101100 ^
b11101100 $
b11101100 I
b11101100 K
b11101100 W
b11101000 %
b11101000 J
b11101000 Q
b11101000 _
1!
#580
0!
#585
b11110000 &
b11110000 Z
b11110000 ^
b11110000 $
b11110000 I
b11110000 K
b11110000 W
b11101100 %
b11101100 J
b11101100 Q
b11101100 _
1!
#590
0!
#595
b11110100 &
b11110100 Z
b11110100 ^
b11110100 $
b11110100 I
b11110100 K
b11110100 W
b11110000 %
b11110000 J
b11110000 Q
b11110000 _
1!
#600
0!
#605
b11111000 &
b11111000 Z
b11111000 ^
b11111000 $
b11111000 I
b11111000 K
b11111000 W
b11110100 %
b11110100 J
b11110100 Q
b11110100 _
1!
#610
0!
#615
b11111100 &
b11111100 Z
b11111100 ^
b11111100 $
b11111100 I
b11111100 K
b11111100 W
b11111000 %
b11111000 J
b11111000 Q
b11111000 _
1!
#620
0!
#625
b100000000 &
b100000000 Z
b100000000 ^
b100000000 $
b100000000 I
b100000000 K
b100000000 W
b11111100 %
b11111100 J
b11111100 Q
b11111100 _
1!
#630
0!
#635
b100000100 &
b100000100 Z
b100000100 ^
b100000100 $
b100000100 I
b100000100 K
b100000100 W
b100000000 %
b100000000 J
b100000000 Q
b100000000 _
1!
#640
0!
#645
b100001000 &
b100001000 Z
b100001000 ^
b100001000 $
b100001000 I
b100001000 K
b100001000 W
b100000100 %
b100000100 J
b100000100 Q
b100000100 _
1!
#650
0!
#655
b100001100 &
b100001100 Z
b100001100 ^
b100001100 $
b100001100 I
b100001100 K
b100001100 W
b100001000 %
b100001000 J
b100001000 Q
b100001000 _
1!
#660
0!
#665
b100010000 &
b100010000 Z
b100010000 ^
b100010000 $
b100010000 I
b100010000 K
b100010000 W
b100001100 %
b100001100 J
b100001100 Q
b100001100 _
1!
#670
0!
#675
b100010100 &
b100010100 Z
b100010100 ^
b100010100 $
b100010100 I
b100010100 K
b100010100 W
b100010000 %
b100010000 J
b100010000 Q
b100010000 _
1!
#680
0!
#685
b100011000 &
b100011000 Z
b100011000 ^
b100011000 $
b100011000 I
b100011000 K
b100011000 W
b100010100 %
b100010100 J
b100010100 Q
b100010100 _
1!
#690
0!
#695
b100011100 &
b100011100 Z
b100011100 ^
b100011100 $
b100011100 I
b100011100 K
b100011100 W
b100011000 %
b100011000 J
b100011000 Q
b100011000 _
1!
#700
0!
#705
b100100000 &
b100100000 Z
b100100000 ^
b100100000 $
b100100000 I
b100100000 K
b100100000 W
b100011100 %
b100011100 J
b100011100 Q
b100011100 _
1!
#710
0!
#715
b100100100 &
b100100100 Z
b100100100 ^
b100100100 $
b100100100 I
b100100100 K
b100100100 W
b100100000 %
b100100000 J
b100100000 Q
b100100000 _
1!
#720
0!
#725
b100101000 &
b100101000 Z
b100101000 ^
b100101000 $
b100101000 I
b100101000 K
b100101000 W
b100100100 %
b100100100 J
b100100100 Q
b100100100 _
1!
#730
0!
#735
b100101100 &
b100101100 Z
b100101100 ^
b100101100 $
b100101100 I
b100101100 K
b100101100 W
b100101000 %
b100101000 J
b100101000 Q
b100101000 _
1!
#740
0!
#745
b100110000 &
b100110000 Z
b100110000 ^
b100110000 $
b100110000 I
b100110000 K
b100110000 W
b100101100 %
b100101100 J
b100101100 Q
b100101100 _
1!
#750
0!
#755
b100110100 &
b100110100 Z
b100110100 ^
b100110100 $
b100110100 I
b100110100 K
b100110100 W
b100110000 %
b100110000 J
b100110000 Q
b100110000 _
1!
#760
0!
#765
b100111000 &
b100111000 Z
b100111000 ^
b100111000 $
b100111000 I
b100111000 K
b100111000 W
b100110100 %
b100110100 J
b100110100 Q
b100110100 _
1!
#770
0!
#775
b100111100 &
b100111100 Z
b100111100 ^
b100111100 $
b100111100 I
b100111100 K
b100111100 W
b100111000 %
b100111000 J
b100111000 Q
b100111000 _
1!
#780
0!
#785
b101000000 &
b101000000 Z
b101000000 ^
b101000000 $
b101000000 I
b101000000 K
b101000000 W
b100111100 %
b100111100 J
b100111100 Q
b100111100 _
1!
#790
0!
#795
b101000100 &
b101000100 Z
b101000100 ^
b101000100 $
b101000100 I
b101000100 K
b101000100 W
b101000000 %
b101000000 J
b101000000 Q
b101000000 _
1!
#800
0!
#805
b101001000 &
b101001000 Z
b101001000 ^
b101001000 $
b101001000 I
b101001000 K
b101001000 W
b101000100 %
b101000100 J
b101000100 Q
b101000100 _
1!
#810
0!
#815
b101001100 &
b101001100 Z
b101001100 ^
b101001100 $
b101001100 I
b101001100 K
b101001100 W
b101001000 %
b101001000 J
b101001000 Q
b101001000 _
1!
#820
0!
#825
b101010000 &
b101010000 Z
b101010000 ^
b101010000 $
b101010000 I
b101010000 K
b101010000 W
b101001100 %
b101001100 J
b101001100 Q
b101001100 _
1!
#830
0!
#835
b101010100 &
b101010100 Z
b101010100 ^
b101010100 $
b101010100 I
b101010100 K
b101010100 W
b101010000 %
b101010000 J
b101010000 Q
b101010000 _
1!
#840
0!
#845
b101011000 &
b101011000 Z
b101011000 ^
b101011000 $
b101011000 I
b101011000 K
b101011000 W
b101010100 %
b101010100 J
b101010100 Q
b101010100 _
1!
#850
0!
#855
b101011100 &
b101011100 Z
b101011100 ^
b101011100 $
b101011100 I
b101011100 K
b101011100 W
b101011000 %
b101011000 J
b101011000 Q
b101011000 _
1!
#860
0!
#865
b101100000 &
b101100000 Z
b101100000 ^
b101100000 $
b101100000 I
b101100000 K
b101100000 W
b101011100 %
b101011100 J
b101011100 Q
b101011100 _
1!
#870
0!
#875
b101100100 &
b101100100 Z
b101100100 ^
b101100100 $
b101100100 I
b101100100 K
b101100100 W
b101100000 %
b101100000 J
b101100000 Q
b101100000 _
1!
#880
0!
#885
b101101000 &
b101101000 Z
b101101000 ^
b101101000 $
b101101000 I
b101101000 K
b101101000 W
b101100100 %
b101100100 J
b101100100 Q
b101100100 _
1!
#890
0!
#895
b101101100 &
b101101100 Z
b101101100 ^
b101101100 $
b101101100 I
b101101100 K
b101101100 W
b101101000 %
b101101000 J
b101101000 Q
b101101000 _
1!
#900
0!
#905
b101110000 &
b101110000 Z
b101110000 ^
b101110000 $
b101110000 I
b101110000 K
b101110000 W
b101101100 %
b101101100 J
b101101100 Q
b101101100 _
1!
#910
0!
#915
b101110100 &
b101110100 Z
b101110100 ^
b101110100 $
b101110100 I
b101110100 K
b101110100 W
b101110000 %
b101110000 J
b101110000 Q
b101110000 _
1!
#920
0!
#925
b101111000 &
b101111000 Z
b101111000 ^
b101111000 $
b101111000 I
b101111000 K
b101111000 W
b101110100 %
b101110100 J
b101110100 Q
b101110100 _
1!
#930
0!
#935
b101111100 &
b101111100 Z
b101111100 ^
b101111100 $
b101111100 I
b101111100 K
b101111100 W
b101111000 %
b101111000 J
b101111000 Q
b101111000 _
1!
#940
0!
#945
b110000000 &
b110000000 Z
b110000000 ^
b110000000 $
b110000000 I
b110000000 K
b110000000 W
b101111100 %
b101111100 J
b101111100 Q
b101111100 _
1!
#950
0!
#955
b110000100 &
b110000100 Z
b110000100 ^
b110000100 $
b110000100 I
b110000100 K
b110000100 W
b110000000 %
b110000000 J
b110000000 Q
b110000000 _
1!
#960
0!
#965
b110001000 &
b110001000 Z
b110001000 ^
b110001000 $
b110001000 I
b110001000 K
b110001000 W
b110000100 %
b110000100 J
b110000100 Q
b110000100 _
1!
#970
0!
#975
b110001100 &
b110001100 Z
b110001100 ^
b110001100 $
b110001100 I
b110001100 K
b110001100 W
b110001000 %
b110001000 J
b110001000 Q
b110001000 _
1!
#980
0!
#985
b110010000 &
b110010000 Z
b110010000 ^
b110010000 $
b110010000 I
b110010000 K
b110010000 W
b110001100 %
b110001100 J
b110001100 Q
b110001100 _
1!
#990
0!
#995
b110010100 &
b110010100 Z
b110010100 ^
b110010100 $
b110010100 I
b110010100 K
b110010100 W
b110010000 %
b110010000 J
b110010000 Q
b110010000 _
1!
#1000
0!
#1005
b110011000 &
b110011000 Z
b110011000 ^
b110011000 $
b110011000 I
b110011000 K
b110011000 W
b110010100 %
b110010100 J
b110010100 Q
b110010100 _
1!
#1010
0!
#1015
b110011100 &
b110011100 Z
b110011100 ^
b110011100 $
b110011100 I
b110011100 K
b110011100 W
b110011000 %
b110011000 J
b110011000 Q
b110011000 _
1!
#1020
0!
#1025
b110100000 &
b110100000 Z
b110100000 ^
b110100000 $
b110100000 I
b110100000 K
b110100000 W
b110011100 %
b110011100 J
b110011100 Q
b110011100 _
1!
#1030
0!
#1035
b110100100 &
b110100100 Z
b110100100 ^
b110100100 $
b110100100 I
b110100100 K
b110100100 W
b110100000 %
b110100000 J
b110100000 Q
b110100000 _
1!
#1040
0!
#1045
b110101000 &
b110101000 Z
b110101000 ^
b110101000 $
b110101000 I
b110101000 K
b110101000 W
b110100100 %
b110100100 J
b110100100 Q
b110100100 _
1!
#1050
0!
#1055
b110101100 &
b110101100 Z
b110101100 ^
b110101100 $
b110101100 I
b110101100 K
b110101100 W
b110101000 %
b110101000 J
b110101000 Q
b110101000 _
1!
#1060
0!
#1065
b110110000 &
b110110000 Z
b110110000 ^
b110110000 $
b110110000 I
b110110000 K
b110110000 W
b110101100 %
b110101100 J
b110101100 Q
b110101100 _
1!
#1070
0!
#1075
b110110100 &
b110110100 Z
b110110100 ^
b110110100 $
b110110100 I
b110110100 K
b110110100 W
b110110000 %
b110110000 J
b110110000 Q
b110110000 _
1!
#1080
0!
#1085
b110111000 &
b110111000 Z
b110111000 ^
b110111000 $
b110111000 I
b110111000 K
b110111000 W
b110110100 %
b110110100 J
b110110100 Q
b110110100 _
1!
#1090
0!
#1095
b110111100 &
b110111100 Z
b110111100 ^
b110111100 $
b110111100 I
b110111100 K
b110111100 W
b110111000 %
b110111000 J
b110111000 Q
b110111000 _
1!
#1100
0!
#1105
b111000000 &
b111000000 Z
b111000000 ^
b111000000 $
b111000000 I
b111000000 K
b111000000 W
b110111100 %
b110111100 J
b110111100 Q
b110111100 _
1!
#1110
0!
#1115
b111000100 &
b111000100 Z
b111000100 ^
b111000100 $
b111000100 I
b111000100 K
b111000100 W
b111000000 %
b111000000 J
b111000000 Q
b111000000 _
1!
#1120
0!
#1125
b111001000 &
b111001000 Z
b111001000 ^
b111001000 $
b111001000 I
b111001000 K
b111001000 W
b111000100 %
b111000100 J
b111000100 Q
b111000100 _
1!
#1130
0!
#1135
b111001100 &
b111001100 Z
b111001100 ^
b111001100 $
b111001100 I
b111001100 K
b111001100 W
b111001000 %
b111001000 J
b111001000 Q
b111001000 _
1!
#1140
0!
#1145
b111010000 &
b111010000 Z
b111010000 ^
b111010000 $
b111010000 I
b111010000 K
b111010000 W
b111001100 %
b111001100 J
b111001100 Q
b111001100 _
1!
#1150
0!
#1155
b111010100 &
b111010100 Z
b111010100 ^
b111010100 $
b111010100 I
b111010100 K
b111010100 W
b111010000 %
b111010000 J
b111010000 Q
b111010000 _
1!
#1160
0!
#1165
b111011000 &
b111011000 Z
b111011000 ^
b111011000 $
b111011000 I
b111011000 K
b111011000 W
b111010100 %
b111010100 J
b111010100 Q
b111010100 _
1!
#1170
0!
#1175
b111011100 &
b111011100 Z
b111011100 ^
b111011100 $
b111011100 I
b111011100 K
b111011100 W
b111011000 %
b111011000 J
b111011000 Q
b111011000 _
1!
#1180
0!
#1185
b111100000 &
b111100000 Z
b111100000 ^
b111100000 $
b111100000 I
b111100000 K
b111100000 W
b111011100 %
b111011100 J
b111011100 Q
b111011100 _
1!
#1190
0!
